52,608766
56,1505452
53,575363
51,2412912
22,198851
45,1218249
58,9648188
60,2137764
61,961752
62,649037
63,1423578
64,903366
49,783540
67,582685
82,2982222
83,3592957
80,13297236
81,1110269
86,2723074
87,7393920
84,128539
24,552896
25,145514
26,458071
27,1155541
20,1339696
07,691688
48,1529294
23,91140
46,17762
47,448787
44,168235
42,2420631
28,701343
29,100454
41,469823
50,3231602
09,7147
96,2246
08,18588
13,454243
76,2916324
75,1281015
38,601219
73,12142752
72,1304215
70,1907554
15,220674
79,2304503
78,566699
10,41197
39,1153788
12,87364
59,2970057
14,93019
0A,2922779
16,91545
33,495079
54,3857418
31,124714
30,460285
37,1507062
36,992236
35,1443324
34,1090845
55,2814057
89,503461
21,11134
32,460070
17,2872475
57,1104843
65,1671917
