1131,2632
1132,2216
1133,59597
114111,3159
114112,2033
114119,110
1142,1845
115111,2542
115112,11340
115113,2316
115114,35989
115115,10500
115116,3626
1152,20460
1153,13740
211111,133286
211112,8523
212111,38396
212112,39749
212113,1703
21221,5044
212221,12276
212222,683
212231,2209
212234,10393
212291,617
212299,3435
212311,4981
212312,33567
212313,8308
212319,8869
212321,29259
212322,0
212324,2796
212325,2775
212391,2014
212392,0
212393,1778
212399,4208
213111,106426
213112,214531
213113,7516
213114,6540
213115,6021
221111,4651
221112,83883
221113,29531
221119,11498
221121,5085
221122,368486
2212,79354
22131,33017
22132,5829
22133,1423
236115,282851
236116,46634
236117,220674
236118,355134
23621,96918
23622,670043
23711,206899
23712,121718
23713,196223
2372,76733
2373,323289
2379,91545
23811,301905
23812,79359
23813,148356
23814,234615
23815,54587
23816,189855
23817,49510
23819,45035
23821,825169
23822,1012541
23829,124077
23831,320238
23832,233903
23833,85000
23834,70580
23835,163932
23839,70431
23891,331237
23899,238892
311111,16571
311119,30412
311211,11715
311212,3395
311213,962
311221,8935
311222,7097
311223,2524
311225,8434
31123,14987
311311,6654
311312,2876
311313,6883
31132,7354
31133,31440
31134,18250
311411,31266
311412,55287
311421,48830
311422,13541
311423,13329
311511,53493
311512,1442
311513,40661
311514,14216
31152,19880
311611,148927
311612,100361
311613,8294
311615,230231
311711,2723
311712,30446
311811,59187
311812,143490
311813,21165
311821,28629
311822,13279
311823,4088
31183,15160
311911,13125
311919,30503
31192,13607
31193,5726
311941,14384
311942,16804
311991,37281
311999,31422
312111,55884
312112,9507
312113,5240
31212,27398
31213,31964
31214,5986
31221,0
312221,11134
312229,6250
313111,24192
313112,16253
313113,1596
31321,38062
313221,8950
313222,1320
31323,19160
313241,6062
313249,6960
313311,17870
313312,14200
31332,9457
31411,44650
314121,11855
314129,23773
314911,6111
314912,20331
314991,3943
314992,3691
314999,38624
315111,4806
315119,14735
315191,5791
315192,0
315211,17230
315212,59597
315221,670
315222,7179
315223,4902
315224,3005
315225,8053
315228,5030
315231,2831
315232,10698
315233,8094
315234,2160
315239,13666
315291,430
315292,839
315299,11358
3159,15128
315991,5057
315992,1804
315993,1922
315999,6345
3161,4856
316211,2500
316212,0
316213,7395
316214,3766
316219,1326
3169,16798
316991,5845
316992,2183
316993,2964
316999,5806
321113,99007
321114,13418
321211,18456
321212,21627
321213,8123
321214,40555
321219,20241
321911,74933
321912,29313
321918,45608
32192,54874
321991,42241
321992,24903
321999,34266
32211,6569
322121,81994
322122,5194
32213,36311
322211,109747
322212,34437
322213,3603
322214,8056
322215,11040
322221,4145
322222,34086
322223,3048
322224,12396
322225,3545
322226,2510
322231,9318
322232,18025
322233,4087
322291,17127
322299,19858
323110,309375
323111,18736
323112,32036
323113,67158
323114,40771
323115,26161
323116,24235
323117,32913
323118,8693
323119,23332
323121,23880
323122,24481
32411,64263
324121,14457
324122,11598
324191,10136
324199,3123
32511,8418
32512,0
325131,0
325132,5128
325181,0
325182,0
325188,42063
325191,3957
325192,3033
325193,5957
325199,68867
325211,61199
325212,8455
325221,1306
325222,17641
325311,3772
325312,0
325314,8551
32532,10668
325411,27475
325412,158124
325413,27215
325414,28525
32551,41177
32552,21316
325611,23660
325612,16670
325613,6135
32562,57957
32591,12821
32592,5926
325991,21942
325992,26765
325998,35765
326111,29894
326112,23753
326113,43898
326121,28092
326122,21588
32613,10718
32614,32229
32615,34825
32616,32863
326191,24391
326192,4831
326199,420890
326211,49756
326212,8208
32622,19781
326291,37472
326299,32294
327111,5241
327112,8517
327113,6437
327121,13582
327122,6772
327123,1588
327124,4694
327125,5713
327211,10489
327212,18646
327213,0
327215,53643
32731,17461
32732,101509
327331,22164
327332,13906
32739,66448
32741,4683
32742,12649
32791,15348
327991,31351
327992,7323
327993,18798
327999,10068
331111,107688
331112,2310
33121,21439
331221,9632
331222,13421
331311,0
331312,8686
331314,6929
331315,17136
331316,26460
331319,3390
331411,1912
331419,7210
331421,13874
331422,9530
331423,1246
331491,17098
331492,9596
331511,55075
331512,16777
331513,18101
331521,21319
331522,12231
331524,25569
331525,6285
331528,4620
332111,23511
332112,8273
332114,17922
332115,3189
332116,63014
332117,8497
332211,5281
332212,35447
332213,6100
332214,3701
332311,29944
332312,109752
332313,32760
332321,73571
332322,113221
332323,39538
33241,22207
33242,36630
332431,19500
332439,15019
3325,41763
332611,4084
332612,14459
332618,34870
33271,277099
332721,74285
332722,43823
332811,21295
332812,58412
332813,57476
332911,37617
332912,37025
332913,10484
332919,15529
332991,28849
332992,7540
332993,5903
332994,12598
332995,5355
332996,27143
332997,4841
332998,5345
332999,72994
333111,58833
333112,23410
33312,71330
333131,11309
333132,40663
33321,6475
33322,15232
333291,9926
333292,6257
333293,13455
333294,16758
333295,24340
333298,37579
333311,5292
333312,2543
333313,9870
333314,17539
333315,6686
333319,53799
333411,14939
333412,10870
333414,21127
333415,104239
333511,37010
333512,17222
333513,8716
333514,54199
333515,35013
333516,3062
333518,12336
333611,20333
333612,13075
333613,15979
333618,53095
333911,30823
333912,23285
333913,4352
333921,7549
333922,31144
333923,15662
333924,26331
333991,7908
333992,17529
333993,21610
333994,11013
333995,20033
333996,14154
333997,3833
333999,49803
334111,35209
334112,19113
334113,842
334119,43973
33421,41302
33422,92483
33429,18062
3343,17191
334411,4838
334412,40487
334413,141409
334414,6836
334415,4282
334416,10951
334417,25964
334418,68155
334419,59937
334510,58111
334511,132751
334512,13813
334513,40932
334514,16441
334515,39774
334516,32695
334517,17738
334518,2076
334519,30635
334611,2945
334612,18345
334613,0
33511,8931
335121,11989
335122,17989
335129,18606
335211,6871
335212,4682
335221,15467
335222,14098
335224,12183
335228,12365
335311,22298
335312,43880
335313,33043
335314,39111
335911,17653
335912,7659
335921,5701
335929,27426
335931,29466
335932,16339
335991,8352
335999,32150
336111,73095
336112,92789
33612,30609
336211,50391
336212,32854
336213,18627
336214,49716
336311,10132
336312,61763
336321,13378
336322,55963
33633,35972
33634,30859
33635,77968
33636,52186
33637,100006
336391,15994
336399,139409
336411,152661
336412,77306
336413,107141
336414,48069
336415,15927
336419,7035
3365,28712
336611,94876
336612,53988
3369,46721
336991,16289
336992,8564
336999,21868
33711,141349
337121,74885
337122,69095
337124,12033
337125,5520
337127,29235
337129,1857
337211,21909
337212,36012
337214,25756
337215,57323
33791,23719
33792,18708
339111,19273
339112,101760
339113,108150
339114,16581
339115,24492
339116,46533
339911,25143
339912,1856
339913,4514
339914,5860
33992,51587
339931,1641
339932,10708
339941,4394
339942,5353
339943,4981
339944,2057
33995,90931
339991,34665
339992,13884
339993,3903
339994,10661
339995,5010
339999,86911
42311,117134
42312,189925
42313,32365
42314,16404
42321,63757
42322,90109
42331,143484
42332,43203
42333,34970
42339,42595
42341,16255
42342,147700
42343,280486
42344,50007
42345,153896
42346,23019
42349,34188
42351,156591
42352,3775
42361,160759
42362,42876
42369,246270
42371,83822
42372,79214
42373,54927
42374,14043
42381,101336
42382,96948
42383,321524
42384,109143
42385,54391
42386,40460
42391,53064
42392,32283
42393,101172
42394,52571
42399,110611
42411,22508
42412,83996
42413,65804
4242,248057
42431,31968
42432,55727
42433,85711
42434,23195
42441,136572
42442,91772
42443,45969
42444,10869
42445,51875
42446,24232
42447,44542
42448,102183
42449,260328
42451,44585
42452,9895
42459,6869
42461,35553
42469,103928
42471,62107
42472,32738
42481,107891
42482,70803
42491,79749
42492,67808
42493,56785
42494,54216
42495,19875
42499,89939
42511,7731
42512,333793
44111,1137524
44112,136136
44121,42536
441221,69215
441222,41705
441229,15517
44131,329193
44132,166440
4421,271675
44221,94807
442291,15688
442299,214368
443111,69030
443112,318099
44312,99697
44313,13954
44411,0
44412,35316
44413,140296
44419,404391
44421,26193
44422,145376
44511,2424912
44512,139621
44521,41559
44522,10380
44523,23498
445291,28845
445292,20466
445299,49810
4453,142692
44611,797816
44612,90993
44613,70814
446191,48090
446199,61474
44711,724770
44719,163935
44811,65586
44812,341826
44813,94363
44814,635448
44815,42313
44819,99403
4482,206338
44831,154028
44832,8852
45111,235692
45112,136035
45113,50583
45114,33266
451211,145155
451212,8223
45122,30740
452111,575363
452112,0
45291,961360
45299,316279
4531,93779
45321,122323
45322,192836
4533,133918
45391,101014
45392,22043
45393,23683
453991,26140
453998,98091
454111,78941
454112,5977
454113,183410
4542,49446
454311,46215
454312,44424
454319,698
45439,102447
481111,417071
481112,0
481211,32604
481212,6484
481219,5707
483111,11308
483112,0
483113,22568
483114,2293
483211,17377
483212,3390
48411,211878
484121,512213
484122,274606
48421,105381
48422,206950
48423,165369
485111,1538
485112,694
485113,47562
485119,3118
4852,17432
48531,33404
48532,39100
4854,206787
4855,28384
4859,62604
485991,47663
485999,14941
4861,8347
4862,24683
48691,8223
48699,1192
4871,9690
4872,15612
4879,2162
488111,2246
488119,70718
48819,92289
4882,28627
48831,6573
48832,62941
48833,12997
48839,10896
48841,53177
48849,23358
4885,212165
4889,34654
488991,21475
488999,0
4921,528177
4922,41013
49311,509893
49312,46117
49313,7624
49319,115443
51111,360270
51112,158979
51113,87016
51114,56335
511191,11662
511199,13772
5112,346675
51211,130250
51212,10097
512131,129039
512132,1703
512191,22769
512199,4740
51221,1462
51222,7239
51223,4369
51224,5570
51229,3409
515111,12411
515112,111801
51512,128082
5152,41674
5171,621712
517211,4902
517212,272720
5173,34973
5174,13149
5175,240038
5179,14428
518111,46146
518112,25161
5182,375474
51911,12535
51912,30352
51919,11772
521,20223
52211,1640171
52212,247575
52213,241673
52219,8345
52221,41786
52222,128244
522291,122232
522292,369092
522293,0
522294,24301
522298,56060
52231,131624
52232,121004
52239,88413
52311,183506
52312,322854
52313,9420
52314,12942
5232,0
52391,33468
52392,198238
52393,120218
523991,42961
523999,9517
524113,359025
524114,414324
524126,532991
524127,88124
524128,12687
52413,16427
52421,697985
524291,46496
524292,136272
524298,22613
52591,4627
52593,22859
52599,5910
53111,301548
53112,160432
53113,39097
53119,38092
5312,367125
531311,377338
531312,148982
53132,45800
53139,75749
532111,136362
532112,8337
53212,55173
53221,0
53222,11653
53223,127492
532291,26094
532292,8046
532299,41125
5323,35493
532411,6930
532412,63103
53242,10054
53249,85751
54111,1110269
541191,80118
541199,16190
541211,435542
541213,215671
541214,490737
541219,215418
54131,206876
54132,41282
54133,961012
54134,18028
54135,19578
54136,12399
54137,68319
54138,107309
54141,49063
54142,13463
54143,63671
54149,8542
541511,537006
541512,540120
541513,99912
541519,120672
541611,437831
541612,150554
541613,143903
541614,70278
541618,27585
54162,69456
54169,115502
54171,631475
54172,56577
54181,172627
54182,44248
54183,11260
54184,18001
54185,32963
54186,72710
54187,13828
54189,79953
54191,115874
541921,72370
541922,13133
54193,13423
54194,294008
54199,91185
551111,20046
551112,178577
551114,2922779
5611,472690
5612,189275
56131,246782
56132,2901213
56133,1983451
56141,44011
561421,61721
561422,324036
561431,25783
561439,73324
56144,141274
56145,24953
561491,5936
561492,14961
561499,50238
56151,122517
56152,29349
561591,10290
561599,81787
561611,49147
561612,582742
561613,26147
561621,103313
561622,16331
56171,95678
56172,940130
56173,572520
56174,47634
56179,66633
56191,52211
56192,79673
56199,192718
562111,167848
562112,9435
562119,7764
562211,23869
562212,24242
562213,4215
562219,4429
56291,64831
56292,14514
562991,22344
562998,11702
6111,827165
6112,80568
6113,1572333
61141,10908
61142,19045
61143,35865
611511,15942
611512,15247
611513,14417
611519,73414
61161,72879
61162,76571
61163,17174
611691,90719
611692,14005
611699,31560
6117,71573
621111,2126500
621112,43182
6212,824770
62131,123998
62132,106376
62133,70286
62134,225512
621391,36653
621399,51346
62141,19603
62142,186059
621491,32886
621492,73606
621493,99104
621498,284605
621511,133017
621512,88692
6216,1021573
62191,139462
621991,70816
621999,58993
6221,5041848
6222,216343
6223,219627
6231,1646321
62321,423595
62322,134312
623311,372183
623312,312841
6239,153881
62411,166949
62412,538336
62419,402888
62421,34154
624221,64929
624229,40733
62423,27875
6243,330145
6244,853648
71111,69678
71112,9500
71113,43304
71119,11952
711211,52780
711212,51221
711219,22091
71131,85779
71132,26575
7114,17420
7115,45772
71211,83655
71212,9845
71213,28478
71219,6561
71311,101247
71312,27122
71321,136923
71329,68384
71391,316442
71392,75655
71393,28788
71394,514537
71395,80453
71399,94405
72111,1453722
72112,379382
721191,17806
721199,5200
721211,19800
721214,19917
7213,11727
7221,4579941
722211,3512497
722212,128020
722213,496224
72231,433077
72232,133380
72233,9122
7224,365049
811111,336024
811112,12215
811113,25929
811118,26578
811121,222381
811122,31326
811191,65662
811192,153518
811198,19565
811211,17704
811212,56433
811213,15853
811219,45253
8113,199239
811411,7006
811412,27042
81142,16895
81143,2660
81149,41669
812111,14762
812112,452921
812113,34973
812191,28515
812199,85367
81221,102808
81222,34120
81231,43513
81232,175224
812331,47887
812332,107732
81291,52855
812921,16517
812922,3210
81293,126560
81299,53320
8131,1691182
813211,66579
813212,50308
813219,29822
813311,28541
813312,53315
813319,46666
8134,330219
81391,122543
81392,75635
81393,172895
81394,10371
81399,138461
