113,64445
1131,2632
1132,2216
1133,59597
114,7147
1141,5302
114111,3159
114112,2033
114119,110
1142,1845
115,100513
1151,66313
115111,2542
115112,11340
115113,2316
115114,35989
115115,10500
115116,3626
1152,20460
1153,13740
21,700887
211,141809
211111,133286
211112,8523
212,218044
2121,79848
212111,38396
212112,39749
212113,1703
2122,34657
21221,5044
21222,12959
212221,12276
212222,683
21223,12602
212231,2209
212234,10393
21229,4052
212291,617
212299,3435
2123,103539
21231,55725
212311,4981
212312,33567
212313,8308
212319,8869
21232,38242
212321,29259
212322,0
212324,2796
212325,2775
21239,9572
212391,2014
212392,0
212393,1778
212399,4208
213,341034
213111,106426
213112,214531
213113,7516
213114,6540
213115,6021
22,622757
2211,503134
22111,129563
221111,4651
221112,83883
221113,29531
221119,11498
22112,373571
221121,5085
221122,368486
2212,79354
2213,40269
22131,33017
22132,5829
22133,1423
23,7267883
236,1672254
2361,905293
236115,282851
236116,46634
236117,220674
236118,355134
2362,766961
23621,96918
23622,670043
237,1016407
2371,524840
23711,206899
23712,121718
23713,196223
2372,76733
2373,323289
2379,91545
238,4579222
2381,1103222
23811,301905
23812,79359
23813,148356
23814,234615
23815,54587
23816,189855
23817,49510
23819,45035
2382,1961787
23821,825169
23822,1012541
23829,124077
2383,944084
23831,320238
23832,233903
23833,85000
23834,70580
23835,163932
23839,70431
2389,570129
23891,331237
23899,238892
311,1439266
3111,46983
311111,16571
311119,30412
3112,58049
31121,16072
311211,11715
311212,3395
311213,962
31122,26990
311221,8935
311222,7097
311223,2524
311225,8434
31123,14987
3113,73457
31131,16413
311311,6654
311312,2876
311313,6883
31132,7354
31133,31440
31134,18250
3114,162253
31141,86553
311411,31266
311412,55287
31142,75700
311421,48830
311422,13541
311423,13329
3115,129692
31151,109812
311511,53493
311512,1442
311513,40661
311514,14216
31152,19880
3116,487813
311611,148927
311612,100361
311613,8294
311615,230231
3117,33169
311711,2723
311712,30446
3118,284998
31181,223842
311811,59187
311812,143490
311813,21165
31182,45996
311821,28629
311822,13279
311823,4088
31183,15160
3119,162852
31191,43628
311911,13125
311919,30503
31192,13607
31193,5726
31194,31188
311941,14384
311942,16804
31199,68703
311991,37281
311999,31422
312,156114
3121,135979
31211,70631
312111,55884
312112,9507
312113,5240
31212,27398
31213,31964
31214,5986
3122,20135
31221,0
31222,17384
312221,11134
312229,6250
313,164082
3131,42041
313111,24192
313112,16253
313113,1596
3132,80514
31321,38062
31322,10270
313221,8950
313222,1320
31323,19160
31324,13022
313241,6062
313249,6960
3133,41527
31-33,13320172
31331,32070
313311,17870
313312,14200
31332,9457
314,152978
3141,80278
31411,44650
31412,35628
314121,11855
314129,23773
3149,72700
31491,26442
314911,6111
314912,20331
31499,46258
314991,3943
314992,3691
314999,38624
315,197454
3151,26584
31511,19541
315111,4806
315119,14735
31519,7043
315191,5791
315192,0
3152,155742
31521,76827
315211,17230
315212,59597
31522,28839
315221,670
315222,7179
315223,4902
315224,3005
315225,8053
315228,5030
31523,37449
315231,2831
315232,10698
315233,8094
315234,2160
315239,13666
31529,12627
315291,430
315292,839
315299,11358
3159,15128
315991,5057
315992,1804
315993,1922
315999,6345
316,36671
3161,4856
3162,15017
316211,2500
316212,0
316213,7395
316214,3766
316219,1326
3169,16798
316991,5845
316992,2183
316993,2964
316999,5806
321,527565
3211,112425
321113,99007
321114,13418
3212,109002
321211,18456
321212,21627
321213,8123
321214,40555
321219,20241
3219,306138
32191,149854
321911,74933
321912,29313
321918,45608
32192,54874
32199,101410
321991,42241
321992,24903
321999,34266
322,425096
3221,130068
32211,6569
32212,87188
322121,81994
322122,5194
32213,36311
3222,295028
32221,166883
322211,109747
322212,34437
322213,3603
322214,8056
322215,11040
32222,59730
322221,4145
322222,34086
322223,3048
322224,12396
322225,3545
322226,2510
32223,31430
322231,9318
322232,18025
322233,4087
32229,36985
322291,17127
322299,19858
323,631771
32311,583410
323110,309375
323111,18736
323112,32036
323113,67158
323114,40771
323115,26161
323116,24235
323117,32913
323118,8693
323119,23332
32312,48361
323121,23880
323122,24481
324,103577
32411,64263
32412,26055
324121,14457
324122,11598
32419,13259
324191,10136
324199,3123
325,793717
3251,165025
32511,8418
32512,0
32513,12855
325131,0
325132,5128
32518,50679
325181,0
325182,0
325188,42063
32519,81814
325191,3957
325192,3033
325193,5957
325199,68867
3252,88601
32521,69654
325211,61199
325212,8455
32522,18947
325221,1306
325222,17641
3253,28618
32531,17950
325311,3772
325312,0
325314,8551
32532,10668
3254,241339
325411,27475
325412,158124
325413,27215
325414,28525
3255,62493
32551,41177
32552,21316
3256,104422
32561,46465
325611,23660
325612,16670
325613,6135
32562,57957
3259,103219
32591,12821
32592,5926
32599,84472
325991,21942
325992,26765
325998,35765
326,855483
3261,707972
32611,97545
326111,29894
326112,23753
326113,43898
32612,49680
326121,28092
326122,21588
32613,10718
32614,32229
32615,34825
32616,32863
32619,450112
326191,24391
326192,4831
326199,420890
3262,147511
32621,57964
326211,49756
326212,8208
32622,19781
32629,69766
326291,37472
326299,32294
327,472128
3271,52544
32711,20195
327111,5241
327112,8517
327113,6437
32712,32349
327121,13582
327122,6772
327123,1588
327124,4694
327125,5713
3272,97876
327211,10489
327212,18646
327213,0
327215,53643
3273,221488
32731,17461
32732,101509
32733,36070
327331,22164
327332,13906
32739,66448
3274,17332
32741,4683
32742,12649
3279,82888
32791,15348
32799,67540
327991,31351
327992,7323
327993,18798
327999,10068
331,438921
3311,109998
331111,107688
331112,2310
3312,44492
33121,21439
33122,23053
331221,9632
331222,13421
3313,63988
331311,0
331312,8686
331314,6929
331315,17136
331316,26460
331319,3390
3314,60466
33141,9122
331411,1912
331419,7210
33142,24650
331421,13874
331422,9530
331423,1246
33149,26694
331491,17098
331492,9596
3315,159977
33151,89953
331511,55075
331512,16777
331513,18101
33152,70024
331521,21319
331522,12231
331524,25569
331525,6285
331528,4620
332,1565866
3321,124406
332111,23511
332112,8273
332114,17922
332115,3189
332116,63014
332117,8497
3322,50529
332211,5281
332212,35447
332213,6100
332214,3701
3323,398786
33231,172456
332311,29944
332312,109752
332313,32760
33232,226330
332321,73571
332322,113221
332323,39538
3324,93356
33241,22207
33242,36630
33243,34519
332431,19500
332439,15019
3325,41763
3326,53413
332611,4084
332612,14459
332618,34870
3327,395207
33271,277099
33272,118108
332721,74285
332722,43823
3328,137183
332811,21295
332812,58412
332813,57476
3329,271223
33291,100655
332911,37617
332912,37025
332913,10484
332919,15529
33299,170568
332991,28849
332992,7540
332993,5903
332994,12598
332995,5355
332996,27143
332997,4841
332998,5345
332999,72994
333,1137540
3331,205545
33311,82243
333111,58833
333112,23410
33312,71330
33313,51972
333131,11309
333132,40663
3332,130022
33321,6475
33322,15232
33329,108315
333291,9926
333292,6257
333293,13455
333294,16758
333295,24340
333298,37579
3333,95729
333311,5292
333312,2543
333313,9870
333314,17539
333315,6686
333319,53799
3334,151175
333411,14939
333412,10870
333414,21127
333415,104239
3335,167558
333511,37010
333512,17222
333513,8716
333514,54199
333515,35013
333516,3062
333518,12336
3336,102482
333611,20333
333612,13075
333613,15979
333618,53095
3339,285029
33391,58460
333911,30823
333912,23285
333913,4352
33392,80686
333921,7549
333922,31144
333923,15662
333924,26331
33399,145883
333991,7908
333992,17529
333993,21610
333994,11013
333995,20033
333996,14154
333997,3833
333999,49803
334,1043288
3341,99137
334111,35209
334112,19113
334113,842
334119,43973
3342,151847
33421,41302
33422,92483
33429,18062
3343,17191
3344,362859
334411,4838
334412,40487
334413,141409
334414,6836
334415,4282
334416,10951
334417,25964
334418,68155
334419,59937
3345,384966
334510,58111
334511,132751
334512,13813
334513,40932
334514,16441
334515,39774
334516,32695
334517,17738
334518,2076
334519,30635
3346,27288
334611,2945
334612,18345
334613,0
335,406259
3351,57515
33511,8931
33512,48584
335121,11989
335122,17989
335129,18606
3352,65666
33521,11553
335211,6871
335212,4682
33522,54113
335221,15467
335222,14098
335224,12183
335228,12365
3353,138332
335311,22298
335312,43880
335313,33043
335314,39111
3359,144746
33591,25312
335911,17653
335912,7659
33592,33127
335921,5701
335929,27426
33593,45805
335931,29466
335932,16339
33599,40502
335991,8352
335999,32150
336,1574147
3361,196493
33611,165884
336111,73095
336112,92789
33612,30609
3362,151588
336211,50391
336212,32854
336213,18627
336214,49716
3363,593630
33631,71895
336311,10132
336312,61763
33632,69341
336321,13378
336322,55963
33633,35972
33634,30859
33635,77968
33636,52186
33637,100006
33639,155403
336391,15994
336399,139409
3364,408139
336411,152661
336412,77306
336413,107141
336414,48069
336415,15927
336419,7035
3365,28712
3366,148864
336611,94876
336612,53988
3369,46721
336991,16289
336992,8564
336999,21868
337,517401
3371,333974
33711,141349
33712,192625
337121,74885
337122,69095
337124,12033
337125,5520
337127,29235
337129,1857
3372,141000
337211,21909
337212,36012
337214,25756
337215,57323
3379,42427
33791,23719
33792,18708
339,680848
3391,316789
339111,19273
339112,101760
339113,108150
339114,16581
339115,24492
339116,46533
3399,364059
33991,37373
339911,25143
339912,1856
339913,4514
339914,5860
33992,51587
33993,12349
339931,1641
339932,10708
33994,16785
339941,4394
339942,5353
339943,4981
339944,2057
33995,90931
33999,155034
339991,34665
339992,13884
339993,3903
339994,10661
339995,5010
339999,86911
42,5964850
423,3395277
4231,355828
42311,117134
42312,189925
42313,32365
42314,16404
4232,153866
42321,63757
42322,90109
4233,264252
42331,143484
42332,43203
42333,34970
42339,42595
4234,705551
42341,16255
42342,147700
42343,280486
42344,50007
42345,153896
42346,23019
42349,34188
4235,160366
42351,156591
42352,3775
4236,449905
42361,160759
42362,42876
42369,246270
4237,232006
42371,83822
42372,79214
42373,54927
42374,14043
4238,723802
42381,101336
42382,96948
42383,321524
42384,109143
42385,54391
42386,40460
4239,349701
42391,53064
42392,32283
42393,101172
42394,52571
42399,110611
424,2228049
4241,172308
42411,22508
42412,83996
42413,65804
4242,248057
4243,196601
42431,31968
42432,55727
42433,85711
42434,23195
4244,768342
42441,136572
42442,91772
42443,45969
42444,10869
42445,51875
42446,24232
42447,44542
42448,102183
42449,260328
4245,61349
42451,44585
42452,9895
42459,6869
4246,139481
42461,35553
42469,103928
4247,94845
42471,62107
42472,32738
4248,178694
42481,107891
42482,70803
4249,368372
42491,79749
42492,67808
42493,56785
42494,54216
42495,19875
42499,89939
425,341524
42511,7731
42512,333793
441,1938266
4411,1273660
44111,1137524
44112,136136
4412,168973
44121,42536
44122,126437
441221,69215
441222,41705
441229,15517
4413,495633
44131,329193
44132,166440
442,596538
4421,271675
4422,324863
44221,94807
44229,230056
442291,15688
442299,214368
443,500780
44311,387129
443111,69030
443112,318099
44312,99697
44313,13954
444,1373961
4441,1202392
44411,0
44412,35316
44413,140296
44419,404391
4442,171569
44421,26193
44422,145376
44-45,15759928
445,2881783
4451,2564533
44511,2424912
44512,139621
4452,174558
44521,41559
44522,10380
44523,23498
44529,99121
445291,28845
445292,20466
445299,49810
4453,142692
446,1069187
44611,797816
44612,90993
44613,70814
44619,109564
446191,48090
446199,61474
447,888705
44711,724770
44719,163935
448,1648157
4481,1278939
44811,65586
44812,341826
44813,94363
44814,635448
44815,42313
44819,99403
4482,206338
4483,162880
44831,154028
44832,8852
451,639694
4511,455576
45111,235692
45112,136035
45113,50583
45114,33266
4512,184118
45121,153378
451211,145155
451212,8223
45122,30740
452,2897472
4521,1619833
452111,575363
452112,0
4529,1277639
45291,961360
45299,316279
453,813827
4531,93779
4532,315159
45321,122323
45322,192836
4533,133918
4539,270971
45391,101014
45392,22043
45393,23683
45399,124231
453991,26140
453998,98091
454,511558
4541,268328
454111,78941
454112,5977
454113,183410
4542,49446
4543,193784
45431,91337
454311,46215
454312,44424
454319,698
45439,102447
481,480648
4811,435853
481111,417071
481112,0
4812,44795
481211,32604
481212,6484
481219,5707
483,68947
4831,48180
483111,11308
483112,0
483113,22568
483114,2293
4832,20767
483211,17377
483212,3390
484,1476397
4841,998697
48411,211878
48412,786819
484121,512213
484122,274606
4842,477700
48421,105381
48422,206950
48423,165369
48-49,4395432
485,440623
4851,52912
485111,1538
485112,694
485113,47562
485119,3118
4852,17432
4853,72504
48531,33404
48532,39100
4854,206787
4855,28384
4859,62604
485991,47663
485999,14941
486,42445
4861,8347
4862,24683
4869,9415
48691,8223
48699,1192
487,27464
4871,9690
4872,15612
4879,2162
488,610641
4881,165253
48811,72964
488111,2246
488119,70718
48819,92289
4882,28627
4883,93407
48831,6573
48832,62941
48833,12997
48839,10896
4884,76535
48841,53177
48849,23358
4885,212165
4889,34654
488991,21475
488999,0
492,569190
4921,528177
4922,41013
493,679077
49311,509893
49312,46117
49313,7624
49319,115443
51,3399313
511,1034709
5111,688034
51111,360270
51112,158979
51113,87016
51114,56335
51119,25434
511191,11662
511199,13772
5112,346675
512,320647
5121,298598
51211,130250
51212,10097
51213,130742
512131,129039
512132,1703
51219,27509
512191,22769
512199,4740
5122,22049
51221,1462
51222,7239
51223,4369
51224,5570
51229,3409
515,293968
5151,252294
51511,124212
515111,12411
515112,111801
51512,128082
5152,41674
516,46627
517,1201922
5171,621712
5172,277622
517211,4902
517212,272720
5173,34973
5174,13149
5175,240038
5179,14428
518,446781
5181,71307
518111,46146
518112,25161
5182,375474
519,54659
51911,12535
51912,30352
51919,11772
52,6548868
521,20223
522,3226219
5221,2137764
52211,1640171
52212,247575
52213,241673
52219,8345
5222,747414
52221,41786
52222,128244
52229,577384
522291,122232
522292,369092
522293,0
522294,24301
522298,56060
5223,341041
52231,131624
52232,121004
52239,88413
523,942086
5231,528722
52311,183506
52312,322854
52313,9420
52314,12942
5232,0
5239,404402
52391,33468
52392,198238
52393,120218
52399,52478
523991,42961
523999,9517
524,2326944
5241,1423578
52411,773349
524113,359025
524114,414324
52412,633802
524126,532991
524127,88124
524128,12687
52413,16427
5242,903366
52421,697985
52429,205381
524291,46496
524292,136272
524298,22613
525,33396
52591,4627
52593,22859
52599,5910
53,2224175
531,1554163
5311,539169
53111,301548
53112,160432
53113,39097
53119,38092
5312,367125
5313,647869
53131,526320
531311,377338
531312,148982
53132,45800
53139,75749
532,638277
5321,199872
53211,144699
532111,136362
532112,8337
53212,55173
5322,237074
53221,0
53222,11653
53223,127492
53229,75265
532291,26094
532292,8046
532299,41125
5323,35493
5324,165838
53241,70033
532411,6930
532412,63103
53242,10054
53249,85751
533,31735
54,8179941
5411,1206577
54111,1110269
54119,96308
541191,80118
541199,16190
5412,1357368
541211,435542
541213,215671
541214,490737
541219,215418
5413,1434803
54131,206876
54132,41282
54133,961012
54134,18028
54135,19578
54136,12399
54137,68319
54138,107309
5414,134739
54141,49063
54142,13463
54143,63671
54149,8542
5415,1297710
541511,537006
541512,540120
541513,99912
541519,120672
5416,1015109
54161,830151
541611,437831
541612,150554
541613,143903
541614,70278
541618,27585
54162,69456
54169,115502
5417,688052
54171,631475
54172,56577
5418,445590
54181,172627
54182,44248
54183,11260
54184,18001
54185,32963
54186,72710
54187,13828
54189,79953
5419,599993
54191,115874
54192,85503
541921,72370
541922,13133
54193,13423
54194,294008
54199,91185
55,3121402
551111,20046
551112,178577
551114,2922779
56,9983661
561,9628468
5611,472690
5612,189275
5613,5131446
56131,246782
56132,2901213
56133,1983451
5614,766237
56141,44011
56142,385757
561421,61721
561422,324036
56143,99107
561431,25783
561439,73324
56144,141274
56145,24953
56149,71135
561491,5936
561492,14961
561499,50238
5615,243943
56151,122517
56152,29349
56159,92077
561591,10290
561599,81787
5616,777680
56161,658036
561611,49147
561612,582742
561613,26147
56162,119644
561621,103313
561622,16331
5617,1722595
56171,95678
56172,940130
56173,572520
56174,47634
56179,66633
5619,324602
56191,52211
56192,79673
56199,192718
562,355193
5621,185047
562111,167848
562112,9435
562119,7764
5622,56755
562211,23869
562212,24242
562213,4215
562219,4429
5629,113391
56291,64831
56292,14514
56299,34046
562991,22344
562998,11702
61,3039385
6111,827165
6112,80568
6113,1572333
6114,65818
61141,10908
61142,19045
61143,35865
6115,119020
611511,15942
611512,15247
611513,14417
611519,73414
6116,302908
61161,72879
61162,76571
61163,17174
61169,136284
611691,90719
611692,14005
611699,31560
6117,71573
62,16797647
621,5817039
6211,2169682
621111,2126500
621112,43182
6212,824770
6213,614171
62131,123998
62132,106376
62133,70286
62134,225512
62139,87999
621391,36653
621399,51346
6214,695863
62141,19603
62142,186059
62149,490201
621491,32886
621492,73606
621493,99104
621498,284605
6215,221709
621511,133017
621512,88692
6216,1021573
6219,269271
62191,139462
62199,129809
621991,70816
621999,58993
622,5477818
6221,5041848
6222,216343
6223,219627
623,3043133
6231,1646321
6232,557907
62321,423595
62322,134312
6233,685024
623311,372183
623312,312841
6239,153881
624,2459657
6241,1108173
62411,166949
62412,538336
62419,402888
6242,167691
62421,34154
62422,105662
624221,64929
624229,40733
62423,27875
6243,330145
6244,853648
71,2008567
711,436072
7111,134434
71111,69678
71112,9500
71113,43304
71119,11952
7112,126092
711211,52780
711212,51221
711219,22091
7113,112354
71131,85779
71132,26575
7114,17420
7115,45772
712,128539
71211,83655
71212,9845
71213,28478
71219,6561
713,1443956
7131,128369
71311,101247
71312,27122
7132,205307
71321,136923
71329,68384
7139,1110280
71391,316442
71392,75655
71393,28788
71394,514537
71395,80453
71399,94405
72,11564864
721,1907554
7211,1856110
72111,1453722
72112,379382
72119,23006
721191,17806
721199,5200
7212,39717
721211,19800
721214,19917
7213,11727
722,9657310
7221,4579941
7222,4136741
722211,3512497
722212,128020
722213,496224
7223,575579
72231,433077
72232,133380
72233,9122
7224,365049
81,5519773
811,1322952
8111,893198
81111,400746
811111,336024
811112,12215
811113,25929
811118,26578
81112,253707
811121,222381
811122,31326
81119,238745
811191,65662
811192,153518
811198,19565
8112,135243
811211,17704
811212,56433
811213,15853
811219,45253
8113,199239
8114,95272
81141,34048
811411,7006
811412,27042
81142,16895
81143,2660
81149,41669
812,1380284
8121,616538
81211,502656
812111,14762
812112,452921
812113,34973
81219,113882
812191,28515
812199,85367
8122,136928
81221,102808
81222,34120
8123,374356
81231,43513
81232,175224
81233,155619
812331,47887
812332,107732
8129,252462
81291,52855
81292,19727
812921,16517
812922,3210
81293,126560
81299,53320
813,2816537
8131,1691182
8132,146709
813211,66579
813212,50308
813219,29822
8133,128522
813311,28541
813312,53315
813319,46666
8134,330219
8139,519905
81391,122543
81392,75635
81393,172895
81394,10371
81399,138461
