31,16798
37  ,46721
16,91545
45,762090
23,15128
47,427312
41,354307
83,3065783
08,18588
24,114471
09,1845
0912,3159
0919,2143
07,625375
0724,2542
0721,11340
0722,2316
0723,35989
0761,10500
0762,3626
76,2051279
1311,133286
2819,8523
12,0
1221,38396
1222,39749
1231,1703
10,5044
1041,12276
1044,683
1031,2209
1061,10393
1094,617
1099,3435
14,0
1411,4981
1422,33567
1423,8308
1499,8869
32,218098
1442,29259
1446,0
3295,18880
1474,2014
1475,0
1381,106426
1389,214531
1241,7516
1081,6540
1481,6021
49,223651
4939,503134
87,4888007
8741,684619
1531,220674
65,1065479
17,2872475
73,9155864
20,142062
2047,16571
2048,179339
2041,11715
2099,117024
2083,962
2046,8935
2079,18055
2061,6654
2062,2876
2063,6883
54,3651020
2037,31266
2038,55287
2035,48830
2032,13541
2026,67709
2021,1442
2022,40661
5147,100361
2077,8294
2015,230231
2091,2723
2092,30446
5461,88032
2052,172119
2053,21165
2045,13279
2096,30503
28,158283
2899,85671
2086,55884
5149,9507
2097,5240
21,0
2111,11134
7389,666027
22,101872
2299,34738
2282,16253
2397,1320
2259,18813
51,2288844
5131,14200
30,139873
57,901030
5714,35628
3069,56108
2394,20331
2298,3943
2296,3691
2252,19541
3151,78631
2384,670
5699,20175
2369,3005
2326,8053
2385,21286
2389,2831
2361,10698
2386,839
2353,5057
2323,1922
39,147374
3021,2500
3142,0
3143,7395
3144,3766
3149,1326
3161,5845
3171,2183
3172,2964
3199,5806
2429,99007
2491,13418
2435,18456
2436,21627
2439,48678
2493,20241
2431,120541
2426,29313
2451,42241
2452,24903
3999,826803
26,42880
2621,87188
2679,173009
2657,34437
2652,3603
2655,8056
2656,11040
2671,27898
2673,32942
2674,12396
3497,3545
2675,2510
2677,18025
2678,4087
3842,17127
27,606265
2771,395141
3993,67158
7334,40771
2759,26161
2782,32928
2732,32913
2789,23880
2796,24481
29,64263
2951,14457
2952,11598
33,21439
2992,10136
3312,3123
2865,5128
2812,0
2895,0
2869,51053
2861,3957
2821,61199
2822,8455
2823,1306
2824,17641
2873,3772
2874,0
2875,8551
2833,27475
2835,185339
2836,28525
2844,23660
2842,16670
2843,6135
3087,21942
3861,33451
3081,43898
3089,49680
3088,24391
3996,4831
75,234910
3011,49756
7534,8208
3061,37472
3261,5241
5719,24205
3264,6437
3251,13582
3253,6772
3259,1588
3255,4694
3297,5713
3211,10489
3229,18646
3221,0
3231,53643
3271,22164
3272,13906
3281,31351
3296,18798
3299,10068
3399,135091
3313,2310
3315,13421
3334,8686
3353,17136
3354,26460
3357,63145
3331,1912
3339,7210
3351,13874
3322,55075
3324,16777
3325,18101
3363,21319
3364,12231
3365,25569
3366,6285
3369,4620
34,230585
3462,23511
3463,8273
3449,127674
3466,3189
3469,63014
3499,81349
3425,6100
3496,38571
3448,29944
3443,32760
35,392343
3444,186792
3523,39538
3411,19500
3537,15019
3493,4084
3495,14459
3451,74285
3452,43823
3398,21295
3599,107279
3491,37617
3728,296827
3432,10484
3562,28849
3482,7540
3483,5903
3841,133631
3489,5355
3498,27143
3543,4841
3431,5345
3559,83173
3524,23410
3532,11309
3533,40663
36,185208
3554,9926
3552,6257
3555,13455
3556,16758
3639,54626
3581,5292
3582,2543
3579,9870
3827,17539
3564,25809
3634,21127
3585,120233
3544,91209
3541,17222
3542,8716
3545,35013
3547,3062
3549,12336
3511,20333
3566,13075
3568,15979
3699,121380
3743,30823
3563,23285
3586,4352
37,204120
3534,7549
3535,31144
3536,15662
3799,237324
3546,7908
3565,21610
3567,11013
3593,20033
3594,14154
3596,3833
3571,35209
3572,19113
3575,842
3578,43973
3671,4838
3672,40487
3674,141409
3675,6836
3676,4282
3677,10951
3678,25964
3679,128092
38,0
3845,75849
3812,132751
3822,13813
3823,40932
3829,47076
3825,39774
3826,32695
3915,6590
7372,2945
7819,41114
3695,0
3646,17989
3631,15467
3632,14098
3633,12183
3612,22298
7694,43880
3613,33043
3625,39111
3691,17653
3692,7659
3643,29466
3644,16339
3624,8352
3711,165884
3714,168117
3715,32854
3716,18627
3592,10132
3647,13378
3724,77306
3761,48069
3764,15927
3769,7035
3731,94876
3732,53988
3944,16289
3795,8564
25,42427
5712,143980
2514,12033
2519,5520
2517,1857
2521,21909
2541,36012
2522,25756
80,9765987
5999,267715
3843,16581
5995,24492
8072,46533
3911,25143
3914,1856
3961,5860
3942,1641
3951,4394
3952,5353
3953,4981
3955,2057
3053,34665
3931,13884
3965,3903
3991,10661
3995,5010
50,3231602
78,390103
55,2687620
5571,69215
5551,41705
5599,15517
7699,418183
7629,84883
7622,318099
59,2138667
52,608766
5441,20466
5499,97900
56,1485277
5942,145155
5994,8223
53,0
5311,575363
5993,26140
5961,268328
5983,46215
5984,44424
5989,698
4512,417071
79,2093940
4522,39088
7997,76425
44,111299
4412,11308
4481,0
4432,22568
4482,2293
4499,17377
4489,3390
42,1448765
4213,786819
4111,52912
48,1127460
4119,62604
46,17762
9621,2246
4783,21475
4789,0
2741,13772
7832,129039
7833,1703
7829,4740
89,327746
4832,124212
4812,4902
4899,272720
7375,46146
8999,175715
82,2742860
60,2137764
61,390067
6141,122232
6162,369092
6159,80361
62,639520
67,274522
6733,42961
6289,9517
63,16427
6321,359025
6324,414324
6351,532991
6361,88124
6399,12687
64,697985
6411,205381
6531,526320
7514,136362
7515,8337
7352,26094
7999,30137
7359,111158
81,1110269
6541,80118
8721,1141697
7291,215671
7371,537006
7379,660792
7376,99912
8742,652012
8748,27585
7221,72370
8099,142942
6712,20046
6719,178577
0Aux,2922779
7338,14961
86,2541306
8699,135102
7381,658036
7382,103313
72,228075
4212,185047
4953,56755
7241,30704
8299,224945
8249,14417
8031,2169682
8043,36653
8093,335951
8011,131990
8092,73606
8071,221709
8059,372183
8361,312841
8322,105662
7941,52780
7948,51221
84,128539
70,1844831
7011,23006
7033,19800
7032,19917
58,5511447
5812,4136741
7538,336024
7533,12215
7537,25929
7539,26578
7532,222381
7549,116553
7542,153518
7231,487894
7299,113882
7219,47887
7218,107732
7384,19727
6732,66579
8399,108671
8641,46666
