31,0
37  ,187
16,663
45,2241
23,0
47,4238
41,3223
83,65291
08,0
24,471
09,0
0912,0
0919,0
07,37677
0724,42
0721,0
0722,0
0723,0
0761,0
0762,0
76,4894
1311,0
2819,0
12,0
1221,0
1222,0
1231,0
10,0
1041,93
1044,0
1031,0
1061,0
1094,86
1099,0
14,0
1411,137
1422,0
1423,0
1499,0
32,22
1442,0
1446,30
3295,0
1474,0
1475,0
1381,0
1389,0
1241,0
1081,0
1481,0
49,1793
4939,0
87,16577
8741,0
1531,0
65,10254
17,21387
73,65964
20,705
2047,0
2048,148
2041,0
2099,278
2083,0
2046,0
2079,17
2061,0
2062,0
2063,0
54,6474
2037,10
2038,0
2035,0
2032,0
2026,29
2021,0
2022,0
5147,290
2077,0
2015,27
2091,0
2092,89
5461,4039
2052,629
2053,23
2045,0
2096,63
28,129
2899,0
2086,35
5149,62
2097,0
21,0
2111,0
7389,4970
22,127
2299,22
2282,0
2397,43
2259,46
51,1186
5131,93
30,23
57,0
5714,150
3069,85
2394,0
2298,0
2296,0
2252,9
3151,1717
2384,0
5699,131
2369,0
2326,12
2385,43
2389,20
2361,0
2386,0
2353,49
2323,0
39,1576
3021,0
3142,0
3143,27
3144,0
3149,0
3161,46
3171,0
3172,0
3199,0
2429,840
2491,0
2435,0
2436,0
2439,0
2493,0
2431,0
2426,0
2451,0
2452,0
3999,467
26,0
2621,0
2679,116
2657,0
2652,0
2655,0
2656,0
2671,0
2673,0
2674,0
3497,0
2675,0
2677,26
2678,28
3842,0
27,1349
2771,668
3993,1269
7334,0
2759,0
2782,57
2732,0
2789,266
2796,438
29,14
2951,0
2952,0
33,0
2992,0
3312,0
2865,0
2812,0
2895,0
2869,26
2861,0
2821,0
2822,0
2823,0
2824,0
2873,0
2874,0
2875,0
2833,24
2835,6
2836,0
2844,107
2842,67
2843,0
3087,0
3861,96
3081,0
3089,33
3088,53
3996,8
75,1432
3011,0
7534,54
3061,0
3261,0
5719,523
3264,0
3251,0
3253,0
3259,0
3255,0
3297,32
3211,0
3229,139
3221,0
3231,0
3271,0
3272,4
3281,258
3296,0
3299,0
3399,0
3313,0
3315,10
3334,0
3353,0
3354,0
3357,8
3331,0
3339,13
3351,5
3322,0
3324,0
3325,0
3363,0
3364,15
3365,0
3366,0
3369,0
34,0
3462,0
3463,0
3449,0
3466,5
3469,0
3499,14
3425,0
3496,0
3448,103
3443,85
35,2
3444,0
3523,0
3411,0
3537,45
3493,13
3495,0
3451,0
3452,0
3398,27
3599,556
3491,0
3728,62
3432,29
3562,0
3482,0
3483,2
3841,38
3489,7
3498,43
3543,0
3431,0
3559,154
3524,17
3532,23
3533,20
36,125
3554,0
3552,0
3555,0
3556,0
3639,0
3581,0
3582,0
3579,0
3827,0
3564,36
3634,0
3585,0
3544,0
3541,0
3542,0
3545,0
3547,0
3549,8
3511,2
3566,7
3568,10
3699,39
3743,0
3563,0
3586,0
37,50
3534,0
3535,0
3536,0
3799,419
3546,0
3565,0
3567,0
3593,0
3594,4
3596,0
3571,0
3572,0
3575,0
3578,54
3671,0
3672,0
3674,0
3675,0
3676,0
3677,0
3678,19
3679,0
38,0
3845,0
3812,33
3822,0
3823,71
3829,17
3825,0
3826,0
3915,22
7372,26
7819,0
3695,0
3646,0
3631,0
3632,0
3633,0
3612,0
7694,45
3613,0
3625,0
3691,0
3692,0
3643,0
3644,8
3624,0
3711,0
3714,108
3715,19
3716,0
3592,0
3647,0
3724,0
3761,0
3764,0
3769,0
3731,0
3732,0
3944,78
3795,0
25,227
5712,296
2514,0
2519,59
2517,0
2521,0
2541,189
2522,0
80,18387
5999,4344
3843,0
5995,0
8072,0
3911,0
3914,43
3961,223
3942,0
3951,0
3952,0
3953,123
3955,0
3053,0
3931,174
3965,0
3991,22
3995,15
50,1592
78,4862
55,3126
5571,0
5551,0
5599,0
7699,0
7629,0
7622,0
59,27369
52,1512
5441,930
5499,3216
56,1683
5942,0
5994,0
53,0
5311,0
5993,0
5961,0
5983,0
5984,0
5989,0
4512,0
79,41699
4522,0
7997,1405
44,0
4412,0
4481,22
4432,0
4482,0
4499,0
4489,0
42,3575
4213,0
4111,33
48,582
4119,1399
46,0
9621,0
4783,408
4789,0
2741,0
7832,825
7833,0
7829,0
89,0
4832,1227
4812,101
4899,333
7375,976
8999,0
82,36077
60,1883
61,10245
6141,1372
6162,5596
6159,1346
62,300
67,390
6733,0
6289,0
63,0
6321,274
6324,0
6351,457
6361,0
6399,0
64,0
6411,0
6531,18092
7514,0
7515,0
7352,0
7999,501
7359,896
81,0
6541,0
8721,2260
7291,16780
7371,0
7379,0
7376,0
8742,0
8748,0
7221,0
8099,0
6712,0
6719,6161
0Aux,4997
7338,0
86,129363
8699,408
7381,2126
7382,0
72,7919
4212,1093
4953,0
7241,4611
8299,10848
8249,499
8031,0
8043,1253
8093,0
8011,0
8092,0
8071,0
8059,577
8361,4814
8322,1084
7941,335
7948,0
84,2829
70,9016
7011,1715
7033,1110
7032,0
58,117325
5812,75294
7538,0
7533,0
7537,0
7539,0
7532,0
7549,1072
7542,7421
7231,60838
7299,16241
7219,192
7218,79
7384,328
6732,0
8399,0
8641,0
