52,337201
56,179653
53,935
51,514342
22,22545
45,115608
58,5514845
60,170367
61,247494
62,86814
63,19158
64,493016
49,73137
67,136524
82,917495
83,2091643
80,3931913
81,657782
86,2098049
87,3043571
84,62876
24,196930
25,45762
26,37955
27,314804
20,131164
07,514725
48,122554
23,36162
46,34
47,176472
44,42806
42,706899
28,57177
29,4175
41,202702
50,883727
09,2750
96,37
08,11221
13,99125
76,1466784
75,826546
38,70767
73,3727112
72,845622
70,613722
15,107311
79,1179787
78,161700
10,1203
39,388563
12,8485
59,1062025
14,28791
0A,86374
16,35665
33,48977
54,681385
31,76708
30,73163
37,107015
36,130184
35,461691
34,270038
55,745570
89,269475
21,0
32,108916
17,1865982
57,499005
65,1015503
