56,269374
61,58273
62,474773
81,590680
21,13085
48,121475
49,9414
44,321683
45,151496
42,154916
72,395913
71,94889
11,17695
22,3695
55,4246
32,42389
31,28418
23,592675
51,53949
53,250896
52,213420
33,87487
54,649945
