52,25646
56,40206
53,314
51,51232
22,966
45,8550
58,354832
60,4428
61,40256
62,29069
63,4962
64,116163
49,6692
67,25212
82,53970
83,115025
80,387875
81,140699
86,238648
87,462209
84,5342
24,13269
25,2156
26,882
27,23903
20,6945
07,95246
48,12220
23,2732
46,46
47,23543
44,4314
42,103048
28,2205
29,281
41,12158
50,71224
09,2065
96,17
08,1805
13,10332
76,211825
75,146447
38,3628
73,394868
72,149172
70,39188
15,18488
79,92049
78,25880
10,233
39,23380
12,469
59,165616
14,1868
0A,899
16,3158
33,1558
54,75206
31,6434
30,2657
37,4563
36,4943
35,27112
34,8710
55,62360
89,73839
21,2
32,4944
17,260109
57,56235
65,237363
