56,99021
61,21831
62,107112
81,195234
21,1986
48,37483
49,3028
44,58501
45,40163
42,28258
72,99592
71,33186
11,5086
22,1136
55,1895
32,10706
31,8574
23,151986
51,15960
53,86219
52,61548
33,21939
54,207967
