56,319795
61,73516
62,599920
81,670378
21,18595
48,153694
49,12819
44,495542
45,184673
42,286455
72,471825
71,114235
11,22496
22,4896
55,11502
32,71416
31,40614
23,775976
51,71120
53,295467
52,252684
33,143650
54,771379
