113,10303
1131,406
1132,174
1133,9734
114,2380
1141,2053
114111,1105
114112,934
114119,14
1142,327
115,10271
1151,4294
115111,264
115112,1987
115113,309
115114,831
115115,426
115116,494
1152,4307
1153,1673
21,20682
211,6528
211111,6424
211112,139
212,4465
2121,679
212111,391
212112,252
212113,69
2122,256
21221,21
21222,139
212221,131
212222,9
21223,39
212231,14
212234,26
21229,63
212291,30
212299,33
2123,3544
21231,1487
212311,423
212312,588
212313,129
212319,402
21232,1895
212321,1716
212322,104
212324,22
212325,76
21239,257
212391,17
212392,9
212393,40
212399,196
213,9809
213111,2059
213112,7134
213113,280
213114,126
213115,253
22,6123
2211,1687
22111,549
221111,140
221112,206
221113,26
221119,254
22112,1219
221121,56
221122,1176
2212,507
2213,3998
22131,3579
22132,376
22133,63
23,799811
236,242322
2361,197276
236115,61262
236116,4319
236117,32158
236118,99592
2362,45105
23621,3858
23622,41282
237,49228
2371,20421
23711,13679
23712,1671
23713,5099
2372,12748
2373,10953
2379,5200
238,508722
2381,115010
23811,26192
23812,3663
23813,17327
23814,27000
23815,5503
23816,19270
23817,10395
23819,5701
2382,184238
23821,79011
23822,99374
23829,5917
2383,133089
23831,21785
23832,41376
23833,16787
23834,11945
23835,34079
23839,7140
2389,76541
23891,41251
23899,35298
311,21591
3111,1228
311111,212
311119,1023
3112,500
31121,261
311211,188
311212,61
311213,16
31122,211
311221,37
311222,74
311223,37
311225,76
31123,41
3113,1627
31131,50
311311,29
311312,15
311313,11
31132,149
31133,1007
31134,441
3114,1293
31141,513
311411,153
311412,367
31142,801
311421,575
311422,108
311423,130
3115,1095
31151,752
311511,275
311512,28
311513,355
311514,135
31152,360
3116,3195
311611,1541
311612,1267
311613,117
311615,326
3117,592
311711,112
311712,486
3118,9538
31181,8564
311811,6214
311812,2174
311813,219
31182,658
311821,307
311822,201
311823,156
31183,343
3119,2871
31191,468
311911,173
311919,298
31192,368
31193,138
31194,589
311941,289
311942,306
31199,1363
311991,678
311999,694
312,3466
3121,3388
31211,917
312111,275
312112,169
312113,373
31212,399
31213,2025
31214,82
3122,79
31221,11
31222,72
312221,24
312229,50
313,2690
3131,302
313111,165
313112,81
313113,68
3132,1161
31321,459
31322,277
313221,186
313222,91
31323,188
31324,258
313241,97
313249,165
3133,1293
31-33,286701
31331,1113
313311,654
313312,464
31332,184
314,6471
3141,2436
31411,277
31412,2160
314121,1598
314129,567
3149,4042
31491,1759
314911,247
314912,1512
31499,2287
314991,141
314992,18
314999,2129
315,10151
3151,450
31511,219
315111,51
315119,170
31519,233
315191,208
315192,25
3152,8814
31521,6227
315211,1159
315212,5070
31522,645
315221,16
315222,174
315223,163
315224,53
315225,100
315228,150
31523,1408
315231,101
315232,236
315233,441
315234,132
315239,498
31529,556
315291,41
315292,142
315299,373
3159,896
315991,195
315992,58
315993,57
315999,586
316,1348
3161,237
3162,283
316211,57
316212,2
316213,96
316214,62
316219,69
3169,831
316991,190
316992,131
316993,130
316999,381
321,14608
3211,3738
321113,3353
321114,402
3212,1518
321211,268
321212,79
321213,126
321214,908
321219,163
3219,9512
32191,4214
321911,1258
321912,970
321918,2036
32192,2644
32199,2678
321991,221
321992,704
321999,1758
322,3259
3221,288
32211,26
32212,195
322121,181
322122,17
32213,80
3222,3044
32221,1385
322211,885
322212,288
322213,88
322214,134
322215,31
32222,696
322221,99
322222,435
322223,46
322224,68
322225,31
322226,43
32223,459
322231,205
322232,151
322233,108
32229,574
322291,102
322299,474
323,31655
32311,29262
323110,11643
323111,289
323112,817
323113,4701
323114,6811
323115,1785
323116,483
323117,498
323118,190
323119,2240
32312,2437
323121,1017
323122,1421
324,1189
32411,258
32412,602
324121,481
324122,126
32419,360
324191,290
324199,72
325,9772
3251,1434
32511,41
32512,89
32513,159
325131,71
325132,90
32518,418
325181,33
325182,10
325188,383
32519,815
325191,43
325192,26
325193,222
325199,541
3252,767
32521,675
325211,561
325212,127
32522,100
325221,16
325222,85
3253,671
32531,493
325311,132
325312,30
325314,341
32532,185
3254,1502
325411,342
325412,798
325413,199
325414,221
3255,1511
32551,1081
32552,446
3256,2023
32561,1269
325611,649
325612,507
325613,130
32562,767
3259,2229
32591,250
32592,50
32599,1935
325991,477
325992,384
325998,1091
326,11187
3261,9552
32611,1066
326111,320
326112,222
326113,574
32612,770
326121,487
326122,289
32613,267
32614,396
32615,454
32616,181
32619,6640
326191,496
326192,49
326199,6113
3262,1695
32621,451
326211,87
326212,370
32622,191
32629,1072
326291,443
326299,644
327,11351
3271,1346
32711,839
327111,28
327112,701
327113,112
32712,511
327121,101
327122,175
327123,52
327124,110
327125,87
3272,1778
327211,57
327212,474
327213,32
327215,1242
3273,5093
32731,128
32732,2405
32733,762
327331,587
327332,187
32739,1931
3274,220
32741,41
32742,179
3279,3016
32791,286
32799,2736
327991,2031
327992,169
327993,188
327999,360
331,4304
3311,775
331111,755
331112,21
3312,550
33121,205
33122,350
331221,159
331222,200
3313,460
331311,13
331312,56
331314,116
331315,85
331316,144
331319,73
3314,739
33141,153
331411,8
331419,145
33142,184
331421,80
331422,81
331423,29
33149,428
331491,248
331492,191
3315,1878
33151,721
331511,427
331512,111
331513,199
33152,1180
331521,220
331522,186
331524,439
331525,245
331528,116
332,55545
3321,2407
332111,369
332112,61
332114,336
332115,49
332116,1503
332117,112
3322,1371
332211,142
332212,1048
332213,131
332214,61
3323,12715
33231,5194
332311,726
332312,3367
332313,1122
33232,7566
332321,1126
332322,3903
332323,2567
3324,1298
33241,281
33242,608
33243,421
332431,72
332439,356
3325,711
3326,1442
332611,114
332612,277
332618,1059
3327,24820
33271,21628
33272,3227
332721,2450
332722,793
3328,5605
332811,595
332812,2420
332813,2636
3329,5825
33291,1027
332911,392
332912,305
332913,131
332919,231
33299,4833
332991,110
332992,100
332993,38
332994,215
332995,79
332996,698
332997,434
332998,77
332999,3103
333,23736
3331,2723
33311,1256
333111,1120
333112,142
33312,701
33313,786
333131,239
333132,550
3332,3656
33321,277
33322,509
33329,2879
333291,239
333292,315
333293,404
333294,480
333295,202
333298,1259
3333,2136
333311,83
333312,45
333313,95
333314,437
333315,236
333319,1251
3334,1518
333411,305
333412,142
333414,392
333415,704
3335,7736
333511,1966
333512,565
333513,281
333514,3089
333515,1468
333516,66
333518,362
3336,771
333611,128
333612,200
333613,191
333618,271
3339,5590
33391,718
333911,420
333912,281
333913,33
33392,1560
333921,166
333922,741
333923,265
333924,397
33399,3371
333991,141
333992,280
333993,576
333994,320
333995,271
333996,146
333997,92
333999,1589
334,12689
3341,1252
334111,428
334112,123
334113,46
334119,661
3342,1609
33421,331
33422,858
33429,440
3343,511
3344,4229
334411,65
334412,685
334413,851
334414,66
334415,51
334416,293
334417,248
334418,847
334419,1250
3345,4576
334510,521
334511,490
334512,300
334513,923
334514,211
334515,698
334516,544
334517,159
334518,97
334519,767
3346,769
334611,202
334612,437
334613,132
335,5291
3351,1132
33511,78
33512,1057
335121,422
335122,350
335129,297
3352,303
33521,131
335211,96
335212,35
33522,175
335221,112
335222,19
335224,15
335228,41
3353,2081
335311,256
335312,458
335313,443
335314,972
3359,1849
33591,127
335911,88
335912,43
33592,317
335921,97
335929,227
33593,520
335931,403
335932,124
33599,912
335991,121
335999,792
336,10708
3361,311
33611,234
336111,180
336112,61
33612,80
3362,1905
336211,749
336212,354
336213,73
336214,759
3363,4467
33631,929
336311,101
336312,834
33632,726
336321,94
336322,635
33633,214
33634,186
33635,437
33636,297
33637,610
33639,1268
336391,68
336399,1205
3364,1348
336411,269
336412,319
336413,756
336414,15
336415,14
336419,47
3365,160
3366,1637
336611,573
336612,1067
3369,1015
336991,473
336992,50
336999,493
337,20952
3371,16184
33711,9828
33712,6364
337121,1365
337122,3509
337124,333
337125,267
337127,652
337129,274
3372,3916
337211,472
337212,1583
337214,258
337215,1629
3379,902
33791,456
33792,446
339,29816
3391,11366
339111,359
339112,1133
339113,1720
339114,744
339115,512
339116,6979
3399,18466
33991,2672
339911,1736
339912,138
339913,234
339914,566
33992,1900
33993,770
339931,93
339932,677
33994,672
339941,77
339942,136
339943,403
339944,56
33995,6480
33999,6000
339991,532
339992,612
339993,167
339994,221
339995,139
339999,4334
42,334676
423,178898
4231,17618
42311,5201
42312,9275
42313,1331
42314,1956
4232,10903
42321,4812
42322,6096
4233,12895
42331,6321
42332,3157
42333,1143
42339,2446
4234,26308
42341,798
42342,3123
42343,8166
42344,3944
42345,7200
42346,1128
42349,2046
4235,7391
42351,7008
42352,392
4236,19855
42361,7857
42362,2323
42369,9801
4237,11261
42371,4846
42372,3202
42373,2549
42374,784
4238,43150
42381,3168
42382,6402
42383,20782
42384,6965
42385,3866
42386,2400
4239,31061
42391,4710
42392,2282
42393,6258
42394,7761
42399,10072
424,102988
4241,9068
42411,854
42412,4791
42413,3458
4242,6147
4243,14941
42431,3327
42432,3329
42433,6799
42434,1542
4244,27473
42441,3043
42442,2562
42443,1552
42444,515
42445,2017
42446,2337
42447,2382
42448,4551
42449,8754
4245,4004
42451,2386
42452,851
42459,779
4246,8376
42461,2231
42469,6169
4247,4890
42471,2814
42472,2203
4248,3339
42481,1820
42482,1546
4249,25401
42491,4873
42492,2097
42493,3752
42494,1159
42495,1207
42499,12357
425,54096
42511,1218
42512,52882
441,94291
4411,46395
44111,20908
44112,25715
4412,15281
44121,2676
44122,12609
441221,5657
441222,4664
441229,2291
4413,32751
44131,21690
44132,11128
442,46532
4421,20179
4422,26429
44221,12784
44229,13649
442291,2552
442299,11103
443,30657
44311,22554
443111,7467
443112,15109
44312,7286
44313,825
444,62011
4441,45392
44411,2628
44412,2428
44413,11892
44419,28672
4442,16687
44421,3998
44422,12708
44-45,712947
445,116280
4451,65822
44511,40923
44512,24969
4452,23632
44521,5518
44522,2054
44523,3182
44529,12890
445291,3617
445292,2265
445299,7012
4453,26970
446,43864
44611,18687
44612,7012
44613,5341
44619,12970
446191,5453
446199,7519
447,66431
44711,50763
44719,16556
448,67035
4481,41320
44811,4652
44812,12963
44813,2979
44814,8087
44815,4033
44819,8962
4482,6692
4483,19146
44831,18451
44832,697
451,41057
4511,31967
45111,18359
45112,5864
45113,4092
45114,3656
4512,9098
45121,6418
451211,5170
451212,1260
45122,2686
452,10460
4521,442
452111,154
452112,299
4529,10063
45291,65
45299,10003
453,97730
4531,18952
4532,28816
45321,5327
45322,23514
4533,13122
4539,36941
45391,5948
45392,6364
45393,2855
45399,21782
453991,5025
453998,16758
454,40168
4541,15541
454111,8867
454112,395
454113,6313
4542,4602
4543,20059
45431,5989
454311,3558
454312,2233
454319,247
45439,14075
481,2929
4811,578
481111,310
481112,291
4812,2366
481211,1605
481212,292
481219,476
483,1476
4831,890
483111,257
483112,80
483113,420
483114,146
4832,605
483211,359
483212,247
484,106632
4841,58581
48411,27004
48412,31728
484121,28422
484122,3372
4842,48254
48421,7596
48422,30914
48423,9839
48-49,174265
485,15536
4851,594
485111,55
485112,17
485113,485
485119,43
4852,233
4853,7385
48531,2945
48532,4443
4854,3087
4855,1133
4859,3196
485991,2130
485999,1070
486,241
4861,62
4862,126
4869,83
48691,70
48699,27
487,2680
4871,646
4872,1845
4879,194
488,30332
4881,4064
48811,992
488111,26
488119,967
48819,3106
4882,529
4883,1842
48831,175
48832,341
48833,728
48839,636
4884,9358
48841,8084
48849,1275
4885,13065
4889,1582
488991,1339
488999,244
492,8073
4921,3763
4922,4330
493,7410
49311,5084
49312,688
49313,415
49319,1456
51,75686
511,22876
5111,16836
51111,5531
51112,6118
51113,3052
51114,1111
51119,1227
511191,110
511199,1117
5112,6072
512,21258
5121,17719
51211,12763
51212,404
51213,2241
512131,2004
512132,268
51219,2342
512191,2027
512199,320
5122,3549
51221,390
51222,345
51223,687
51224,1729
51229,407
515,5108
5151,4730
51511,3766
515111,602
515112,3210
51512,1019
5152,390
516,2400
517,9590
5171,2048
5172,1738
517211,273
517212,1474
5173,3129
5174,570
5175,996
5179,1274
518,11613
5181,3799
518111,3134
518112,670
5182,7862
519,3408
51911,434
51912,2185
51919,793
52,264193
521,68
522,66462
5221,15420
52211,6669
52212,1270
52213,7541
52219,102
5222,23698
52221,207
52222,2607
52229,20984
522291,4797
522292,10539
522293,275
522294,227
522298,5256
5223,28126
52231,20625
52232,2226
52239,5335
523,57933
5231,13259
52311,3164
52312,7878
52313,1054
52314,1295
5232,130
5239,44808
52391,6425
52392,13031
52393,22782
52399,2835
523991,1939
523999,906
524,138876
5241,7702
52411,2051
524113,1088
524114,1002
52412,5493
524126,2677
524127,2364
524128,469
52413,259
5242,131477
52421,122266
52429,9388
524291,3651
524292,3496
524298,2317
525,2213
52591,255
52593,893
52599,1066
53,301068
531,270268
5311,95954
53111,50047
53112,28082
53113,9441
53119,8684
5312,100971
5313,74307
53131,41937
531311,28238
531312,13791
53132,16102
53139,16373
532,28435
5321,4706
53211,2763
532111,2177
532112,591
53212,1955
5322,12110
53221,752
53222,975
53223,4964
53229,5443
532291,796
532292,1720
532299,2932
5323,3239
5324,8577
53241,3457
532411,719
532412,2744
53242,718
53249,4456
533,2476
54,787157
5411,181525
54111,168798
54119,12770
541191,9979
541199,2792
5412,108428
541211,54047
541213,15270
541214,4060
541219,35181
5413,101108
54131,24255
54132,6465
54133,46499
54134,3097
54135,5768
54136,999
54137,9304
54138,5041
5414,34485
54141,13680
54142,1921
54143,16762
54149,2129
5415,104469
541511,49231
541512,42242
541513,3219
541519,10210
5416,143228
54161,110359
541611,58866
541612,13575
541613,25040
541614,6379
541618,6629
54162,8243
54169,24714
5417,14009
54171,11686
54172,2369
5418,36980
54181,13245
54182,7261
54183,826
54184,1957
54185,2129
54186,3004
54187,763
54189,7911
5419,64704
54191,4661
54192,13706
541921,9646
541922,4066
54193,1933
54194,26569
54199,17845
55,28139
551111,1049
551112,7438
551114,20807
56,328742
561,311675
5611,27528
5612,1732
5613,24586
56131,7856
56132,12331
56133,4582
5614,29803
56141,4888
56142,3947
561421,1631
561422,2329
56143,8485
561431,5412
561439,3075
56144,4417
56145,640
56149,7521
561491,876
561492,3269
561499,3378
5615,17026
56151,11803
56152,2627
56159,2679
561591,999
561599,1680
5616,19720
56161,10553
561611,4768
561612,5669
561613,141
56162,9188
561621,5400
561622,3792
5617,173048
56171,10615
56172,50325
56173,91551
56174,8708
56179,11918
5619,18944
56191,1905
56192,4100
56199,12953
562,17156
5621,7717
562111,6414
562112,372
562119,948
5622,1586
562211,451
562212,867
562213,77
562219,222
5629,7981
56291,2921
56292,884
56299,4194
562991,3325
562998,877
61,77102
6111,18666
6112,468
6113,2456
6114,6995
61141,350
61142,1895
61143,4761
6115,6681
611511,1419
611512,829
611513,1160
611519,3281
6116,35969
61161,10844
61162,11949
61163,1132
61169,12057
611691,5891
611692,2232
611699,3937
6117,6071
62,615067
621,467925
6211,191961
621111,181306
621112,10747
6212,120676
6213,113010
62131,37401
62132,18495
62133,15251
62134,21681
62139,20269
621391,8163
621399,12112
6214,14444
62141,1382
62142,4394
62149,8914
621491,148
621492,487
621493,3428
621498,5001
6215,7736
621511,2726
621512,5085
6216,16495
6219,6052
62191,3150
62199,2913
621991,360
621999,2557
622,4164
6221,3225
6222,545
6223,598
623,34648
6231,8551
6232,8516
62321,5494
62322,3269
6233,14960
623311,3390
623312,11733
6239,3710
624,113068
6241,41311
62411,7456
62412,14863
62419,19900
6242,9491
62421,2791
62422,6053
624221,2966
624229,3252
62423,781
6243,4583
6244,59985
71,116658
711,43415
7111,9293
71111,3437
71112,698
71113,4598
71119,566
7112,4447
711211,763
711212,657
711219,3035
7113,6052
71131,2356
71132,3703
7114,3644
7115,20052
712,6823
71211,4726
71212,962
71213,578
71219,601
713,66499
7131,2584
71311,550
71312,2040
7132,2109
71321,404
71329,1724
7139,61853
71391,11015
71392,370
71393,3950
71394,27812
71395,3899
71399,14960
72,476957
721,53300
7211,44333
72111,39620
72112,231
72119,4517
721191,3435
721199,1082
7212,6881
721211,4146
721214,2745
7213,2128
722,423999
7221,188961
7222,174698
722211,134491
722212,5344
722213,35065
7223,15240
72231,2460
72232,10611
72233,2206
7224,46298
81,677457
811,208647
8111,152929
81111,91404
811111,77046
811112,2942
811113,6088
811118,5416
81112,39735
811121,34683
811122,5063
81119,21917
811191,5045
811192,13783
811198,3146
8112,11514
811211,2326
811212,4977
811213,1303
811219,2929
8113,22329
8114,21990
81141,6360
811411,2050
811412,4310
81142,4792
81143,1060
81149,9781
812,172890
8121,96883
81211,81115
812111,3787
812112,65049
812113,12299
81219,15777
812191,1299
812199,14479
8122,15839
81221,11689
81222,4267
8123,34222
81231,9972
81232,23180
81233,1224
812331,741
812332,503
8129,25959
81291,11318
81292,1837
812921,1050
812922,798
81293,2563
81299,10244
813,296045
8131,179785
8132,14382
813211,8758
813212,2676
813219,2980
8133,13067
813311,2365
813312,4923
813319,5805
8134,27451
8139,61499
81391,16524
81392,6355
81393,15006
81394,2306
81399,21332
