1131,97
1132,37
1133,1560
114111,236
114112,266
114119,3
1142,114
115111,18
115112,358
115113,58
115114,85
115115,87
115116,149
1152,1515
1153,504
211111,502
211112,7
212111,16
212112,4
212113,4
21221,1
212221,30
212222,1
212231,1
212234,1
212291,5
212299,10
212311,61
212312,19
212313,4
212319,29
212321,124
212322,10
212324,0
212325,2
212391,0
212392,1
212393,1
212399,22
213111,237
213112,826
213113,26
213114,20
213115,22
221111,21
221112,6
221113,2
221119,28
221121,8
221122,35
2212,26
22131,917
22132,90
22133,3
236115,8760
236116,495
236117,3766
236118,25266
23621,398
23622,3254
23711,1200
23712,149
23713,604
2372,2478
2373,787
2379,655
23811,3777
23812,437
23813,3976
23814,6428
23815,677
23816,3376
23817,2520
23819,1217
23821,14276
23822,14798
23829,838
23831,4825
23832,13146
23833,4841
23834,3696
23835,9499
23839,1444
23891,6947
23899,7456
311111,37
311119,94
311211,22
311212,4
311213,4
311221,9
311222,9
311223,4
311225,3
31123,4
311311,0
311312,1
311313,0
31132,45
31133,205
31134,100
311411,12
311412,25
311421,80
311422,8
311423,12
311511,17
311512,2
311513,20
311514,10
31152,65
311611,323
311612,178
311613,9
311615,37
311711,13
311712,44
311811,1368
311812,377
311813,26
311821,58
311822,30
311823,21
31183,63
311911,21
311919,38
31192,59
31193,7
311941,56
311942,42
311991,83
311999,79
312111,28
312112,49
312113,72
31212,58
31213,414
31214,10
31221,0
312221,1
312229,5
313111,17
313112,6
313113,17
31321,60
313221,26
313222,29
31323,6
313241,6
313249,16
313311,89
313312,98
31332,12
31411,36
314121,482
314129,104
314911,38
314912,262
314991,18
314992,1
314999,563
315111,6
315119,17
315191,29
315192,8
315211,295
315212,1029
315221,1
315222,39
315223,31
315224,9
315225,9
315228,22
315231,16
315232,31
315233,91
315234,13
315239,61
315291,11
315292,25
315299,74
3159,234
315991,49
315992,3
315993,8
315999,174
3161,34
316211,7
316212,0
316213,21
316214,4
316219,12
3169,198
316991,29
316992,44
316993,34
316999,91
321113,517
321114,41
321211,7
321212,2
321213,15
321214,38
321219,10
321911,125
321912,147
321918,339
32192,326
321991,24
321992,71
321999,367
32211,2
322121,11
322122,0
32213,3
322211,25
322212,5
322213,2
322214,11
322215,1
322221,5
322222,18
322223,2
322224,2
322225,1
322226,5
322231,10
322232,9
322233,16
322291,6
322299,47
323110,1467
323111,53
323112,61
323113,922
323114,1336
323115,340
323116,51
323117,72
323118,17
323119,493
323121,182
323122,335
32411,14
324121,10
324122,12
324191,15
324199,5
32511,4
32512,11
325131,7
325132,8
325181,4
325182,0
325188,19
325191,6
325192,1
325193,5
325199,10
325211,28
325212,9
325221,2
325222,4
325311,17
325312,0
325314,34
32532,15
325411,28
325412,56
325413,6
325414,12
32551,98
32552,21
325611,103
325612,55
325613,5
32562,78
32591,29
32592,2
325991,33
325992,71
325998,112
326111,14
326112,7
326113,36
326121,32
326122,8
32613,27
32614,22
32615,26
32616,5
326191,45
326192,8
326199,374
326211,7
326212,45
32622,9
326291,20
326299,54
327111,3
327112,303
327113,6
327121,6
327122,31
327123,6
327124,9
327125,6
327211,7
327212,118
327213,2
327215,264
32731,6
32732,137
327331,41
327332,7
32739,186
32741,2
32742,33
32791,19
327991,239
327992,6
327993,6
327999,36
331111,59
331112,1
33121,14
331221,13
331222,14
331311,0
331312,5
331314,2
331315,11
331316,9
331319,4
331411,0
331419,18
331421,7
331422,2
331423,2
331491,17
331492,10
331511,24
331512,5
331513,16
331521,2
331522,15
331524,24
331525,15
331528,11
332111,45
332112,0
332114,8
332115,4
332116,71
332117,2
332211,34
332212,132
332213,13
332214,3
332311,84
332312,283
332313,86
332321,90
332322,271
332323,396
33241,7
33242,31
332431,3
332439,25
3325,64
332611,9
332612,18
332618,102
33271,3865
332721,79
332722,32
332811,24
332812,224
332813,303
332911,23
332912,16
332913,18
332919,13
332991,5
332992,23
332993,3
332994,43
332995,13
332996,42
332997,50
332998,11
332999,395
333111,130
333112,16
33312,51
333131,20
333132,31
33321,34
33322,44
333291,19
333292,41
333293,26
333294,28
333295,5
333298,101
333311,13
333312,5
333313,9
333314,34
333315,26
333319,99
333411,25
333412,5
333414,45
333415,36
333511,197
333512,62
333513,29
333514,397
333515,158
333516,1
333518,15
333611,5
333612,7
333613,7
333618,29
333911,20
333912,20
333913,1
333921,9
333922,42
333923,16
333924,29
333991,12
333992,27
333993,45
333994,20
333995,16
333996,5
333997,7
333999,139
334111,72
334112,12
334113,5
334119,54
33421,20
33422,61
33429,51
3343,70
334411,6
334412,36
334413,62
334414,3
334415,2
334416,18
334417,12
334418,46
334419,89
334510,44
334511,35
334512,27
334513,75
334514,18
334515,50
334516,57
334517,17
334518,16
334519,73
334611,45
334612,52
334613,24
33511,9
335121,69
335122,37
335129,27
335211,10
335212,2
335221,17
335222,2
335224,3
335228,5
335311,21
335312,38
335313,30
335314,93
335911,9
335912,2
335921,6
335929,6
335931,34
335932,10
335991,10
335999,75
336111,35
336112,10
33612,3
336211,51
336212,18
336213,6
336214,87
336311,13
336312,129
336321,7
336322,77
33633,13
33634,18
33635,38
33636,21
33637,20
336391,2
336399,109
336411,22
336412,19
336413,53
336414,1
336415,0
336419,0
3365,7
336611,63
336612,185
3369,178
336991,95
336992,1
336999,82
33711,1808
337121,193
337122,840
337124,52
337125,83
337127,67
337129,71
337211,47
337212,149
337214,27
337215,137
33791,56
33792,76
339111,28
339112,89
339113,173
339114,109
339115,61
339116,2076
339911,397
339912,30
339913,57
339914,176
33992,370
339931,27
339932,175
339941,13
339942,18
339943,87
339944,6
33995,1275
339991,39
339992,158
339993,29
339994,20
339995,17
339999,630
42311,299
42312,677
42313,84
42314,221
42321,361
42322,493
42331,256
42332,223
42333,54
42339,166
42341,51
42342,290
42343,756
42344,315
42345,774
42346,133
42349,146
42351,307
42352,30
42361,489
42362,163
42369,711
42371,308
42372,183
42373,126
42374,50
42381,161
42382,343
42383,1219
42384,388
42385,315
42386,141
42391,471
42392,271
42393,406
42394,629
42399,1289
42411,61
42412,467
42413,187
4242,600
42431,298
42432,257
42433,643
42434,153
42441,203
42442,123
42443,87
42444,13
42445,326
42446,159
42447,115
42448,217
42449,865
42451,60
42452,70
42459,54
42461,118
42469,448
42471,38
42472,93
42481,93
42482,102
42491,282
42492,282
42493,467
42494,48
42495,72
42499,1834
42511,172
42512,5954
44111,402
44112,2124
44121,144
441221,485
441222,350
441229,161
44131,2289
44132,1121
4421,2154
44221,1104
442291,491
442299,2252
443111,771
443112,3051
44312,1418
44313,90
44411,144
44412,237
44413,1090
44419,2111
44421,302
44422,1286
44511,4567
44512,2699
44521,575
44522,312
44523,473
445291,1100
445292,615
445299,2003
4453,2212
44611,673
44612,1717
44613,679
446191,1096
446199,1087
44711,1726
44719,806
44811,628
44812,2613
44813,886
44814,1459
44815,1187
44819,1807
4482,925
44831,2962
44832,119
45111,2560
45112,1426
45113,1050
45114,534
451211,1191
451212,260
45122,707
452111,25
452112,48
45291,7
45299,2120
4531,4735
45321,941
45322,6433
4533,4153
45391,1061
45392,1501
45393,234
453991,610
453998,3299
454111,1599
454112,106
454113,879
4542,1059
454311,120
454312,95
454319,54
45439,3356
481111,33
481112,42
481211,224
481212,63
481219,87
483111,21
483112,15
483113,33
483114,22
483211,32
483212,42
48411,7585
484121,6423
484122,849
48421,1614
48422,7251
48423,1755
485111,7
485112,1
485113,122
485119,14
4852,55
48531,1348
48532,1533
4854,830
4855,179
4859,846
485991,534
485999,312
4861,1
4862,10
48691,2
48699,0
4871,171
4872,526
4879,41
488111,4
488119,199
48819,593
4882,50
48831,18
48832,25
48833,97
48839,126
48841,2038
48849,352
4885,1834
4889,370
488991,307
488999,63
4921,1073
4922,1397
49311,370
49312,40
49313,38
49319,110
51111,909
51112,978
51113,730
51114,157
511191,27
511199,237
5112,770
51211,3252
51212,65
512131,333
512132,61
512191,476
512199,74
51221,119
51222,98
51223,212
51224,607
51229,119
515111,120
515112,508
51512,164
5152,50
5171,174
517211,72
517212,242
5173,625
5174,86
5175,110
5179,334
518111,703
518112,162
5182,1551
51911,108
51912,852
51919,267
521,8
52211,101
52212,22
52213,859
52219,20
52221,44
52222,393
522291,1082
522292,2992
522293,46
522294,45
522298,988
52231,6547
52232,505
52239,1305
52311,649
52312,1277
52313,245
52314,258
5232,40
52391,1817
52392,2465
52393,6552
523991,480
523999,230
524113,188
524114,136
524126,326
524127,676
524128,96
52413,30
52421,28267
524291,1078
524292,507
524298,682
52591,65
52593,194
52599,336
53111,10039
53112,5698
53113,2069
53119,1779
5312,34293
531311,8724
531312,3885
53132,6516
53139,6242
532111,632
532112,120
53212,401
53221,119
53222,248
53223,2002
532291,75
532292,535
532299,565
5323,398
532411,129
532412,408
53242,148
53249,757
54111,33944
541191,2678
541199,1050
541211,12808
541213,7517
541214,899
541219,16204
54131,4338
54132,1496
54133,9576
54134,1305
54135,2882
54136,204
54137,2179
54138,743
54141,3277
54142,505
54143,5460
54149,592
541511,13483
541512,10367
541513,830
541519,3589
541611,19766
541612,3515
541613,8543
541614,1897
541618,2232
54162,2135
54169,8229
54171,2425
54172,583
54181,3101
54182,1835
54183,137
54184,386
54185,488
54186,392
54187,178
54189,1502
54191,997
541921,3499
541922,1239
54193,778
54194,2059
54199,6129
551111,78
551112,1620
551114,199
5611,6793
5612,276
56131,2054
56132,2342
56133,679
56141,2312
561421,347
561422,506
561431,933
561439,466
56144,936
56145,119
561491,179
561492,1287
561499,868
56151,3074
56152,485
561591,197
561599,295
561611,1797
561612,1569
561613,23
561621,934
561622,916
56171,3239
56172,23557
56173,29379
56174,3051
56179,3843
56191,309
56192,949
56199,2902
562111,794
562112,47
562119,167
562211,36
562212,85
562213,2
562219,22
56291,413
56292,90
562991,587
562998,163
6111,1818
6112,50
6113,254
61141,72
61142,635
61143,1317
611511,261
611512,225
611513,227
611519,830
61161,4244
61162,4491
61163,490
611691,2380
611692,940
611699,1442
6117,2156
621111,15607
621112,2655
6212,7873
62131,8687
62132,2293
62133,6390
62134,5981
621391,993
621399,4876
62141,460
62142,787
621491,29
621492,33
621493,252
621498,664
621511,365
621512,781
6216,4279
62191,398
621991,32
621999,588
6221,27
6222,27
6223,66
6231,550
62321,783
62322,406
623311,308
623312,2820
6239,593
62411,1709
62412,4416
62419,6255
62421,724
624221,252
624229,420
62423,170
6243,634
6244,22932
71111,728
71112,245
71113,1382
71119,146
711211,130
711212,142
711219,856
71131,443
71132,827
7114,837
7115,6377
71211,1407
71212,318
71213,103
71219,149
71311,82
71312,612
71321,18
71329,268
71391,1111
71392,68
71393,541
71394,10989
71395,587
71399,4820
72111,4945
72112,8
721191,1178
721199,330
721211,999
721214,510
7213,471
7221,36333
722211,26822
722212,1166
722213,10615
72231,583
72232,3104
72233,999
7224,11536
811111,13574
811112,624
811113,998
811118,1015
811121,6127
811122,1276
811191,781
811192,4507
811198,818
811211,701
811212,1496
811213,260
811219,581
8113,4112
811411,568
811412,1307
81142,1777
81143,509
81149,3764
812111,2487
812112,30447
812113,6659
812191,477
812199,7207
81221,937
81222,1974
81231,3309
81232,5931
812331,87
812332,51
81291,5127
812921,230
812922,267
81293,521
81299,4362
8131,48685
813211,1020
813212,389
813219,465
813311,545
813312,1141
813319,1537
8134,7459
81391,3739
81392,1201
81393,6250
81394,935
81399,7007
