52,4012
56,9666
53,73
51,9803
22,269
45,2467
58,90159
60,1002
61,13442
62,9006
63,1452
64,30534
49,1794
67,8320
82,20267
83,43513
80,73378
81,33944
86,78249
87,138922
84,1977
24,3222
25,561
26,195
27,5952
20,2413
07,35261
48,3833
23,780
46,3
47,6183
44,846
42,30509
28,726
29,51
41,4433
50,11539
09,619
96,4
08,638
13,1565
76,50887
75,33477
38,802
73,128507
72,67963
70,8441
15,3766
79,33101
78,7852
10,69
39,6331
12,50
59,41738
14,270
0A,199
16,655
33,341
54,15120
31,1760
30,668
37,1270
36,1193
35,6557
34,1623
55,9439
89,26878
21,1
32,1201
17,74135
57,11009
65,82332
