31,198
37  ,178
16,655
45,2105
23,234
47,5813
41,3443
83,38622
08,638
24,1886
09,114
0912,236
0919,269
07,34506
0724,18
0721,358
0722,58
0723,85
0761,87
0762,149
76,38196
1311,502
2819,14
12,0
1221,16
1222,4
1231,4
10,1
1041,30
1044,1
1031,1
1061,1
1094,5
1099,10
14,0
1411,61
1422,19
1423,4
1499,29
32,383
1442,124
1446,10
3295,31
1474,0
1475,1
1381,237
1389,826
1241,26
1081,20
1481,22
49,1549
4939,100
87,42052
8741,34521
1531,3766
65,67045
17,74135
73,85555
20,725
2047,37
2048,417
2041,22
2099,276
2083,4
2046,9
2079,16
2061,0
2062,1
2063,0
54,8938
2037,12
2038,25
2035,80
2032,8
2026,27
2021,2
2022,20
5147,178
2077,9
2015,37
2091,13
2092,44
5461,2468
2052,435
2053,26
2045,30
2096,38
28,258
2899,52
2086,28
5149,49
2097,72
21,0
2111,1
7389,5315
22,102
2299,60
2282,6
2397,29
2259,59
51,9478
5131,98
30,101
57,8596
5714,586
3069,340
2394,262
2298,18
2296,1
2252,23
3151,1327
2384,1
5699,161
2369,9
2326,9
2385,107
2389,16
2361,31
2386,25
2353,49
2323,8
39,1679
3021,7
3142,0
3143,21
3144,4
3149,12
3161,29
3171,44
3172,34
3199,91
2429,517
2491,41
2435,7
2436,2
2439,53
2493,10
2431,464
2426,147
2451,24
2452,71
3999,2576
26,5
2621,11
2679,100
2657,5
2652,2
2655,11
2656,1
2671,12
2673,16
2674,2
3497,1
2675,5
2677,9
2678,16
3842,6
27,2617
2771,2101
3993,922
7334,1336
2759,340
2782,68
2732,72
2789,182
2796,335
29,14
2951,10
2952,12
33,14
2992,15
3312,5
2865,8
2812,4
2895,0
2869,25
2861,6
2821,28
2822,9
2823,2
2824,4
2873,17
2874,0
2875,34
2833,28
2835,62
2836,12
2844,103
2842,55
2843,5
3087,33
3861,97
3081,36
3089,40
3088,45
3996,8
75,2960
3011,7
7534,45
3061,20
3261,3
5719,794
3264,6
3251,6
3253,31
3259,6
3255,9
3297,6
3211,7
3229,118
3221,2
3231,264
3271,41
3272,7
3281,239
3296,6
3299,36
3399,86
3313,1
3315,14
3334,5
3353,11
3354,9
3357,35
3331,0
3339,18
3351,7
3322,24
3324,5
3325,16
3363,2
3364,15
3365,24
3366,15
3369,11
34,136
3462,45
3463,0
3449,291
3466,4
3469,71
3499,152
3425,13
3496,105
3448,84
3443,86
35,4001
3444,361
3523,396
3411,3
3537,25
3493,9
3495,18
3451,79
3452,32
3398,24
3599,442
3491,23
3728,91
3432,18
3562,5
3482,23
3483,3
3841,160
3489,13
3498,42
3543,50
3431,11
3559,135
3524,16
3532,20
3533,31
36,309
3554,19
3552,41
3555,26
3556,28
3639,108
3581,13
3582,5
3579,9
3827,34
3564,30
3634,45
3585,38
3544,594
3541,62
3542,29
3545,158
3547,1
3549,15
3511,5
3566,7
3568,7
3699,158
3743,20
3563,20
3586,1
37,79
3534,9
3535,42
3536,16
3799,307
3546,12
3565,45
3567,20
3593,16
3594,5
3596,7
3571,72
3572,12
3575,5
3578,54
3671,6
3672,36
3674,62
3675,3
3676,2
3677,18
3678,12
3679,135
38,0
3845,61
3812,35
3822,27
3823,75
3829,91
3825,50
3826,57
3915,73
7372,45
7819,528
3695,24
3646,37
3631,17
3632,2
3633,3
3612,21
7694,38
3613,30
3625,93
3691,9
3692,2
3643,34
3644,10
3624,10
3711,45
3714,257
3715,18
3716,6
3592,13
3647,7
3724,19
3761,1
3764,0
3769,0
3731,63
3732,185
3944,95
3795,1
25,132
5712,1033
2514,52
2519,83
2517,71
2521,47
2541,149
2522,27
80,42880
5999,4559
3843,109
5995,61
8072,2076
3911,397
3914,30
3961,176
3942,27
3951,13
3952,18
3953,87
3955,6
3053,39
3931,158
3965,29
3991,20
3995,17
50,11539
78,6856
55,8443
5571,485
5551,350
5599,161
7699,8571
7629,1031
7622,3051
59,32204
52,4012
5441,615
5499,3099
56,9505
5942,1191
5994,260
53,0
5311,73
5993,610
5961,2584
5983,120
5984,95
5989,54
4512,75
79,31152
4522,287
7997,286
44,681
4412,21
4481,15
4432,33
4482,22
4499,32
4489,42
42,22229
4213,7272
4111,144
48,2891
4119,846
46,3
9621,4
4783,307
4789,63
2741,237
7832,333
7833,61
7829,74
89,23201
4832,628
4812,72
4899,242
7375,703
8999,3677
82,14223
60,1002
61,8289
6141,1082
6162,2992
6159,1079
62,8776
67,5122
6733,480
6289,230
63,30
6321,188
6324,136
6351,326
6361,676
6399,96
64,28267
6411,2267
6531,12609
7514,632
7515,120
7352,75
7999,1391
7359,1102
81,33944
6541,2678
8721,29911
7291,7517
7371,13483
7379,13956
7376,830
8742,30206
8748,2232
7221,3499
8099,1859
6712,78
6719,1620
0Aux,199
7338,1287
86,75276
8699,1436
7381,3389
7382,934
72,9271
4212,1008
4953,145
7241,2748
8299,5817
8249,227
8031,18262
8043,993
8093,5540
8011,281
8092,33
8071,1146
8059,308
8361,2820
8322,672
7941,130
7948,142
84,1977
70,5424
7011,1508
7033,999
7032,510
58,51556
5812,38603
7538,13574
7533,624
7537,998
7539,1015
7532,6127
7549,2875
7542,4507
7231,37106
7299,7684
7219,87
7218,51
7384,497
6732,1020
8399,1399
8641,1537
