31,831
37  ,1015
16,5200
45,10213
23,896
47,29606
41,12092
83,122832
08,2253
24,12378
09,327
0912,1105
0919,948
07,102869
0724,264
0721,1987
0722,309
0723,831
0761,426
0762,494
76,212814
1311,6424
2819,223
12,0
1221,391
1222,252
1231,69
10,21
1041,131
1044,9
1031,14
1061,26
1094,30
1099,33
14,0
1411,423
1422,588
1423,129
1499,402
32,4970
1442,1716
1446,104
3295,503
1474,17
1475,9
1381,2059
1389,7134
1241,280
1081,126
1481,253
49,8456
4939,1858
87,256982
8741,165173
1531,32158
65,233007
17,327174
73,351227
20,3905
2047,212
2048,2564
2041,188
2099,2181
2083,16
2046,37
2079,187
2061,29
2062,15
2063,11
54,78159
2037,153
2038,367
2035,575
2032,108
2026,410
2021,28
2022,355
5147,1267
2077,117
2015,326
2091,112
2092,486
5461,9831
2052,2481
2053,219
2045,201
2096,298
28,2909
2899,847
2086,275
5149,169
2097,373
21,11
2111,24
7389,24416
22,924
2299,419
2282,81
2397,91
2259,495
51,110132
5131,464
30,1673
57,70823
5714,2165
3069,1850
2394,1512
2298,141
2296,18
2252,221
3151,6287
2384,16
5699,778
2369,53
2326,100
2385,821
2389,101
2361,236
2386,142
2353,195
2323,57
39,8617
3021,57
3142,2
3143,96
3144,62
3149,69
3161,190
3171,131
3172,130
3199,381
2429,3353
2491,402
2435,268
2436,79
2439,1034
2493,163
2431,3294
2426,970
2451,221
2452,704
3999,22016
26,106
2621,198
2679,1999
2657,288
2652,88
2655,134
2656,31
2671,321
2673,366
2674,68
3497,31
2675,43
2677,151
2678,108
3842,102
27,14701
2771,15099
3993,4701
7334,6811
2759,1785
2782,673
2732,498
2789,1017
2796,1421
29,258
2951,481
2952,126
33,205
2992,290
3312,72
2865,90
2812,33
2895,10
2869,631
2861,43
2821,561
2822,127
2823,16
2824,85
2873,132
2874,30
2875,341
2833,342
2835,997
2836,221
2844,649
2842,507
2843,130
3087,477
3861,620
3081,574
3089,776
3088,496
3996,49
75,12602
3011,87
7534,370
3061,443
3261,28
5719,3253
3264,112
3251,101
3253,175
3259,52
3255,110
3297,87
3211,57
3229,474
3221,32
3231,1242
3271,587
3272,187
3281,2031
3296,188
3299,360
3399,1250
3313,21
3315,200
3334,56
3353,85
3354,144
3357,726
3331,8
3339,145
3351,80
3322,427
3324,111
3325,199
3363,220
3364,186
3365,439
3366,245
3369,116
34,2226
3462,369
3463,61
3449,3703
3466,49
3469,1503
3499,1972
3425,131
3496,1120
3448,726
3443,1122
35,23396
3444,5029
3523,2567
3411,72
3537,356
3493,114
3495,277
3451,2450
3452,793
3398,595
3599,4225
3491,392
3728,1330
3432,131
3562,110
3482,100
3483,38
3841,1707
3489,79
3498,698
3543,434
3431,77
3559,1322
3524,142
3532,239
3533,550
36,2563
3554,239
3552,315
3555,404
3556,480
3639,1335
3581,83
3582,45
3579,95
3827,437
3564,447
3634,392
3585,772
3544,5055
3541,565
3542,281
3545,1468
3547,66
3549,362
3511,128
3566,200
3568,191
3699,1640
3743,420
3563,281
3586,33
37,1077
3534,166
3535,741
3536,265
3799,2854
3546,141
3565,576
3567,320
3593,271
3594,146
3596,92
3571,428
3572,123
3575,46
3578,661
3671,65
3672,685
3674,851
3675,66
3676,51
3677,293
3678,248
3679,2097
38,0
3845,680
3812,490
3822,300
3823,923
3829,978
3825,698
3826,544
3915,331
7372,202
7819,2464
3695,132
3646,350
3631,112
3632,19
3633,15
3612,256
7694,458
3613,443
3625,972
3691,88
3692,43
3643,403
3644,124
3624,121
3711,241
3714,2218
3715,354
3716,73
3592,101
3647,94
3724,319
3761,15
3764,14
3769,47
3731,573
3732,1067
3944,473
3795,50
25,902
5712,4874
2514,333
2519,267
2517,274
2521,472
2541,1583
2522,258
80,265456
5999,25997
3843,744
5995,512
8072,6979
3911,1736
3914,138
3961,566
3942,93
3951,77
3952,136
3953,403
3955,56
3053,532
3931,612
3965,167
3991,221
3995,139
50,166789
78,29178
55,137749
5571,5657
5551,4664
5599,2291
7699,35689
7629,8770
7622,15109
59,163598
52,49291
5441,2265
5499,12465
56,48368
5942,5170
5994,1260
53,0
5311,453
5993,5025
5961,15575
5983,3558
5984,2233
5989,247
4512,601
79,107230
4522,1897
7997,1443
44,5194
4412,257
4481,80
4432,420
4482,146
4499,359
4489,247
42,96767
4213,31794
4111,600
48,12371
4119,3200
46,159
9621,26
4783,1339
4789,244
2741,1117
7832,2004
7833,268
7829,320
89,71931
4832,3812
4812,273
4899,1474
7375,3134
8999,14245
82,54706
60,15582
61,28774
6141,4797
6162,10539
6159,5758
62,35249
67,22724
6733,1939
6289,906
63,259
6321,1088
6324,1002
6351,2677
6361,2364
6399,469
64,122266
6411,9464
6531,42029
7514,2177
7515,591
7352,796
7999,4755
7359,6395
81,168798
6541,9979
8721,93288
7291,15270
7371,49231
7379,52452
7376,3219
8742,90285
8748,6629
7221,9646
8099,6983
6712,1049
6719,7438
0Aux,20807
7338,3269
86,268759
8699,6603
7381,10578
7382,5400
72,34636
4212,7734
4953,1617
7241,5206
8299,16170
8249,1160
8031,192053
8043,8163
8093,17113
8011,3576
8092,487
8071,7811
8059,3390
8361,11733
8322,6218
7941,763
7948,657
84,6867
70,41979
7011,4517
7033,4146
7032,2745
58,248330
5812,174900
7538,77046
7533,2942
7537,6088
7539,5416
7532,34683
7549,13254
7542,13783
7231,77348
7299,15778
7219,741
7218,503
7384,1848
6732,8758
8399,8021
8641,5805
