52,45756
56,48010
53,373
51,92144
22,1761
45,11713
58,418921
60,10892
61,47530
62,34351
63,6363
64,129624
49,9820
67,35040
82,68434
83,140989
80,494863
81,166567
86,278209
87,587932
84,6575
24,21015
25,3652
26,2450
27,33640
20,12613
07,106516
48,16322
23,3881
46,65
47,29887
44,6118
42,129241
28,5989
29,659
41,15322
50,140978
09,2330
96,20
08,2184
13,14223
76,266833
75,167097
38,6547
73,496076
72,158577
70,51742
15,30870
79,111739
78,32839
10,306
39,36335
12,727
59,216800
14,3047
0A,6632
16,4794
33,3752
54,99580
31,7912
30,5244
37,8919
36,10357
35,43792
34,18696
55,129191
89,84840
21,11
32,9396
17,320943
57,78868
65,279597
