113,10174
1131,379
1132,165
1133,9631
114,2330
1141,2007
114111,1071
114112,924
114119,12
1142,323
115,9992
1151,4087
115111,252
115112,1950
115113,297
115114,698
115115,413
115116,481
1152,4265
1153,1640
21,18595
211,5792
211111,5713
211112,79
212,3744
2121,488
212111,264
212112,167
212113,58
2122,201
21221,16
21222,116
212221,111
212222,5
21223,22
212231,5
212234,17
21229,47
212291,22
212299,25
2123,3056
21231,1228
212311,396
212312,416
212313,86
212319,331
21232,1644
212321,1502
212322,79
212324,9
212325,55
21239,195
212391,4
212392,4
212393,26
212399,161
213,9076
213111,1832
213112,6678
213113,238
213114,105
213115,229
22,4896
2211,706
22111,317
221111,97
221112,61
221113,5
221119,155
22112,391
221121,28
221122,363
2212,316
2213,3877
22131,3501
22132,346
22133,36
23,775976
236,232862
2361,193911
236115,60225
236116,3872
236117,30870
236118,98949
2362,38952
23621,3481
23622,35473
237,44825
2371,18663
23711,12616
23712,1371
23713,4679
2372,12361
2373,9009
2379,4794
238,498342
2381,112491
23811,25476
23812,3350
23813,17068
23814,26566
23815,5337
23816,18789
23817,10338
23819,5573
2382,179636
23821,77055
23822,96982
23829,5605
2383,131389
23831,21036
23832,41138
23833,16583
23834,11846
23835,33818
23839,6970
2389,74840
23891,40110
23899,34730
311,18415
3111,872
311111,158
311119,714
3112,285
31121,154
311211,116
311212,31
311213,7
31122,113
311221,20
311222,40
311223,17
311225,36
31123,18
3113,1455
31131,18
311311,10
311312,7
311313,1
31132,131
31133,933
31134,377
3114,866
31141,310
311411,69
311412,241
31142,556
311421,405
311422,76
311423,75
3115,715
31151,417
311511,140
311512,14
311513,202
311514,61
31152,298
3116,2565
311611,1367
311612,929
311613,77
311615,192
3117,437
311711,92
311712,345
3118,9042
31181,8211
311811,6160
311812,1914
311813,149
31182,524
311821,251
311822,140
311823,133
31183,307
3119,2187
31191,318
311911,104
311919,214
31192,303
31193,99
31194,412
311941,210
311942,202
31199,1055
311991,533
311999,522
312,3059
3121,3015
31211,746
312111,138
312112,88
312113,367
31212,317
31213,1892
31214,60
3122,44
31221,1
31222,43
312221,10
312229,33
313,2202
3131,224
313111,116
313112,48
313113,60
3132,887
31321,332
31322,238
313221,151
313222,87
31323,107
31324,211
313241,78
313249,133
3133,1091
31-33,255388
31331,977
313311,574
313312,403
31332,114
314,6089
3141,2283
31411,219
31412,2064
314121,1577
314129,487
3149,3806
31491,1677
314911,227
314912,1450
31499,2130
314991,120
314992,8
314999,2002
315,9620
3151,389
31511,182
315111,43
315119,139
31519,207
315191,187
315192,20
3152,8387
31521,6114
315211,1125
315212,4990
31522,565
315221,12
315222,157
315223,146
315224,42
315225,79
315228,130
31523,1199
315231,80
315232,185
315233,382
315234,118
315239,434
31529,514
315291,39
315292,142
315299,333
3159,845
315991,185
315992,48
315993,53
315999,559
316,1229
3161,207
3162,247
316211,48
316212,2
316213,78
316214,56
316219,63
3169,775
316991,172
316992,122
316993,119
316999,362
321,12978
3211,3184
321113,2889
321114,295
3212,1174
321211,196
321212,41
321213,93
321214,749
321219,95
3219,8633
32191,3780
321911,1078
321912,816
321918,1888
32192,2506
32199,2352
321991,142
321992,596
321999,1614
322,2189
3221,108
32211,10
32212,78
322121,75
322122,3
32213,20
3222,2082
32221,892
322211,550
322212,161
322213,65
322214,105
322215,13
32222,438
322221,66
322222,282
322223,26
322224,31
322225,9
322226,24
32223,358
322231,164
322232,105
322233,89
32229,395
322291,49
322299,346
323,30077
32311,27765
323110,10729
323111,247
323112,676
323113,4520
323114,6761
323115,1692
323116,413
323117,428
323118,166
323119,2160
32312,2319
323121,975
323122,1344
324,697
32411,155
32412,318
324121,246
324122,72
32419,224
324191,186
324199,38
325,7161
3251,809
32511,15
32512,62
32513,98
325131,40
325132,58
32518,222
325181,18
325182,2
325188,202
32519,413
325191,27
325192,9
325193,91
325199,286
3252,463
32521,411
325211,331
325212,80
32522,52
325221,10
325222,42
3253,482
32531,357
325311,94
325312,14
325314,249
32532,125
3254,1032
325411,245
325412,514
325413,128
325414,145
3255,1185
32551,888
32552,297
3256,1528
32561,958
325611,466
325612,417
325613,75
32562,570
3259,1668
32591,182
32592,22
32599,1464
325991,335
325992,326
325998,803
326,8515
3261,7253
32611,670
326111,206
326112,109
326113,355
32612,532
326121,356
326122,176
32613,208
32614,286
32615,329
32616,99
32619,5139
326191,416
326192,30
326199,4694
3262,1265
32621,334
326211,49
326212,285
32622,127
32629,804
326291,321
326299,483
327,9799
3271,1155
32711,775
327111,18
327112,678
327113,79
32712,380
327121,59
327122,154
327123,41
327124,71
327125,56
3272,1605
327211,45
327212,433
327213,19
327215,1110
3273,4174
32731,75
32732,1839
32733,567
327331,446
327332,124
32739,1703
3274,175
32741,22
32742,153
3279,2697
32791,231
32799,2467
327991,1939
327992,99
327993,140
327999,289
331,3019
3311,587
331111,582
331112,5
3312,312
33121,102
33122,210
331221,89
331222,121
3313,249
331311,4
331312,35
331314,47
331315,54
331316,56
331319,53
3314,481
33141,100
331411,2
331419,98
33142,97
331421,41
331422,46
331423,10
33149,284
331491,173
331492,111
3315,1393
33151,483
331511,285
331512,68
331513,132
33152,910
331521,139
331522,129
331524,343
331525,202
331528,97
332,50102
3321,1779
332111,250
332112,29
332114,226
332115,37
332116,1161
332117,76
3322,1194
332211,123
332212,924
332213,111
332214,38
3323,10992
33231,4260
332311,593
332312,2727
332313,940
33232,6732
332321,897
332322,3442
332323,2394
3324,919
33241,160
33242,435
33243,324
332431,45
332439,280
3325,555
3326,1184
332611,84
332612,230
332618,870
3327,23505
33271,20749
33272,2760
332721,2166
332722,595
3328,5131
332811,497
332812,2185
332813,2461
3329,4879
33291,701
332911,261
332912,198
332913,94
332919,148
33299,4179
332991,61
332992,83
332993,20
332994,186
332995,64
332996,560
332997,412
332998,59
332999,2736
333,19996
3331,2115
33311,1043
333111,944
333112,99
33312,497
33313,575
333131,177
333132,398
3332,3017
33321,245
33322,413
33329,2359
333291,194
333292,290
333293,333
333294,379
333295,134
333298,1029
3333,1719
333311,64
333312,30
333313,69
333314,353
333315,194
333319,1009
3334,1115
333411,241
333412,85
333414,295
333415,495
3335,7072
333511,1806
333512,472
333513,227
333514,2903
333515,1351
333516,45
333518,275
3336,540
333611,86
333612,147
333613,126
333618,181
3339,4435
33391,511
333911,301
333912,190
333913,20
33392,1179
333921,134
333922,561
333923,201
333924,283
33399,2746
333991,112
333992,217
333993,449
333994,261
333995,205
333996,99
333997,74
333999,1330
334,10286
3341,993
334111,351
334112,83
334113,41
334119,518
3342,1206
33421,212
33422,632
33429,362
3343,426
3344,3289
334411,48
334412,567
334413,606
334414,47
334415,35
334416,244
334417,171
334418,586
334419,990
3345,3681
334510,363
334511,370
334512,251
334513,742
334514,163
334515,550
334516,424
334517,122
334518,85
334519,613
3346,695
334611,184
334612,394
334613,117
335,4181
3351,930
33511,59
33512,871
335121,374
335122,280
335129,218
3352,218
33521,98
335211,72
335212,26
33522,120
335221,82
335222,8
335224,9
335228,21
3353,1660
335311,176
335312,338
335313,353
335314,794
3359,1376
33591,85
335911,54
335912,31
33592,197
335921,74
335929,123
33593,381
335931,301
335932,80
33599,714
335991,86
335999,628
336,8362
3361,211
33611,171
336111,130
336112,41
33612,40
3362,1500
336211,575
336212,269
336213,40
336214,617
3363,3285
33631,771
336311,78
336312,693
33632,568
336321,59
336322,509
33633,136
33634,117
33635,316
33636,192
33637,310
33639,875
336391,43
336399,832
3364,1013
336411,210
336412,201
336413,567
336414,5
336415,5
336419,25
3365,96
3366,1378
336611,445
336612,933
3369,880
336991,425
336992,28
336999,427
337,19811
3371,15588
33711,9645
33712,5944
337121,1227
337122,3375
337124,293
337125,252
337127,528
337129,270
3372,3453
337211,415
337212,1453
337214,198
337215,1389
3379,771
33791,376
33792,395
339,27893
3391,10666
339111,271
339112,883
339113,1444
339114,687
339115,456
339116,6927
3399,17227
33991,2525
339911,1634
339912,133
339913,211
339914,547
33992,1706
33993,716
339931,90
339932,626
33994,608
339941,60
339942,114
339943,389
339944,45
33995,6206
33999,5471
339991,423
339992,578
339993,146
339994,179
339995,127
339999,4018
42,286455
423,154174
4231,14873
42311,3890
42312,8073
42313,1023
42314,1900
4232,9457
42321,4189
42322,5270
4233,10600
42331,4972
42332,2719
42333,879
42339,2037
4234,23270
42341,676
42342,2844
42343,6950
42344,3547
42345,6455
42346,1005
42349,1809
4235,5432
42351,5170
42352,262
4236,16646
42361,6511
42362,1864
42369,8283
4237,9427
42371,4197
42372,2564
42373,2040
42374,637
4238,36874
42381,2446
42382,5302
42383,17853
42384,5839
42385,3514
42386,1964
4239,27759
42391,4168
42392,2036
42393,5189
42394,7069
42399,9301
424,85392
4241,7959
42411,698
42412,4411
42413,2853
4242,5189
4243,13132
42431,2964
42432,2878
42433,5973
42434,1320
4244,22307
42441,2460
42442,1805
42443,1203
42444,345
42445,1804
42446,1952
42447,1861
42448,3419
42449,7468
4245,2595
42451,1346
42452,624
42459,625
4246,6839
42461,1743
42469,5097
4247,2529
42471,1232
42472,1304
4248,2170
42481,957
42482,1213
4249,22703
42491,3988
42492,1838
42493,3503
42494,717
42495,1046
42499,11616
425,47077
42511,1104
42512,45973
441,78057
4411,32349
44111,7943
44112,24417
4412,13823
44121,2255
44122,11570
441221,5021
441222,4381
441229,2169
4413,31926
44131,21177
44132,10769
442,45312
4421,19435
4422,25915
44221,12463
44229,13455
442291,2531
442299,10929
443,29930
44311,22027
443111,7206
443112,14830
44312,7112
44313,796
444,58362
4441,42539
44411,2366
44412,2352
44413,11585
44419,26317
4442,15849
44421,3877
44422,11979
44-45,678734
445,113199
4451,63302
44511,38624
44512,24705
4452,23330
44521,5449
44522,2027
44523,3103
44529,12755
445291,3579
445292,2218
445299,6960
4453,26620
446,42488
44611,17658
44612,6946
44613,5282
44619,12658
446191,5396
446199,7263
447,62267
44711,47635
44719,14790
448,65927
4481,40631
44811,4526
44812,12710
44813,2916
44814,7827
44815,3978
44819,8820
4482,6548
4483,18817
44831,18147
44832,670
451,40495
4511,31552
45111,18071
45112,5796
45113,4065
45114,3620
4512,8947
45121,6298
451211,5059
451212,1244
45122,2653
452,10226
4521,372
452111,118
452112,255
4529,9859
45291,49
45299,9811
453,96263
4531,18914
4532,28418
45321,5198
45322,23235
4533,12843
4539,36153
45391,5880
45392,6231
45393,2742
45399,21305
453991,4844
453998,16462
454,37689
4541,14343
454111,8384
454112,381
454113,5579
4542,4472
4543,18880
45431,5122
454311,2925
454312,1959
454319,242
45439,13759
481,2482
4811,407
481111,188
481112,219
4812,2076
481211,1377
481212,256
481219,443
483,1222
4831,699
483111,186
483112,68
483113,314
483114,132
4832,523
483211,294
483212,230
484,103273
4841,56475
48411,26347
48412,30150
484121,27025
484122,3131
4842,46828
48421,7374
48422,30242
48423,9226
48-49,166322
485,15131
4851,542
485111,52
485112,12
485113,442
485119,36
4852,204
4853,7285
48531,2902
48532,4383
4854,2978
4855,1090
4859,3062
485991,2026
485999,1037
486,128
4861,27
4862,63
4869,38
48691,29
48699,9
487,2631
4871,624
4872,1821
4879,186
488,28827
4881,3761
48811,870
488111,20
488119,850
48819,2896
4882,437
4883,1607
48831,126
48832,241
48833,659
48839,583
4884,9243
48841,8045
48849,1198
4885,12284
4889,1503
488991,1277
488999,226
492,7899
4921,3650
4922,4253
493,4920
49311,3359
49312,509
49313,277
49319,789
51,71120
511,21094
5111,15789
51111,5217
51112,5646
51113,2791
51114,998
51119,1156
511191,97
511199,1059
5112,5307
512,20715
5121,17232
51211,12458
51212,367
51213,2149
512131,1913
512132,256
51219,2261
512191,1952
512199,310
5122,3485
51221,383
51222,327
51223,664
51224,1717
51229,395
515,4696
5151,4381
51511,3563
515111,535
515112,3038
51512,826
5152,315
516,2222
517,8675
5171,1669
5172,1570
517211,256
517212,1317
5173,2890
5174,502
5175,867
5179,1205
518,10483
5181,3561
518111,2959
518112,602
5182,6928
519,3292
51911,387
51912,2141
51919,764
52,252684
521,43
522,60269
5221,10876
52211,3718
52212,547
52213,6555
52219,72
5222,22104
52221,150
52222,2164
52229,19797
522291,4495
522292,9862
522293,237
522294,187
522298,5029
5223,27413
52231,20308
52232,2017
52239,5098
523,54679
5231,12182
52311,2756
52312,7273
52313,949
52314,1214
5232,110
5239,42432
52391,5975
52392,11740
52393,22134
52399,2615
523991,1751
523999,864
524,135899
5241,6360
52411,1425
524113,791
524114,634
52412,4758
524126,2062
524127,2286
524128,410
52413,180
5242,129569
52421,120829
52429,8781
524291,3515
524292,3060
524298,2220
525,1971
52591,221
52593,754
52599,996
53,295467
531,266185
5311,93879
53111,49060
53112,27045
53113,9368
53119,8558
5312,99797
5313,72890
53131,40836
531311,27558
531312,13308
53132,16045
53139,16041
532,27146
5321,4355
53211,2591
532111,2079
532112,515
53212,1767
5322,11891
53221,717
53222,961
53223,4927
53229,5301
532291,733
532292,1707
532299,2864
5323,3149
5324,7863
53241,3108
532411,652
532412,2456
53242,650
53249,4114
533,2153
54,771379
5411,179116
54111,166567
54119,12568
541191,9824
541199,2744
5412,106927
541211,53521
541213,15221
541214,3654
541219,34574
5413,97695
54131,23639
54132,6384
54133,44094
54134,3072
54135,5730
54136,960
54137,9209
54138,4700
5414,34148
54141,13582
54142,1840
54143,16650
54149,2077
5415,101187
541511,47540
541512,40848
541513,2983
541519,9865
5416,140447
54161,108041
541611,57612
541612,13281
541613,24554
541614,6058
541618,6554
54162,8039
54169,24393
5417,12291
54171,10110
54172,2184
5418,35757
54181,12777
54182,7112
54183,768
54184,1866
54185,2038
54186,2800
54187,714
54189,7701
5419,64039
54191,4403
54192,13652
541921,9616
541922,4038
54193,1900
54194,26503
54199,17581
55,11502
551111,438
551112,4460
551114,6632
56,319795
561,303496
5611,25242
5612,1293
5613,22388
56131,7551
56132,11013
56133,3870
5614,28715
56141,4806
56142,3559
561421,1525
561422,2034
56143,8348
561431,5379
561439,2969
56144,4157
56145,593
56149,7272
561491,863
561492,3245
561499,3164
5615,16631
56151,11621
56152,2539
56159,2495
561591,967
561599,1528
5616,19234
56161,10218
561611,4700
561612,5404
561613,122
56162,9020
561621,5245
561622,3776
5617,172045
56171,10553
56172,49867
56173,91118
56174,8678
56179,11855
5619,18041
56191,1723
56192,3909
56199,12410
562,16306
5621,7341
562111,6099
562112,332
562119,910
5622,1399
562211,369
562212,775
562213,65
562219,192
5629,7585
56291,2666
56292,782
56299,4139
562991,3294
562998,847
61,73516
6111,17089
6112,318
6113,1301
6114,6785
61141,326
61142,1834
61143,4628
6115,6426
611511,1394
611512,794
611513,1120
611519,3121
6116,35752
61161,10816
61162,11919
61163,1116
61169,11910
611691,5844
611692,2225
611699,3842
6117,5897
62,599920
621,459544
6211,187117
621111,176510
621112,10618
6212,120434
6213,112219
62131,37383
62132,18399
62133,15053
62134,21275
62139,20125
621391,8141
621399,11984
6214,12496
62141,1299
62142,3711
62149,7532
621491,118
621492,396
621493,2961
621498,4062
6215,6910
621511,2361
621512,4550
6216,15275
6219,5519
62191,2941
62199,2578
621991,236
621999,2344
622,1072
6221,609
6222,151
6223,313
623,30680
6231,6453
6232,7378
62321,4764
62322,2693
6233,13858
623311,2612
623312,11259
6239,3243
624,110056
6241,39210
62411,6887
62412,13914
62419,18727
6242,8788
62421,2553
62422,5603
624221,2716
624229,2975
62423,692
6243,3859
6244,59305
71,114235
711,42487
7111,9018
71111,3285
71112,685
71113,4501
71119,549
7112,4184
711211,639
711212,574
711219,2972
7113,5830
71131,2226
71132,3604
7114,3575
7115,19897
712,6543
71211,4534
71212,945
71213,511
71219,585
713,65228
7131,2508
71311,497
71312,2013
7132,1788
71321,224
71329,1565
7139,60953
71391,10652
71392,326
71393,3868
71394,27485
71395,3872
71399,14803
72,471825
721,51704
7211,42886
72111,38327
72112,80
72119,4495
721191,3423
721199,1072
7212,6733
721211,4094
721214,2640
7213,2106
722,420292
7221,187532
7222,172366
722211,132342
722212,5256
722213,34884
7223,14912
72231,2261
72232,10475
72233,2193
7224,46171
81,670378
811,206381
8111,151761
81111,90785
811111,76481
811112,2928
811113,6074
811118,5365
81112,39379
811121,34364
811122,5023
81119,21663
811191,4955
811192,13650
811198,3098
8112,11155
811211,2275
811212,4827
811213,1247
811219,2811
8113,21643
8114,21839
81141,6313
811411,2035
811412,4278
81142,4781
81143,1059
81149,9687
812,172299
8121,96775
81211,81047
812111,3779
812112,64986
812113,12298
81219,15736
812191,1282
812199,14455
8122,15748
81221,11636
81222,4195
8123,34016
81231,9929
81232,23117
81233,1105
812331,669
812332,439
8129,25769
81291,11307
81292,1809
812921,1022
812922,796
81293,2468
81299,10187
813,291754
8131,178658
8132,12873
813211,7756
813212,2381
813219,2739
8133,12764
813311,2282
813312,4829
813319,5663
8134,27181
8139,60341
81391,16109
81392,6027
81393,14767
81394,2283
81399,21164
