1131,379
1132,165
1133,9631
114111,1071
114112,924
114119,12
1142,323
115111,252
115112,1950
115113,297
115114,698
115115,413
115116,481
1152,4265
1153,1640
211111,5713
211112,79
212111,264
212112,167
212113,58
21221,16
212221,111
212222,5
212231,5
212234,17
212291,22
212299,25
212311,396
212312,416
212313,86
212319,331
212321,1502
212322,79
212324,9
212325,55
212391,4
212392,4
212393,26
212399,161
213111,1832
213112,6678
213113,238
213114,105
213115,229
221111,97
221112,61
221113,5
221119,155
221121,28
221122,363
2212,316
22131,3501
22132,346
22133,36
236115,60225
236116,3872
236117,30870
236118,98949
23621,3481
23622,35473
23711,12616
23712,1371
23713,4679
2372,12361
2373,9009
2379,4794
23811,25476
23812,3350
23813,17068
23814,26566
23815,5337
23816,18789
23817,10338
23819,5573
23821,77055
23822,96982
23829,5605
23831,21036
23832,41138
23833,16583
23834,11846
23835,33818
23839,6970
23891,40110
23899,34730
311111,158
311119,714
311211,116
311212,31
311213,7
311221,20
311222,40
311223,17
311225,36
31123,18
311311,10
311312,7
311313,1
31132,131
31133,933
31134,377
311411,69
311412,241
311421,405
311422,76
311423,75
311511,140
311512,14
311513,202
311514,61
31152,298
311611,1367
311612,929
311613,77
311615,192
311711,92
311712,345
311811,6160
311812,1914
311813,149
311821,251
311822,140
311823,133
31183,307
311911,104
311919,214
31192,303
31193,99
311941,210
311942,202
311991,533
311999,522
312111,138
312112,88
312113,367
31212,317
31213,1892
31214,60
31221,1
312221,10
312229,33
313111,116
313112,48
313113,60
31321,332
313221,151
313222,87
31323,107
313241,78
313249,133
313311,574
313312,403
31332,114
31411,219
314121,1577
314129,487
314911,227
314912,1450
314991,120
314992,8
314999,2002
315111,43
315119,139
315191,187
315192,20
315211,1125
315212,4990
315221,12
315222,157
315223,146
315224,42
315225,79
315228,130
315231,80
315232,185
315233,382
315234,118
315239,434
315291,39
315292,142
315299,333
3159,845
315991,185
315992,48
315993,53
315999,559
3161,207
316211,48
316212,2
316213,78
316214,56
316219,63
3169,775
316991,172
316992,122
316993,119
316999,362
321113,2889
321114,295
321211,196
321212,41
321213,93
321214,749
321219,95
321911,1078
321912,816
321918,1888
32192,2506
321991,142
321992,596
321999,1614
32211,10
322121,75
322122,3
32213,20
322211,550
322212,161
322213,65
322214,105
322215,13
322221,66
322222,282
322223,26
322224,31
322225,9
322226,24
322231,164
322232,105
322233,89
322291,49
322299,346
323110,10729
323111,247
323112,676
323113,4520
323114,6761
323115,1692
323116,413
323117,428
323118,166
323119,2160
323121,975
323122,1344
32411,155
324121,246
324122,72
324191,186
324199,38
32511,15
32512,62
325131,40
325132,58
325181,18
325182,2
325188,202
325191,27
325192,9
325193,91
325199,286
325211,331
325212,80
325221,10
325222,42
325311,94
325312,14
325314,249
32532,125
325411,245
325412,514
325413,128
325414,145
32551,888
32552,297
325611,466
325612,417
325613,75
32562,570
32591,182
32592,22
325991,335
325992,326
325998,803
326111,206
326112,109
326113,355
326121,356
326122,176
32613,208
32614,286
32615,329
32616,99
326191,416
326192,30
326199,4694
326211,49
326212,285
32622,127
326291,321
326299,483
327111,18
327112,678
327113,79
327121,59
327122,154
327123,41
327124,71
327125,56
327211,45
327212,433
327213,19
327215,1110
32731,75
32732,1839
327331,446
327332,124
32739,1703
32741,22
32742,153
32791,231
327991,1939
327992,99
327993,140
327999,289
331111,582
331112,5
33121,102
331221,89
331222,121
331311,4
331312,35
331314,47
331315,54
331316,56
331319,53
331411,2
331419,98
331421,41
331422,46
331423,10
331491,173
331492,111
331511,285
331512,68
331513,132
331521,139
331522,129
331524,343
331525,202
331528,97
332111,250
332112,29
332114,226
332115,37
332116,1161
332117,76
332211,123
332212,924
332213,111
332214,38
332311,593
332312,2727
332313,940
332321,897
332322,3442
332323,2394
33241,160
33242,435
332431,45
332439,280
3325,555
332611,84
332612,230
332618,870
33271,20749
332721,2166
332722,595
332811,497
332812,2185
332813,2461
332911,261
332912,198
332913,94
332919,148
332991,61
332992,83
332993,20
332994,186
332995,64
332996,560
332997,412
332998,59
332999,2736
333111,944
333112,99
33312,497
333131,177
333132,398
33321,245
33322,413
333291,194
333292,290
333293,333
333294,379
333295,134
333298,1029
333311,64
333312,30
333313,69
333314,353
333315,194
333319,1009
333411,241
333412,85
333414,295
333415,495
333511,1806
333512,472
333513,227
333514,2903
333515,1351
333516,45
333518,275
333611,86
333612,147
333613,126
333618,181
333911,301
333912,190
333913,20
333921,134
333922,561
333923,201
333924,283
333991,112
333992,217
333993,449
333994,261
333995,205
333996,99
333997,74
333999,1330
334111,351
334112,83
334113,41
334119,518
33421,212
33422,632
33429,362
3343,426
334411,48
334412,567
334413,606
334414,47
334415,35
334416,244
334417,171
334418,586
334419,990
334510,363
334511,370
334512,251
334513,742
334514,163
334515,550
334516,424
334517,122
334518,85
334519,613
334611,184
334612,394
334613,117
33511,59
335121,374
335122,280
335129,218
335211,72
335212,26
335221,82
335222,8
335224,9
335228,21
335311,176
335312,338
335313,353
335314,794
335911,54
335912,31
335921,74
335929,123
335931,301
335932,80
335991,86
335999,628
336111,130
336112,41
33612,40
336211,575
336212,269
336213,40
336214,617
336311,78
336312,693
336321,59
336322,509
33633,136
33634,117
33635,316
33636,192
33637,310
336391,43
336399,832
336411,210
336412,201
336413,567
336414,5
336415,5
336419,25
3365,96
336611,445
336612,933
3369,880
336991,425
336992,28
336999,427
33711,9645
337121,1227
337122,3375
337124,293
337125,252
337127,528
337129,270
337211,415
337212,1453
337214,198
337215,1389
33791,376
33792,395
339111,271
339112,883
339113,1444
339114,687
339115,456
339116,6927
339911,1634
339912,133
339913,211
339914,547
33992,1706
339931,90
339932,626
339941,60
339942,114
339943,389
339944,45
33995,6206
339991,423
339992,578
339993,146
339994,179
339995,127
339999,4018
42311,3890
42312,8073
42313,1023
42314,1900
42321,4189
42322,5270
42331,4972
42332,2719
42333,879
42339,2037
42341,676
42342,2844
42343,6950
42344,3547
42345,6455
42346,1005
42349,1809
42351,5170
42352,262
42361,6511
42362,1864
42369,8283
42371,4197
42372,2564
42373,2040
42374,637
42381,2446
42382,5302
42383,17853
42384,5839
42385,3514
42386,1964
42391,4168
42392,2036
42393,5189
42394,7069
42399,9301
42411,698
42412,4411
42413,2853
4242,5189
42431,2964
42432,2878
42433,5973
42434,1320
42441,2460
42442,1805
42443,1203
42444,345
42445,1804
42446,1952
42447,1861
42448,3419
42449,7468
42451,1346
42452,624
42459,625
42461,1743
42469,5097
42471,1232
42472,1304
42481,957
42482,1213
42491,3988
42492,1838
42493,3503
42494,717
42495,1046
42499,11616
42511,1104
42512,45973
44111,7943
44112,24417
44121,2255
441221,5021
441222,4381
441229,2169
44131,21177
44132,10769
4421,19435
44221,12463
442291,2531
442299,10929
443111,7206
443112,14830
44312,7112
44313,796
44411,2366
44412,2352
44413,11585
44419,26317
44421,3877
44422,11979
44511,38624
44512,24705
44521,5449
44522,2027
44523,3103
445291,3579
445292,2218
445299,6960
4453,26620
44611,17658
44612,6946
44613,5282
446191,5396
446199,7263
44711,47635
44719,14790
44811,4526
44812,12710
44813,2916
44814,7827
44815,3978
44819,8820
4482,6548
44831,18147
44832,670
45111,18071
45112,5796
45113,4065
45114,3620
451211,5059
451212,1244
45122,2653
452111,118
452112,255
45291,49
45299,9811
4531,18914
45321,5198
45322,23235
4533,12843
45391,5880
45392,6231
45393,2742
453991,4844
453998,16462
454111,8384
454112,381
454113,5579
4542,4472
454311,2925
454312,1959
454319,242
45439,13759
481111,188
481112,219
481211,1377
481212,256
481219,443
483111,186
483112,68
483113,314
483114,132
483211,294
483212,230
48411,26347
484121,27025
484122,3131
48421,7374
48422,30242
48423,9226
485111,52
485112,12
485113,442
485119,36
4852,204
48531,2902
48532,4383
4854,2978
4855,1090
4859,3062
485991,2026
485999,1037
4861,27
4862,63
48691,29
48699,9
4871,624
4872,1821
4879,186
488111,20
488119,850
48819,2896
4882,437
48831,126
48832,241
48833,659
48839,583
48841,8045
48849,1198
4885,12284
4889,1503
488991,1277
488999,226
4921,3650
4922,4253
49311,3359
49312,509
49313,277
49319,789
51111,5217
51112,5646
51113,2791
51114,998
511191,97
511199,1059
5112,5307
51211,12458
51212,367
512131,1913
512132,256
512191,1952
512199,310
51221,383
51222,327
51223,664
51224,1717
51229,395
515111,535
515112,3038
51512,826
5152,315
5171,1669
517211,256
517212,1317
5173,2890
5174,502
5175,867
5179,1205
518111,2959
518112,602
5182,6928
51911,387
51912,2141
51919,764
521,43
52211,3718
52212,547
52213,6555
52219,72
52221,150
52222,2164
522291,4495
522292,9862
522293,237
522294,187
522298,5029
52231,20308
52232,2017
52239,5098
52311,2756
52312,7273
52313,949
52314,1214
5232,110
52391,5975
52392,11740
52393,22134
523991,1751
523999,864
524113,791
524114,634
524126,2062
524127,2286
524128,410
52413,180
52421,120829
524291,3515
524292,3060
524298,2220
52591,221
52593,754
52599,996
53111,49060
53112,27045
53113,9368
53119,8558
5312,99797
531311,27558
531312,13308
53132,16045
53139,16041
532111,2079
532112,515
53212,1767
53221,717
53222,961
53223,4927
532291,733
532292,1707
532299,2864
5323,3149
532411,652
532412,2456
53242,650
53249,4114
54111,166567
541191,9824
541199,2744
541211,53521
541213,15221
541214,3654
541219,34574
54131,23639
54132,6384
54133,44094
54134,3072
54135,5730
54136,960
54137,9209
54138,4700
54141,13582
54142,1840
54143,16650
54149,2077
541511,47540
541512,40848
541513,2983
541519,9865
541611,57612
541612,13281
541613,24554
541614,6058
541618,6554
54162,8039
54169,24393
54171,10110
54172,2184
54181,12777
54182,7112
54183,768
54184,1866
54185,2038
54186,2800
54187,714
54189,7701
54191,4403
541921,9616
541922,4038
54193,1900
54194,26503
54199,17581
551111,438
551112,4460
551114,6632
5611,25242
5612,1293
56131,7551
56132,11013
56133,3870
56141,4806
561421,1525
561422,2034
561431,5379
561439,2969
56144,4157
56145,593
561491,863
561492,3245
561499,3164
56151,11621
56152,2539
561591,967
561599,1528
561611,4700
561612,5404
561613,122
561621,5245
561622,3776
56171,10553
56172,49867
56173,91118
56174,8678
56179,11855
56191,1723
56192,3909
56199,12410
562111,6099
562112,332
562119,910
562211,369
562212,775
562213,65
562219,192
56291,2666
56292,782
562991,3294
562998,847
6111,17089
6112,318
6113,1301
61141,326
61142,1834
61143,4628
611511,1394
611512,794
611513,1120
611519,3121
61161,10816
61162,11919
61163,1116
611691,5844
611692,2225
611699,3842
6117,5897
621111,176510
621112,10618
6212,120434
62131,37383
62132,18399
62133,15053
62134,21275
621391,8141
621399,11984
62141,1299
62142,3711
621491,118
621492,396
621493,2961
621498,4062
621511,2361
621512,4550
6216,15275
62191,2941
621991,236
621999,2344
6221,609
6222,151
6223,313
6231,6453
62321,4764
62322,2693
623311,2612
623312,11259
6239,3243
62411,6887
62412,13914
62419,18727
62421,2553
624221,2716
624229,2975
62423,692
6243,3859
6244,59305
71111,3285
71112,685
71113,4501
71119,549
711211,639
711212,574
711219,2972
71131,2226
71132,3604
7114,3575
7115,19897
71211,4534
71212,945
71213,511
71219,585
71311,497
71312,2013
71321,224
71329,1565
71391,10652
71392,326
71393,3868
71394,27485
71395,3872
71399,14803
72111,38327
72112,80
721191,3423
721199,1072
721211,4094
721214,2640
7213,2106
7221,187532
722211,132342
722212,5256
722213,34884
72231,2261
72232,10475
72233,2193
7224,46171
811111,76481
811112,2928
811113,6074
811118,5365
811121,34364
811122,5023
811191,4955
811192,13650
811198,3098
811211,2275
811212,4827
811213,1247
811219,2811
8113,21643
811411,2035
811412,4278
81142,4781
81143,1059
81149,9687
812111,3779
812112,64986
812113,12298
812191,1282
812199,14455
81221,11636
81222,4195
81231,9929
81232,23117
812331,669
812332,439
81291,11307
812921,1022
812922,796
81293,2468
81299,10187
8131,178658
813211,7756
813212,2381
813219,2739
813311,2282
813312,4829
813319,5663
8134,27181
81391,16109
81392,6027
81393,14767
81394,2283
81399,21164
