56,645923582
61,284266566
62,1679316938
81,577222666
21,395569430
48,575071440
49,119156281
44,2928145710
45,1037958417
42,5986216929
72,610475522
71,196051945
11,28494852
22,573769194
55,508012222
32,2025338512
31,822711948
23,1711273328
51,1060676927
53,461625480
52,3703772810
33,2444185115
54,1369803351
