113,2561786
1131,68536
1132,37916
1133,2455334
114,488606
1141,426337
114111,252730
114112,171120
114119,138
1142,62269
115,2048363
1151,879310
115111,38280
115112,485423
115113,70673
115114,118095
115115,81655
115116,85184
1152,843157
1153,325896
21,4236853
211,1761209
211111,1755392
211112,3877
212,838219
2121,121536
212111,75236
212112,32270
212113,9493
2122,53182
21221,2614
21222,31398
212221,29506
212222,1217
21223,9545
212231,0
212234,7103
21229,7754
212291,3703
212299,4051
2123,662444
21231,256025
212311,86272
212312,75549
212313,35447
212319,58612
21232,369536
212321,335195
212322,20364
212324,0
212325,12771
21239,35677
212391,0
212392,0
212393,5488
212399,28364
213,1637425
213111,300863
213112,1244206
213113,36649
213114,10001
213115,37981
22,1003562
2211,86493
22111,51361
221111,10787
221112,7317
221113,0
221119,25339
22112,35132
221121,3991
221122,30927
2212,55085
2213,861984
22131,775480
22132,77135
22133,9246
23,176775989
236,52731446
2361,45134891
236115,14885606
236116,848675
236117,6858617
236118,22541993
2362,7596555
23621,741462
23622,6855093
237,9775055
2371,4191330
23711,2951320
23712,242171
23713,997839
2372,2738105
2373,1765961
2379,1079659
238,114269488
2381,25868982
23811,6351333
23812,664990
23813,3882374
23814,5788787
23815,1289890
23816,4295152
23817,2336434
23819,1260022
2382,43490117
23821,18250260
23822,24009332
23829,1230525
2383,27377898
23831,4431423
23832,8319407
23833,3395316
23834,2383498
23835,7271787
23839,1576467
2389,17532491
23891,9554457
23899,7978034
311,3817863
3111,166647
311111,31972
311119,134675
3112,15312
31121,7402
311211,5648
311212,0
311213,0
31122,6116
311221,177
311222,843
311223,0
311225,0
31123,0
3113,337407
31131,4641
311311,3575
311312,1066
311313,0
31132,22744
31133,232279
31134,77650
3114,143938
31141,48273
311411,7769
311412,40504
31142,95665
311421,65442
311422,19289
311423,10348
3115,107901
31151,48328
311511,22264
311512,0
311513,11714
311514,9103
31152,59573
3116,515672
311611,294590
311612,175164
311613,12135
311615,33658
3117,89990
311711,25609
311712,64381
3118,2057349
31181,1890323
311811,1480200
311812,390723
311813,19400
31182,103185
311821,47163
311822,21276
311823,34746
31183,63841
3119,383647
31191,25324
311911,11110
311919,14167
31192,70317
31193,13108
31194,63459
311941,31052
311942,31854
31199,210999
311991,118490
311999,92509
312,599413
3121,598542
31211,167485
312111,2400
312112,68232
312113,93070
31212,15147
31213,403846
31214,11959
3122,0
31221,0
31222,0
312221,0
312229,0
313,464900
3131,39684
313111,21325
313112,4139
313113,13256
3132,169870
31321,67251
31322,42147
313221,25822
313222,16248
31323,19506
31324,40865
313241,12012
313249,28853
3133,255239
31-33,51500464
31331,235938
313311,147775
313312,88163
31332,19301
314,1290127
3141,465474
31411,40853
31412,424621
314121,328839
314129,95782
3149,824653
31491,406129
314911,45851
314912,360278
31499,418524
314991,24917
314992,951
314999,392090
315,2195951
3151,84671
31511,38502
315111,11006
315119,27492
31519,46169
315191,42936
315192,1469
3152,1947839
31521,1485157
315211,214496
315212,1270661
31522,108645
315221,1445
315222,32551
315223,26832
315224,2363
315225,6989
315228,26547
31523,255036
315231,17411
315232,29097
315233,86376
315234,27320
315239,94696
31529,99001
315291,6703
315292,36629
315299,55669
3159,163441
315991,33674
315992,12530
315993,11222
315999,106015
316,266335
3161,53018
3162,60167
316211,14582
316212,0
316213,7739
316214,10988
316219,17453
3169,153150
316991,40119
316992,19817
316993,24978
316999,68236
321,2613385
3211,680370
321113,624727
321114,55643
3212,205025
321211,36861
321212,8911
321213,15080
321214,136747
321219,5863
3219,1727990
32191,764834
321911,217301
321912,148899
321918,398634
32192,485579
32199,477577
321991,25663
321992,136380
321999,315531
322,338645
3221,6115
32211,0
32212,4244
322121,4244
322122,0
32213,2126
3222,317161
32221,109523
322211,66238
322212,17812
322213,9431
322214,14921
322215,0
32222,83141
322221,12165
322222,54681
322223,5574
322224,3767
322225,0
322226,4874
32223,58878
322231,35348
322232,10166
322233,13364
32229,65293
322291,7371
322299,57445
323,6564124
32311,6119411
323110,2277657
323111,63957
323112,101534
323113,1044804
323114,1649424
323115,342062
323116,78602
323117,88213
323118,29836
323119,443014
32312,444713
323121,199242
323122,245471
324,131106
32411,40475
32412,50819
324121,38422
324122,1515
32419,39795
324191,33325
324199,5822
325,1036945
3251,106352
32511,0
32512,7172
32513,13043
325131,4051
325132,8796
32518,23086
325181,0
325182,0
325188,22205
32519,59950
325191,1968
325192,0
325193,7871
325199,45378
3252,64805
32521,55065
325211,38700
325212,16365
32522,7782
325221,0
325222,6981
3253,72459
32531,45369
325311,0
325312,0
325314,37941
32532,27090
3254,153284
325411,43772
325412,82882
325413,12889
325414,13227
3255,211833
32551,155310
32552,56508
3256,126528
32561,111805
325611,129
325612,98844
325613,9600
32562,14511
3259,301684
32591,35274
32592,0
32599,264249
325991,56086
325992,71516
325998,136647
326,1551551
3261,1300002
32611,97093
326111,34312
326112,11201
326113,48643
32612,110979
326121,71997
326122,38982
32613,53860
32614,62744
32615,64865
32616,7800
32619,902125
326191,88431
326192,4007
326199,808060
3262,251549
32621,76511
326211,9608
326212,66903
32622,18786
32629,156189
326291,62478
326299,93711
327,1803148
3271,175871
32711,104666
327111,5699
327112,84617
327113,14350
32712,71054
327121,9990
327122,33516
327123,7501
327124,9768
327125,10279
3272,344429
327211,11355
327212,91086
327213,3855
327215,237913
3273,718867
32731,9956
32732,295953
32733,75783
327331,65998
327332,9785
32739,337161
3274,29333
32741,4435
32742,24898
3279,534523
32791,33276
32799,501221
327991,404857
327992,15178
327993,23866
327999,57320
331,564155
3311,128277
331111,128209
331112,0
3312,60638
33121,16633
33122,43914
331221,16856
331222,26052
3313,41613
331311,1276
331312,11430
331314,0
331315,5143
331316,5521
331319,1948
3314,79689
33141,20741
331411,0
331419,20741
33142,1946
331421,0
331422,0
331423,0
33149,51278
331491,27542
331492,23736
3315,253938
33151,69553
331511,45514
331512,5011
331513,19028
33152,184344
331521,24100
331522,20998
331524,73602
331525,47994
331528,17650
332,10169967
3321,306481
332111,45208
332112,2362
332114,39099
332115,7505
332116,198334
332117,12102
3322,238194
332211,21482
332212,186220
332213,22132
332214,6429
3323,2229636
33231,824419
332311,126003
332312,527133
332313,171283
33232,1405217
332321,158886
332322,722383
332323,523948
3324,152746
33241,21429
33242,62380
33243,68937
332431,9736
332439,59201
3325,104493
3326,235696
332611,14037
332612,33234
332618,188311
3327,4821062
33271,4331981
33272,489081
332721,383566
332722,105077
3328,1101531
332811,98583
332812,482982
332813,519951
3329,979686
33291,114473
332911,33692
332912,31876
332913,17989
332919,30680
33299,865213
332991,11995
332992,17626
332993,2502
332994,39046
332995,12211
332996,118121
332997,104645
332998,10117
332999,546276
333,3906567
3331,385680
33311,198660
333111,183356
333112,15304
33312,80132
33313,106888
333131,36568
333132,70303
3332,585455
33321,49174
33322,89730
33329,446365
333291,31408
333292,58212
333293,57764
333294,69715
333295,19854
333298,209290
3333,369980
333311,9621
333312,3633
333313,10891
333314,77984
333315,43641
333319,221958
3334,181691
333411,42206
333412,10431
333414,44626
333415,84428
3335,1463359
333511,383352
333512,87716
333513,45705
333514,596758
333515,291928
333516,4038
333518,53862
3336,82295
333611,15398
333612,21325
333613,13941
333618,26054
3339,837880
33391,81762
333911,42179
333912,33018
333913,6565
33392,201835
333921,28473
333922,90350
333923,35404
333924,47608
33399,554243
333991,15682
333992,39499
333993,87254
333994,41995
333995,38875
333996,20093
333997,13295
333999,297284
334,1838134
3341,185186
334111,64736
334112,18965
334113,4427
334119,97036
3342,215728
33421,34219
33422,106524
33429,74892
3343,16533
3344,581057
334411,4044
334412,110571
334413,103216
334414,9828
334415,3453
334416,50395
334417,19963
334418,91873
334419,185251
3345,675328
334510,63402
334511,53506
334512,47023
334513,148605
334514,27974
334515,106044
334516,75168
334517,19800
334518,19511
334519,114750
3346,161957
334611,39596
334612,98830
334613,23496
335,763928
3351,180749
33511,14922
33512,165827
335121,80693
335122,46206
335129,38833
3352,43531
33521,20791
335211,15360
335212,5431
33522,20312
335221,13997
335222,0
335224,0
335228,4528
3353,317983
335311,25192
335312,58392
335313,74811
335314,159378
3359,220817
33591,20287
335911,14200
335912,2433
33592,19885
335921,10426
335929,9459
33593,62727
335931,46344
335932,16383
33599,117838
335991,17417
335999,100345
336,1579150
3361,9240
33611,7330
336111,4570
336112,2760
33612,1910
3362,274129
336211,103315
336212,42245
336213,4178
336214,124242
3363,630988
33631,191039
336311,14660
336312,176357
33632,108963
336321,9419
336322,99544
33633,28512
33634,17514
33635,70448
33636,30008
33637,31374
33639,152780
336391,4281
336399,148499
3364,166820
336411,42730
336412,33736
336413,85262
336414,0
336415,0
336419,1701
3365,10032
3366,294057
336611,84139
336612,209857
3369,191901
336991,95207
336992,0
336999,94183
337,4331104
3371,3489412
33711,2148933
33712,1340479
337121,298678
337122,768406
337124,63804
337125,42303
337127,107391
337129,59529
3372,698481
337211,98476
337212,273648
337214,46092
337215,280183
3379,142867
33791,63426
33792,79441
339,5673966
3391,2229243
339111,48245
339112,166214
339113,323992
339114,206709
339115,112363
339116,1371156
3399,3444723
33991,499681
339911,335282
339912,26395
339913,43830
339914,94025
33992,370157
33993,157899
339931,17806
339932,139947
33994,124168
339941,8296
339942,23887
339943,82520
339944,9426
33995,1236483
33999,1056335
339991,59823
339992,103169
339993,25570
339994,28310
339995,27737
339999,811638
42,56935824
423,30480112
4231,3083385
42311,649421
42312,1740110
42313,190950
42314,502904
4232,1892009
42321,831547
42322,1060462
4233,1936713
42331,858386
42332,528497
42333,156747
42339,393083
4234,4872147
42341,136621
42342,570096
42343,1430497
42344,758214
42345,1384353
42346,240295
42349,352071
4235,905735
42351,848181
42352,57554
4236,3247362
42361,1261266
42362,347078
42369,1639018
4237,1805979
42371,832919
42372,465586
42373,374218
42374,133256
4238,6985353
42381,417875
42382,905638
42383,3404206
42384,1137206
42385,768493
42386,351935
4239,5751429
42391,830224
42392,427447
42393,973866
42394,1511263
42399,2008629
424,17225767
4241,1700187
42411,162229
42412,1011435
42413,526523
4242,1036241
4243,2819361
42431,649739
42432,608714
42433,1305846
42434,255062
4244,4335344
42441,484295
42442,296016
42443,250264
42444,53820
42445,375524
42446,358140
42447,331569
42448,571026
42449,1614690
4245,423511
42451,170104
42452,115511
42459,137896
4246,1369634
42461,307230
42469,1062404
4247,349260
42471,128578
42472,220682
4248,376881
42481,153535
42482,217163
4249,4815348
42491,781667
42492,374961
42493,773399
42494,112328
42495,195594
42499,2577399
425,9229945
42511,236323
42512,8993622
441,17729576
4411,6341102
44111,927313
44112,5413789
4412,2537697
44121,382673
44122,2155024
441221,849241
441222,850215
441229,455568
4413,8850777
44131,5953871
44132,2896906
442,11410941
4421,4870034
4422,6540907
44221,3138958
44229,3401949
442291,668097
442299,2733852
443,7350675
44311,5442578
443111,1842140
443112,3600438
44312,1710813
44313,197284
444,13741887
4441,9837434
44411,275527
44412,665443
44413,3052944
44419,5707304
4442,3904453
44421,1036285
44422,2868168
44-45,159880680
445,30000053
4451,16103936
44511,8996409
44512,7107527
4452,5623248
44521,1531383
44522,518857
44523,787657
44529,2785351
445291,760811
445292,465607
445299,1558933
4453,8272869
446,8396057
44611,1838378
44612,1688316
44613,1502072
44619,3332501
446191,1407385
446199,1925116
447,11006778
44711,8338680
44719,2668098
448,17203227
4481,10505901
44811,1199395
44812,3298294
44813,661018
44814,2034430
44815,839012
44819,2279692
4482,1749468
4483,4947858
44831,4783407
44832,164451
451,10307039
4511,8231445
45111,4927461
45112,1420132
45113,915088
45114,968764
4512,2075594
45121,1483804
451211,1185458
451212,298346
45122,591790
452,2415702
4521,41802
452111,25285
452112,0
4529,2328958
45291,11032
45299,2317635
453,22340903
4531,4311143
4532,6532375
45321,1222094
45322,5310281
4533,2568274
4539,8929111
45391,0
45392,1408559
45393,513429
45399,5330208
453991,1301812
453998,4028396
454,7977842
4541,3110756
454111,1868709
454112,77501
454113,1164546
4542,970135
4543,3896951
45431,808602
454311,431578
454312,323004
454319,54020
45439,3088349
481,518012
4811,77553
481111,34603
481112,41039
4812,440459
481211,292264
481212,52286
481219,95909
483,269393
4831,62666
483111,34840
483112,8633
483113,70800
483114,31810
4832,117498
483211,63932
483212,52052
484,20811529
4841,10807545
48411,5067830
48412,5739715
484121,5166112
484122,573603
4842,10003984
48421,1606159
48422,6493529
48423,1904296
48-49,33980710
485,2880590
4851,102465
485111,12623
485112,1094
485113,80574
485119,7369
4852,38129
4853,1322171
48531,475195
48532,846976
4854,589896
4855,210140
4859,617789
485991,416894
485999,200895
486,25162
4861,6629
4862,2990
4869,11395
48691,10583
48699,0
487,556009
4871,127190
4872,387801
4879,41018
488,6384591
4881,825011
48811,163651
488111,2553
488119,160024
48819,661360
4882,86592
4883,316948
48831,24051
48832,42757
48833,157621
48839,104998
4884,2131473
48841,1887613
48849,243860
4885,2684568
4889,326068
488991,284146
488999,41922
492,1564441
4921,720589
4922,843852
493,970507
49311,676170
49312,94302
49313,59796
49319,140239
51,14904699
511,4566785
5111,3526881
51111,1243405
51112,1281347
51113,543004
51114,217025
51119,242100
511191,16538
511199,225562
5112,1039904
512,4354395
5121,3660431
51211,2654680
51212,77529
51213,478079
512131,421409
512132,56670
51219,450143
512191,382585
512199,67558
5122,693964
51221,79148
51222,67785
51223,125455
51224,336628
51229,84948
515,1119699
5151,1050129
51511,905664
515111,118255
515112,787409
51512,144465
5152,69570
516,420815
517,1805049
5171,308297
5172,330335
517211,49707
517212,280628
5173,611939
5174,108220
5175,195349
5179,250909
518,2044530
5181,745047
518111,630204
518112,114843
5182,1299483
519,593426
51911,71903
51912,376302
51919,145221
52,55613799
521,6053
522,11984893
5221,1581704
52211,238849
52212,29385
52213,1299253
52219,5638
5222,4673126
52221,27754
52222,439520
52229,4186549
522291,966706
522292,1913431
522293,50729
522294,35335
522298,1216157
5223,5730063
52231,4183275
52232,408388
52239,1138400
523,11652605
5231,2847067
52311,551218
52312,1845617
52313,180003
52314,270229
5232,17208
5239,8788330
52391,1089804
52392,2543016
52393,4630442
52399,525068
523991,362741
523999,162327
524,31580159
5241,1356330
52411,271879
524113,146210
524114,125669
52412,1051355
524126,460388
524127,504438
524128,86529
52413,19200
5242,30223829
52421,28402126
52429,1821703
524291,730179
524292,619645
524298,449662
525,389843
52591,35305
52593,153888
52599,191514
53,62503775
531,56324007
5311,22832110
53111,12094954
53112,6172923
53113,2384869
53119,2179364
5312,19293592
5313,14198305
53131,8417968
531311,5653027
531312,2764941
53132,2853062
53139,2927275
532,5752978
5321,853340
53211,452450
532111,362994
532112,94900
53212,361889
5322,2412885
53221,183017
53222,203404
53223,827804
53229,1192199
532291,179302
532292,347982
532299,664915
5323,850413
5324,1636340
53241,636871
532411,138487
532412,498384
53242,132174
53249,867295
533,407180
54,164060468
5411,42368875
54111,39643497
54119,2725378
541191,2226312
541199,499066
5412,21084109
541211,12724469
541213,2249704
541214,662938
541219,5446998
5413,21265121
54131,5664443
54132,1494450
54133,9212693
54134,554782
54135,832392
54136,220049
54137,2220248
54138,1066064
5414,7336230
54141,3197329
54142,373858
54143,3315926
54149,449117
5415,19130342
541511,8855903
541512,7982487
541513,588724
541519,1703228
5416,26826794
54161,20570211
541611,10744719
541612,2824529
541613,4625896
541614,1149098
541618,1119122
54162,1702827
54169,4553756
5417,2394019
54171,1943137
54172,450882
5418,7797658
54181,2558003
54182,1586395
54183,156695
54184,411296
54185,449298
54186,610682
54187,152355
54189,1872934
5419,15857320
54191,933848
54192,2621231
541921,1782157
541922,839074
54193,324850
54194,8612319
54199,3365072
55,712494
551111,45731
551112,601200
551114,65563
56,64607004
561,60766975
5611,4964922
5612,212321
5613,4010929
56131,1526327
56132,1858300
56133,626302
5614,6279387
56141,760858
56142,770475
561421,383630
561422,386845
56143,2269190
561431,1506285
561439,762905
56144,873203
56145,118546
56149,1487115
561491,233138
561492,609285
561499,644692
5615,3857818
56151,2694378
56152,605838
56159,557602
561591,217416
561599,340186
5616,4198368
56161,2029021
561611,887342
561612,1117073
561613,24606
56162,2169347
561621,1259058
561622,910289
5617,33364906
56171,2322596
56172,7943454
56173,18916957
56174,1697640
56179,2484259
5619,3878324
56191,357988
56192,773175
56199,2747161
562,3840029
5621,1730199
562111,1461261
562112,72612
562119,196326
5622,324471
562211,78092
562212,187695
562213,15133
562219,43451
5629,1785359
56291,566502
56292,155849
56299,1063008
562991,858594
562998,204414
61,13777010
6111,3002062
6112,38271
6113,208836
6114,1348813
61141,67570
61142,309415
61143,971828
6115,1432191
611511,365940
611512,155286
611513,264732
611519,646233
6116,6657195
61161,1994891
61162,2296495
61163,196088
61169,2169721
611691,1093182
611692,385968
611699,690571
6117,1089642
62,159460729
621,132151309
6211,54226199
621111,51747293
621112,2478906
6212,43621285
6213,26649988
62131,8704395
62132,5857734
62133,2411199
62134,5130756
62139,4545904
621391,2455616
621399,2090288
6214,2377066
62141,219439
62142,663838
62149,1493789
621491,25869
621492,72608
621493,527373
621498,866468
6215,1424574
621511,496483
621512,928091
6216,2639863
6219,1212334
62191,682570
62199,529764
621991,41666
621999,488098
622,52180
6221,13101
6222,28339
6223,53277
623,5370785
6231,515851
6232,1371652
62321,868884
62322,502768
6233,2817913
623311,480663
623312,2337250
6239,665369
624,21813098
6241,7369376
62411,1394416
62412,2559626
62419,3415334
6242,1958879
62421,461554
62422,1354503
624221,658329
624229,696174
62423,142822
6243,643035
6244,11841808
71,23759957
711,8976921
7111,1863958
71111,708239
71112,127246
71113,908900
71119,119573
7112,888436
711211,120362
711212,123321
711219,638252
7113,1280179
71131,496287
71132,783892
7114,796717
7115,4147631
712,1271964
71211,857503
71212,181615
71213,104100
71219,128746
713,13511072
7131,531963
71311,96973
71312,434990
7132,387637
71321,34867
71329,351962
7139,12591472
71391,2426515
71392,55440
71393,1010520
71394,4940210
71395,1090047
71399,3068740
72,116296442
721,12737717
7211,10655462
72111,9748441
72112,11876
72119,895145
721191,681566
721199,213579
7212,1551540
721211,972017
721214,579523
7213,530715
722,103558725
7221,48461404
7222,41507133
722211,32947021
722212,1337423
722213,7222689
7223,3078983
72231,456599
72232,2265599
72233,356785
7224,10511205
81,145553521
811,52446516
8111,40727322
81111,25583332
811111,21521646
811112,786075
811113,1869022
811118,1406589
81112,10048806
811121,8843118
811122,1205688
81119,5095184
811191,1499178
811192,2906300
811198,689706
8112,2355115
811211,481909
811212,970818
811213,260233
811219,642155
8113,5150871
8114,4213208
81141,1358972
811411,458792
811412,900180
81142,899401
81143,148539
81149,1806296
812,31160058
8121,14873202
81211,12442022
812111,388795
812112,10449101
812113,1604126
81219,2431180
812191,260882
812199,2170298
8122,4527978
81221,3830453
81222,697525
8123,7146027
81231,1783750
81232,5145950
81233,216327
812331,133805
812332,82522
8129,4612851
81291,1860175
81292,370543
812921,215640
812922,154903
81293,597528
81299,1784605
813,61946947
8131,38604070
8132,2784590
813211,1655438
813212,524655
813219,604497
8133,2837064
813311,520504
813312,1082830
813319,1233730
8134,5863869
8139,11857354
81391,3602771
81392,1349783
81393,2504612
81394,378478
81399,4021710
