1131,266383
1132,138761
1133,8360829
114111,541802
114112,339473
114119,138
1142,110546
115111,499410
115112,1667453
115113,284336
115114,1332190
115115,399286
115116,380836
1152,1518440
1153,928397
211111,7088787
211112,165277
212111,418165
212112,354074
212113,103533
21221,6990
212221,89110
212222,1217
212231,0
212234,7103
212291,8904
212299,4051
212311,378952
212312,869294
212313,64686
212319,532947
212321,1982431
212322,105998
212324,9998
212325,62647
212391,0
212392,0
212393,15091
212399,197118
213111,1992208
213112,7404759
213113,274240
213114,127861
213115,322002
221111,34363
221112,109758
221113,0
221119,260679
221121,11010
221122,1323565
2212,594240
22131,2126194
22132,312375
22133,42009
236115,56160969
236116,5287952
236117,41664243
236118,56023244
23621,5239659
23622,67283359
23711,18508386
23712,2588122
23713,6670922
2372,11895646
2373,17461797
2379,6272206
23811,24218404
23812,5262919
23813,9888991
23814,18439360
23815,6000471
23816,18748404
23817,5817384
23819,4086246
23821,64600726
23822,87205448
23829,7012236
23831,18799913
23832,18678745
23833,9601743
23834,6965893
23835,18245801
23839,5765541
23891,35263276
23899,27410946
311111,238183
311119,1553447
311211,222740
311212,61406
311213,0
311221,14909
311222,149743
311223,20644
311225,95221
31123,8646
311311,3575
311312,1066
311313,0
31132,154559
31133,759174
31134,342674
311411,181628
311412,560488
311421,749395
311422,116414
311423,180387
311511,361409
311512,8828
311513,639865
311514,177514
31152,443392
311611,1988229
311612,1660610
311613,207826
311615,437010
311711,109020
311712,782595
311811,3049666
311812,2312893
311813,369450
311821,343438
311822,291729
311823,177322
31183,380788
311911,236740
311919,661495
31192,454768
31193,287863
311941,377204
311942,418415
311991,832478
311999,1083154
312111,429007
312112,277053
312113,293418
31212,721851
31213,1941292
31214,51810
31221,0
312221,0
312229,84710
313111,195414
313112,107531
313113,46566
31321,480086
313221,243499
313222,55914
31323,288031
313241,107987
313249,223424
313311,827362
313312,435466
31332,258545
31411,417075
314121,771689
314129,619711
314911,343414
314912,1356890
314991,210916
314992,951
314999,1630067
315111,61649
315119,201759
315191,263649
315192,1469
315211,618807
315212,3471208
315221,1445
315222,150573
315223,139528
315224,2363
315225,134167
315228,130872
315231,100946
315232,336105
315233,454905
315234,194946
315239,723167
315291,18111
315292,89471
315299,307042
3159,688299
315991,169587
315992,65222
315993,46098
315999,380947
3161,201680
316211,27252
316212,0
316213,64002
316214,52372
316219,37137
3169,636653
316991,182557
316992,19817
316993,96956
316999,282174
321113,4550031
321114,575554
321211,462913
321212,47775
321213,121020
321214,1614795
321219,275137
321911,1842301
321912,1285038
321918,2435633
32192,3840045
321991,265955
321992,994621
321999,1946438
32211,0
322121,144997
322122,0
32213,15426
322211,1696302
322212,506755
322213,148828
322214,251932
322215,20622
322221,131535
322222,660860
322223,29672
322224,72692
322225,0
322226,22427
322231,324672
322232,292577
322233,110486
322291,113989
322299,791946
323110,13717714
323111,243883
323112,1405663
323113,3833931
323114,3647933
323115,1567378
323116,703478
323117,635466
323118,363763
323119,1632688
323121,1165328
323122,1126794
32411,214545
324121,724107
324122,177715
324191,460180
324199,79060
32511,0
32512,108604
325131,127952
325132,95939
325181,17212
325182,0
325188,571513
325191,24061
325192,19374
325193,288180
325199,757825
325211,1012170
325212,174272
325221,0
325222,60485
325311,283226
325312,23853
325314,545442
32532,142343
325411,456242
325412,1078253
325413,365502
325414,533029
32551,1826974
32552,730485
325611,1574589
325612,648926
325613,213706
32562,1645976
32591,355546
32592,27790
325991,766252
325992,317876
325998,1598404
326111,513849
326112,355815
326113,835598
326121,765978
326122,432455
32613,300791
32614,657069
32615,755278
32616,306508
326191,653623
326192,33804
326199,10006796
326211,52614
326212,388688
32622,273343
326291,681319
326299,1019287
327111,5699
327112,288497
327113,157460
327121,138104
327122,125572
327123,24016
327124,182141
327125,86935
327211,34558
327212,347415
327213,14757
327215,1244955
32731,223196
32732,5071434
327331,1156564
327332,373405
32739,2715782
32741,48694
32742,274077
32791,552846
327991,2467679
327992,209321
327993,318900
327999,552364
331111,1105003
331112,0
33121,300012
331221,219587
331222,217881
331311,1276
331312,27536
331314,147501
331315,133442
331316,176506
331319,63571
331411,0
331419,167081
331421,92374
331422,111595
331423,0
331491,405945
331492,193692
331511,726479
331512,268129
331513,286876
331521,338314
331522,281250
331524,583447
331525,323848
331528,148742
332111,435584
332112,62359
332114,600724
332115,76142
332116,2763427
332117,204342
332211,115425
332212,1332712
332213,141235
332214,37573
332311,1051249
332312,5818564
332313,1917388
332321,1799265
332322,6261061
332323,2758862
33241,492932
33242,1121681
332431,105271
332439,528174
3325,1022997
332611,156884
332612,510624
332618,1439864
33271,22898543
332721,4797892
332722,1468050
332811,1091290
332812,3392639
332813,3509528
332911,678373
332912,429765
332913,161902
332919,353253
332991,116867
332992,88417
332993,11505
332994,218302
332995,79093
332996,1186787
332997,400315
332998,78437
332999,4336003
333111,1607688
333112,206141
33312,1130816
333131,348521
333132,904236
33321,429642
33322,652915
333291,403632
333292,395940
333293,630863
333294,814352
333295,326178
333298,1740648
333311,88802
333312,30386
333313,117258
333314,592507
333315,295963
333319,1911266
333411,523802
333412,159651
333414,594462
333415,1119648
333511,2661210
333512,793339
333513,394900
333514,3807133
333515,1952673
333516,109375
333518,577498
333611,197537
333612,407102
333613,300758
333618,463606
333911,735634
333912,442285
333913,6565
333921,273443
333922,1356101
333923,445468
333924,598914
333991,164222
333992,454200
333993,911563
333994,579548
333995,442620
333996,216207
333997,139394
333999,2259255
334111,404842
334112,117038
334113,85342
334119,914790
33421,451900
33422,1305635
33429,580626
3343,1224346
334411,76520
334412,1129841
334413,1193088
334414,59465
334415,86084
334416,482984
334417,437140
334418,1404904
334419,2003937
334510,727638
334511,768859
334512,489759
334513,1279696
334514,338879
334515,931269
334516,654785
334517,195728
334518,129420
334519,1061731
334611,200928
334612,489361
334613,156651
33511,63918
335121,479537
335122,661114
335129,449006
335211,119693
335212,47878
335221,113903
335222,8640
335224,0
335228,10693
335311,406645
335312,713727
335313,711837
335314,1406602
335911,46442
335912,32506
335921,192730
335929,517088
335931,623571
335932,151991
335991,149769
335999,1223529
336111,218086
336112,100677
33612,135705
336211,1341179
336212,663485
336213,73319
336214,1164364
336311,107905
336312,900964
336321,116075
336322,809009
33633,259444
33634,226012
33635,541873
33636,421525
33637,1097602
336391,107730
336399,1773187
336411,340948
336412,463095
336413,1251159
336414,0
336415,0
336419,38159
3365,283921
336611,762781
336612,1283061
3369,1275878
336991,659199
336992,17591
336999,540192
33711,7229841
337121,1408023
337122,2759858
337124,379313
337125,189122
337127,905206
337129,139014
337211,717249
337212,2471097
337214,275451
337215,2491641
33791,778114
33792,497841
339111,601882
339112,1716723
339113,2203689
339114,717818
339115,581297
339116,2830854
339911,1564859
339912,118879
339913,152699
339914,346480
33992,1935498
339931,53235
339932,715532
339941,77219
339942,169492
339943,291543
339944,52211
33995,5642507
339991,915984
339992,496393
339993,164989
339994,351858
339995,108557
339999,5553891
42311,8735131
42312,12755954
42313,1978089
42314,1808138
42321,7374452
42322,8822989
42331,11362982
42332,5004416
42333,2027173
42339,3840500
42341,1167900
42342,4458499
42343,11304127
42344,5813741
42345,9002360
42346,1325736
42349,3152723
42351,12009430
42352,478956
42361,12331032
42362,3516268
42369,14786243
42371,7679443
42372,5546400
42373,4399246
42374,1058343
42381,5359062
42382,12397154
42383,34920267
42384,11621680
42385,5421803
42386,3942534
42391,6390948
42392,2986891
42393,10328204
42394,11409843
42399,12069787
42411,1110888
42412,5767113
42413,6052565
4242,8238400
42431,4643793
42432,4787549
42433,8696307
42434,2227131
42441,4330631
42442,4282676
42443,2307745
42444,922830
42445,2219490
42446,3871513
42447,4226411
42448,8406944
42449,11331448
42451,4134540
42452,1212107
42459,1090413
42461,3645958
42469,8661922
42471,3964608
42472,2971771
42481,2509465
42482,2391418
42491,7508329
42492,2187620
42493,4745033
42494,1836606
42495,1786752
42499,13251755
42511,1333400
42512,71641638
44111,27625898
44112,36455450
44121,4987791
441221,10746066
441222,7952657
441229,3489958
44131,18877691
44132,11381117
4421,22170872
44221,15569881
442291,1318046
442299,6036654
443111,7269389
443112,11475692
44312,5366171
44313,913734
44411,4543035
44412,2462517
44413,12265840
44419,42935816
44421,4397779
44422,14989351
44511,48622281
44512,19343278
44521,4956314
44522,1535946
44523,2870364
445291,1191973
445292,798323
445299,2853829
4453,25030867
44611,46718780
44612,3021419
44613,2834762
446191,3488430
446199,6205594
44711,101529564
44719,29250525
44811,3388160
44812,7403482
44813,1309665
44814,5325023
44815,1601299
44819,4753196
4482,4987676
44831,12844780
44832,529103
45111,13630862
45112,2975389
45113,1560482
45114,2919812
451211,2883255
451212,463995
45122,1387486
452111,62707
452112,100156
45291,36250
45299,5669403
4531,6089799
45321,3937387
45322,9805488
4533,5965052
45391,2148579
45392,3896908
45393,4594365
453991,4382209
453998,11057122
454111,8178531
454112,238791
454113,7152660
4542,3244744
454311,7341865
454312,3951293
454319,158008
45439,9741510
481111,248659
481112,290557
481211,1759495
481212,220394
481219,450350
483111,226216
483112,31995
483113,530133
483114,157706
483211,442848
483212,181998
48411,17048960
484121,22359787
484122,2516756
48421,6056344
48422,20705320
48423,8440779
485111,47812
485112,1094
485113,361536
485119,12292
4852,238043
48531,1153434
48532,2328772
4854,2488359
4855,1528034
4859,2124094
485991,1458278
485999,665816
4861,11827
4862,103108
48691,10583
48699,0
4871,493796
4872,969903
4879,115643
488111,2553
488119,1017750
48819,2653269
4882,729112
48831,145933
48832,418938
48833,689871
48839,516057
48841,4206024
48849,824377
4885,14668220
4889,1065150
488991,942268
488999,107959
4921,2163260
4922,2577027
49311,4254793
49312,920739
49313,421910
49319,788174
51111,4288098
51112,5896079
51113,2518202
51114,1172791
511191,76431
511199,781510
5112,7913395
51211,7803998
51212,252709
512131,1817975
512132,81101
512191,1549750
512199,157366
51221,197511
51222,266681
51223,386480
51224,697509
51229,191978
515111,404814
515112,2501282
51512,1215768
5152,419911
5171,3265694
517211,132314
517212,1380765
5173,2933522
5174,551680
5175,971261
5179,870038
518111,2360978
518112,551952
5182,7268803
51911,331301
51912,1132761
51919,387608
521,29744
52211,14869181
52212,2261525
52213,10765651
52219,88351
52221,151735
52222,2427419
522291,2943493
522292,6659008
522293,192132
522294,107443
522298,3087914
52231,9848448
52232,1696459
52239,3007053
52311,2621520
52312,5524413
52313,865961
52314,1002682
5232,33993
52391,4995872
52392,11727697
52393,11577017
523991,1196821
523999,586799
524113,734461
524114,693495
524126,2265312
524127,968913
524128,432834
52413,195103
52421,56526913
524291,1974542
524292,3676378
524298,1312758
52591,248435
52593,469480
52599,637970
53111,35023364
53112,20810140
53113,3752854
53119,4688159
5312,48292155
531311,15900103
531312,8796870
53132,4126146
53139,7166774
532111,1347026
532112,601062
53212,1513330
53221,605061
53222,421177
53223,1468411
532291,897278
532292,709562
532299,2224292
5323,2605422
532411,627617
532412,3253252
53242,678353
53249,4504902
54111,105128256
541191,4741592
541199,1204956
541211,28138518
541213,3133028
541214,4002423
541219,9539273
54131,20289018
54132,4122090
54133,42933459
54134,983203
54135,1565496
54136,675328
54137,4888195
54138,4987921
54141,8665355
54142,1241057
54143,8155777
54149,1108971
541511,32639970
541512,27381713
541513,2003845
541519,5325409
541611,27327763
541612,8846059
541613,13221783
541614,4008217
541618,2990350
54162,5779967
54169,11185515
54171,10767282
54172,1832036
54181,12237547
54182,4946259
54183,967126
54184,1591250
54185,1696951
54186,3869788
54187,563291
54189,5749190
54191,4316923
541921,2809299
541922,1671687
54193,911442
54194,21850578
54199,8013452
551111,420369
551112,3799055
551114,2845943
5611,21853315
5612,1625366
56131,6275092
56132,17095964
56133,7144161
56141,1932866
561421,1074645
561422,2259502
561431,2261637
561439,2444010
56144,4262813
56145,520512
561491,599263
561492,1383665
561499,2240720
56151,5136315
56152,2037953
561591,818356
561599,1441772
561611,1963037
561612,4512358
561613,90668
561621,4758211
561622,1620933
56171,4719482
56172,17742919
56173,41295558
56174,3076614
56179,4963925
56191,2122096
56192,3993173
56199,9071739
562111,7107348
562112,483407
562119,796322
562211,553089
562212,817528
562213,63486
562219,229421
56291,3663665
56292,1292216
562991,2047866
562998,772178
6111,31039505
6112,716950
6113,2344942
61141,335612
61142,1395664
61143,2979322
611511,842915
611512,629729
611513,857508
611519,2253933
61161,3011554
61162,3539640
61163,463965
611691,2053956
611692,647669
611699,1891291
6117,3358143
621111,177900168
621112,3897974
6212,87966557
62131,10173838
62132,10122961
62133,3952458
62134,10794085
621391,3746480
621399,3731982
62141,813839
62142,4425964
621491,95808
621492,783105
621493,5836309
621498,5339365
621511,3294253
621512,5905664
6216,16693805
62191,3716987
621991,444475
621999,1746717
6221,2857502
6222,357079
6223,539183
6231,21902260
62321,6064088
62322,3355250
623311,4742664
623312,7117999
6239,3697086
62411,5539573
62412,11083152
62419,12622083
62421,1948112
624221,2650738
624229,2825877
62423,446584
6243,5006202
6244,20696102
71111,2862835
71112,414352
71113,2848315
71119,349124
711211,778411
711212,599926
711219,1874712
71131,2100379
71132,3051543
7114,2610219
7115,9627204
71211,3241487
71212,495053
71213,586857
71219,405982
71311,616642
71312,972001
71321,515839
71329,1661889
71391,14993221
71392,506413
71393,3449375
71394,11210650
71395,2516795
71399,6469572
72111,35984756
72112,163537
721191,1042165
721199,414208
721211,1742499
721214,1805306
7213,752242
7221,118968702
722211,79721538
722212,2659931
722213,12237071
72231,1599029
72232,5998900
72233,659121
7224,16964956
811111,33818473
811112,1074623
811113,2589168
811118,2438083
811121,22973279
811122,2300585
811191,2930201
811192,5535568
811198,1278133
811211,968288
811212,2547968
811213,1130261
811219,2093798
8113,16195057
811411,698659
811412,1572996
81142,1275585
81143,188260
81149,3151019
812111,481451
812112,15415393
812113,1683640
812191,634373
812199,3218085
81221,9723905
81222,1565968
81231,2299723
81232,7683533
812331,962366
812332,789200
81291,2348704
812921,738251
812922,199597
81293,2014748
81299,3635199
8131,95112264
813211,11079516
813212,2574500
813219,3041379
813311,1689881
813312,3322283
813319,3607248
8134,13533250
81391,11922723
81392,5864055
81393,8709669
81394,961836
81399,12917991
