56,4500981
61,1003931
62,5064756
81,9308948
21,93194
48,1787078
49,152195
44,3013302
45,1995400
42,1525720
72,4845922
71,1569733
11,247056
22,52831
55,44606
32,33202
31,59654
23,7636718
51,767642
53,4165673
52,2931522
33,190394
54,9968674
