113,82231
1131,3704
1132,1415
1133,77112
114,31776
1141,26805
114111,12811
114112,13856
114119,138
1142,4971
115,133049
1151,35270
115111,685
115112,17894
115113,2640
115114,3949
115115,3824
115116,6278
1152,73554
1153,24225
21,93194
211,24023
211111,23695
211112,0
212,16293
2121,0
212111,725
212112,0
212113,144
2122,1391
21221,0
21222,1023
212221,950
212222,0
21223,0
212231,0
212234,0
21229,0
212291,0
212299,0
2123,13845
21231,6255
212311,3850
212312,939
212313,0
212319,1321
21232,6384
212321,5826
212322,416
212324,0
212325,0
21239,0
212391,0
212392,0
212393,0
212399,0
213,52878
213111,11451
213112,38731
213113,1153
213114,755
213115,0
22,52831
2211,3124
22111,1804
221111,0
221112,106
221113,0
221119,0
22112,1320
221121,0
221122,1106
2212,858
2213,48849
22131,44608
22132,4118
22133,0
23,7636718
236,2133991
2361,1946286
236115,440803
236116,26876
236117,187534
236118,1291073
2362,187705
23621,19865
23622,167840
237,287452
2371,99519
23711,62485
23712,7319
23713,29715
2372,116369
2373,38673
2379,32891
238,5215275
2381,1115153
23811,187978
23812,20703
23813,202343
23814,322491
23815,35207
23816,155009
23817,129841
23819,61581
2382,1506409
23821,712757
23822,752366
23829,41286
2383,1876387
23831,221196
23832,653130
23833,254977
23834,185067
23835,491606
23839,70411
2389,717326
23891,352047
23899,365279
311,16086
3111,543
311111,286
311119,257
3112,252
31121,0
311211,0
311212,0
311213,0
31122,177
311221,177
311222,0
311223,0
311225,0
31123,0
3113,1428
31131,0
311311,0
311312,0
311313,0
31132,0
31133,809
31134,526
3114,761
31141,287
311411,185
311412,102
31142,474
311421,386
311422,0
311423,88
3115,463
31151,135
311511,0
311512,0
311513,0
311514,0
31152,328
3116,1276
311611,635
311612,516
311613,0
311615,0
3117,432
311711,0
311712,432
3118,8842
31181,8212
311811,6862
311812,1279
311813,71
31182,310
311821,234
311822,76
311823,0
31183,320
3119,2089
31191,304
311911,0
311919,257
31192,464
31193,0
31194,553
311941,0
311942,0
31199,768
311991,514
311999,254
312,2913
3121,2913
31211,711
312111,169
312112,0
312113,329
31212,0
31213,2097
31214,0
3122,0
31221,0
31222,0
312221,0
312229,0
313,2366
3131,0
313111,0
313112,0
313113,0
3132,1302
31321,372
31322,829
313221,0
313222,752
31323,0
31324,0
313241,0
313249,0
3133,957
31-33,283250
31331,957
313311,254
313312,703
31332,0
314,18055
3141,4556
31411,143
31412,4413
314121,4172
314129,241
3149,13499
31491,1422
314911,143
314912,1279
31499,12077
314991,0
314992,0
314999,12006
315,19439
3151,465
31511,219
315111,215
315119,0
31519,246
315191,246
315192,0
3152,17314
31521,12650
315211,2252
315212,10398
31522,1175
315221,0
315222,602
315223,473
315224,0
315225,0
315228,0
31523,1715
315231,388
315232,135
315233,905
315234,0
315239,151
31529,1774
315291,113
315292,382
315299,1279
3159,1660
315991,706
315992,0
315993,0
315999,954
316,795
3161,134
3162,289
316211,0
316212,0
316213,227
316214,0
316219,0
3169,372
316991,0
316992,59
316993,116
316999,197
321,4383
3211,812
321113,782
321114,30
3212,247
321211,0
321212,0
321213,0
321214,158
321219,0
3219,3324
32191,1226
321911,402
321912,176
321918,648
32192,961
32199,1137
321991,0
321992,267
321999,867
322,667
3221,204
32211,0
32212,0
322121,0
322122,0
32213,0
3222,463
32221,137
322211,67
322212,0
322213,0
322214,0
322215,0
32222,0
322221,0
322222,0
322223,0
322224,0
322225,0
322226,0
32223,0
322231,0
322232,0
322233,0
32229,0
322291,0
322299,0
323,18620
32311,9110
323110,2028
323111,147
323112,154
323113,2308
323114,2552
323115,902
323116,0
323117,92
323118,0
323119,619
32312,9510
323121,3223
323122,6287
324,484
32411,467
32412,0
324121,0
324122,0
32419,0
324191,0
324199,0
325,3877
3251,898
32511,0
32512,0
32513,0
325131,0
325132,0
32518,0
325181,0
325182,0
325188,60
32519,528
325191,0
325192,0
325193,0
325199,0
3252,93
32521,0
325211,0
325212,0
32522,0
325221,0
325222,0
3253,399
32531,272
325311,0
325312,0
325314,216
32532,127
3254,514
325411,0
325412,0
325413,0
325414,0
3255,346
32551,331
32552,0
3256,341
32561,129
325611,129
325612,0
325613,0
32562,0
3259,1286
32591,453
32592,0
32599,833
325991,0
325992,367
325998,466
326,1867
3261,1749
32611,179
326111,0
326112,0
326113,127
32612,0
326121,0
326122,0
32613,0
32614,0
32615,0
32616,0
32619,1342
326191,213
326192,0
326199,1129
3262,118
32621,55
326211,0
326212,55
32622,0
32629,0
326291,0
326299,0
327,3304
3271,566
32711,415
327111,0
327112,415
327113,0
32712,0
327121,0
327122,0
327123,0
327124,0
327125,0
3272,966
327211,314
327212,0
327213,0
327215,432
3273,901
32731,0
32732,430
32733,0
327331,0
327332,0
32739,457
3274,0
32741,0
32742,0
3279,746
32791,0
32799,720
327991,544
327992,0
327993,0
327999,176
331,4174
3311,3305
331111,3237
331112,0
3312,334
33121,243
33122,0
331221,0
331222,0
3313,164
331311,0
331312,0
331314,0
331315,0
331316,0
331319,0
3314,298
33141,0
331411,0
331419,0
33142,0
331421,0
331422,0
331423,0
33149,0
331491,0
331492,0
3315,73
33151,32
331511,32
331512,0
331513,0
33152,0
331521,0
331522,0
331524,0
331525,0
331528,0
332,104038
3321,314
332111,0
332112,0
332114,0
332115,0
332116,173
332117,0
3322,462
332211,0
332212,213
332213,197
332214,0
3323,3637
33231,1254
332311,118
332312,898
332313,238
33232,2383
332321,364
332322,829
332323,1190
3324,0
33241,0
33242,0
33243,0
332431,0
332439,0
3325,0
3326,341
332611,0
332612,0
332618,227
3327,86800
33271,86362
33272,438
332721,0
332722,0
3328,7591
332811,0
332812,942
332813,6634
3329,4451
33291,419
332911,183
332912,0
332913,0
332919,0
33299,4032
332991,0
332992,118
332993,0
332994,0
332995,0
332996,0
332997,1283
332998,0
332999,2239
333,19997
3331,544
33311,185
333111,185
333112,0
33312,160
33313,199
333131,0
333132,182
3332,657
33321,0
33322,0
33329,471
333291,0
333292,0
333293,0
333294,0
333295,0
333298,349
3333,234
333311,0
333312,0
333313,0
333314,0
333315,0
333319,102
3334,0
333411,0
333412,0
333414,0
333415,0
3335,17387
333511,3773
333512,1882
333513,591
333514,7668
333515,3473
333516,0
333518,0
3336,238
333611,0
333612,0
333613,91
333618,0
3339,710
33391,0
333911,0
333912,0
333913,0
33392,0
333921,0
333922,0
333923,0
333924,0
33399,670
333991,0
333992,0
333993,140
333994,0
333995,0
333996,0
333997,0
333999,264
334,3440
3341,232
334111,210
334112,0
334113,0
334119,0
3342,182
33421,0
33422,89
33429,0
3343,122
3344,0
334411,0
334412,128
334413,0
334414,0
334415,0
334416,0
334417,0
334418,215
334419,309
3345,0
334510,0
334511,48
334512,0
334513,0
334514,0
334515,0
334516,0
334517,0
334518,0
334519,407
3346,559
334611,227
334612,297
334613,0
335,1637
3351,451
33511,208
33512,243
335121,148
335122,0
335129,0
3352,0
33521,0
335211,0
335212,0
33522,0
335221,0
335222,0
335224,0
335228,0
3353,0
335311,0
335312,172
335313,171
335314,240
3359,338
33591,0
335911,0
335912,0
33592,0
335921,0
335929,0
33593,0
335931,0
335932,0
33599,258
335991,0
335999,182
336,3328
3361,0
33611,0
336111,0
336112,0
33612,0
3362,639
336211,306
336212,0
336213,0
336214,184
3363,1017
33631,169
336311,0
336312,147
33632,0
336321,0
336322,0
33633,0
33634,0
33635,0
33636,85
33637,0
33639,413
336391,0
336399,413
3364,672
336411,398
336412,217
336413,0
336414,0
336415,0
336419,0
3365,0
3366,474
336611,0
336612,413
3369,390
336991,53
336992,0
336999,253
337,6587
3371,5598
33711,2984
33712,2614
337121,233
337122,2013
337124,0
337125,0
337127,0
337129,0
3372,645
337211,99
337212,345
337214,0
337215,119
3379,0
33791,0
33792,0
339,47193
3391,36289
339111,280
339112,0
339113,0
339114,431
339115,0
339116,35014
3399,10904
33991,1088
339911,649
339912,0
339913,0
339914,290
33992,1036
33993,544
339931,0
339932,398
33994,1472
339941,0
339942,0
339943,1433
339944,0
33995,4165
33999,2599
339991,39
339992,107
339993,0
339994,0
339995,141
339999,2224
42,1525720
423,717752
4231,71168
42311,16718
42312,37861
42313,4732
42314,11857
4232,46281
42321,19469
42322,26812
4233,37780
42331,13800
42332,12424
42333,2893
42339,8663
4234,130383
42341,2774
42342,14891
42343,38556
42344,16824
42345,42417
42346,7039
42349,7882
4235,17982
42351,16243
42352,1739
4236,73475
42361,26890
42362,8285
42369,38300
4237,36817
42371,16653
42372,10355
42373,6931
42374,2878
4238,138364
42381,8854
42382,18173
42383,65606
42384,22115
42385,16078
42386,7538
4239,165502
42391,24748
42392,13383
42393,21947
42394,34794
42399,70630
424,473797
4241,37620
42411,3295
42412,24341
42413,9984
4242,31378
4243,72247
42431,15904
42432,13787
42433,34631
42434,7925
4244,116433
42441,10881
42442,7137
42443,5377
42444,883
42445,16682
42446,8551
42447,6153
42448,12025
42449,48744
4245,9998
42451,3416
42452,3579
42459,3003
4246,31969
42461,6771
42469,25198
4247,7714
42471,2450
42472,5264
4248,10843
42481,4660
42482,0
4249,155595
42491,16153
42492,14478
42493,23001
42494,2425
42495,3986
42499,95552
425,334171
42511,8811
42512,325360
441,365011
4411,130339
44111,20550
44112,109789
4412,60422
44121,8004
44122,52418
441221,24363
441222,19527
441229,8528
4413,174250
44131,115960
44132,58290
442,303117
4421,107441
4422,195676
44221,55108
44229,140568
442291,23519
442299,117049
443,273397
44311,194341
443111,42345
443112,151996
44312,74226
44313,4830
444,267640
4441,184822
44411,0
44412,12876
44413,56328
44419,108746
4442,82818
44421,15499
44422,67319
44-45,5008702
445,757597
4451,390729
44511,246647
44512,144082
4452,247259
44521,30657
44522,16643
44523,23942
44529,176017
445291,49794
445292,29600
445299,96623
4453,119609
446,260310
44611,32422
44612,86601
44613,0
44619,106497
446191,53669
446199,52828
447,144709
44711,99411
44719,45298
448,641521
4481,433699
44811,31335
44812,0
44813,40356
44814,76232
44815,0
44819,91716
4482,44398
4483,163424
44831,157407
44832,6017
451,398126
4511,287379
45111,134529
45112,72315
45113,53326
45114,27209
4512,110747
45121,72642
451211,58777
451212,13865
45122,38105
452,112596
4521,0
452111,1381
452112,0
4529,108790
45291,0
45299,108499
453,1142951
4531,237857
4532,360731
45321,44568
45322,316163
4533,202646
4539,341717
45391,0
45392,78909
45393,11673
45399,195714
453991,32588
453998,163126
454,341727
4541,123146
454111,74997
454112,5345
454113,42804
4542,52281
4543,166300
45431,13216
454311,5999
454312,4607
454319,2610
45439,153084
481,21428
4811,3867
481111,0
481112,1956
4812,17561
481211,10391
481212,2860
481219,4310
483,7998
4831,4392
483111,929
483112,794
483113,1528
483114,1141
4832,3606
483211,0
483212,2092
484,1228459
4841,709241
48411,372809
48412,336432
484121,299609
484122,36823
4842,519218
48421,76242
48422,360319
48423,82657
48-49,1939749
485,220866
4851,6386
485111,216
485112,0
485113,5339
485119,816
4852,2475
4853,126195
48531,56618
48532,69577
4854,40673
4855,7483
4859,37654
485991,22980
485999,14674
486,0
4861,0
4862,0
4869,0
48691,0
48699,0
487,35843
4871,7923
4872,26124
4879,1796
488,272484
4881,34182
48811,6543
488111,0
488119,6315
48819,27639
4882,2351
4883,0
48831,732
48832,0
48833,5026
48839,6721
4884,109289
48841,92759
48849,16530
4885,95527
4889,17204
488991,14156
488999,3048
492,125219
4921,53953
4922,71266
493,26976
49311,17469
49312,1946
49313,2024
49319,5537
51,767642
511,181527
5111,144904
51111,44227
51112,47834
51113,32687
51114,7980
51119,12176
511191,1350
511199,10826
5112,36623
512,266423
5121,211343
51211,159454
51212,3183
51213,21022
512131,17404
512132,3618
51219,27684
512191,24127
512199,3557
5122,55080
51221,5717
51222,4564
51223,10049
51224,29475
51229,5275
515,44408
5151,41308
51511,32834
515111,5847
515112,26987
51512,8474
5152,3100
516,26981
517,80544
5171,8182
5172,15864
517211,3584
517212,12280
5173,30408
5174,4192
5175,5665
5179,16233
518,111969
5181,40169
518111,32633
518112,7536
5182,71800
519,55790
51911,5007
51912,38916
51919,11867
52,2931522
521,0
522,694031
5221,47408
52211,0
52212,1004
52213,41867
52219,948
5222,255685
52221,1730
52222,0
52229,234652
522291,51418
522292,126220
522293,0
522294,0
522298,52823
5223,390938
52231,298319
52232,24037
52239,68582
523,618011
5231,111469
52311,27210
52312,61416
52313,10395
52314,12448
5232,2076
5239,504466
52391,72758
52392,108281
52393,292742
52399,30685
523991,20491
523999,10194
524,1594183
5241,70242
52411,16682
524113,10073
524114,6609
52412,51939
524126,16019
524127,31365
524128,4555
52413,1621
5242,1523941
52421,1416345
52429,107596
524291,52531
524292,0
524298,32848
525,25051
52591,2788
52593,0
52599,13127
53,4165673
531,3828857
5311,972835
53111,486460
53112,297669
53113,105410
53119,83296
5312,1670948
5313,1185074
53131,577773
531311,397228
531312,180545
53132,337178
53139,270123
532,317206
5321,56799
53211,0
532111,0
532112,5444
53212,17798
5322,171933
53221,0
53222,12525
53223,99700
53229,53247
532291,3381
532292,24388
532299,25478
5323,19630
5324,68844
53241,26239
532411,6451
532412,19788
53242,6745
53249,35860
533,0
54,9968674
5411,1932565
54111,1749420
54119,183145
541191,134301
541199,48844
5412,1705239
541211,612873
541213,321506
541214,39505
541219,731355
5413,1107782
54131,217084
54132,72525
54133,459123
54134,64683
54135,139438
54136,10841
54137,108221
54138,35867
5414,478797
54141,160102
54142,24672
54143,265736
54149,28287
5415,1361987
541511,640449
541512,511371
541513,43030
541519,167137
5416,2178141
54161,1688834
541611,930469
541612,166628
541613,395227
541614,89663
541618,0
54162,101613
54169,387694
5417,114178
54171,88090
54172,26088
5418,379214
54181,140955
54182,87309
54183,7444
54184,19577
54185,24769
54186,18807
54187,7657
54189,72696
5419,710771
54191,47343
54192,229012
541921,166290
541922,62722
54193,36493
54194,104071
54199,293852
55,44606
551111,2087
551112,41576
551114,943
56,4500981
561,4382716
5611,309622
5612,11611
5613,203238
56131,87640
56132,88000
56133,27598
5614,378964
56141,102279
56142,38179
561421,16591
561422,21588
56143,70727
561431,46817
561439,23910
56144,43002
56145,5532
56149,119245
561491,8130
561492,69331
561499,41784
5615,206844
56151,157044
56152,23899
56159,25901
561591,10925
561599,14976
5616,238723
56161,148201
561611,80607
561612,66541
561613,1053
56162,90522
561621,44597
561622,45925
5617,2832160
56171,164323
56172,971971
56173,1358384
56174,153590
56179,183892
5619,201554
56191,14656
56192,44115
56199,142783
562,118265
5621,51473
562111,40719
562112,2379
562119,8375
5622,7268
562211,1707
562212,4446
562213,0
562219,1015
5629,59524
56291,16965
56292,4818
56299,37741
562991,29985
562998,7756
61,1003931
6111,87608
6112,2169
6113,10599
6114,95814
61141,3480
61142,27926
61143,64408
6115,74532
611511,13384
611512,10350
611513,11050
611519,39748
6116,634878
61161,200236
61162,204061
61163,20278
61169,210303
611691,102993
611692,45324
611699,61986
6117,98331
62,5064756
621,3152896
6211,914365
621111,781531
621112,132834
6212,401930
6213,1469167
62131,456561
62132,123209
62133,321750
62134,286541
62139,281106
621391,53335
621399,227771
6214,107970
62141,23203
62142,38204
62149,46563
621491,1155
621492,0
621493,12037
621498,31900
6215,55516
621511,16705
621512,38811
6216,156360
6219,47588
62191,18347
62199,29241
621991,1261
621999,27980
622,6155
6221,0
6222,1610
6223,3289
623,248525
6231,23222
6232,53780
62321,35136
62322,18644
6233,145957
623311,15071
623312,130886
6239,25566
624,1657180
6241,545936
62411,78693
62412,169222
62419,298021
6242,81737
62421,37659
62422,35431
624221,13311
624229,22120
62423,8647
6243,29485
6244,1000022
71,1569733
711,578797
7111,118286
71111,35025
71112,11722
71113,64424
71119,7115
7112,50613
711211,5599
711212,0
711219,38513
7113,62900
71131,21737
71132,41163
7114,41171
7115,305827
712,95189
71211,67325
71212,15542
71213,4764
71219,7558
713,895747
7131,34776
71311,4349
71312,30427
7132,14026
71321,0
71329,13218
7139,846945
71391,56773
71392,2893
71393,26493
71394,508862
71395,28539
71399,223385
72,4845922
721,423365
7211,323995
72111,254146
72112,338
72119,69511
721191,53736
721199,15775
7212,74756
721211,50470
721214,24286
7213,24614
722,4422557
7221,1718722
7222,1910980
722211,1360097
722212,57956
722213,492927
7223,204278
72231,27376
72232,133760
72233,43142
7224,588577
81,9308948
811,2228289
8111,1471740
81111,826570
811111,690235
811112,32251
811113,49069
811118,55015
81112,363529
811121,301935
811122,61594
81119,281641
811191,38937
811192,203632
811198,39072
8112,147668
811211,35824
811212,69509
811213,12210
811219,30125
8113,208889
8114,399992
81141,96281
811411,30371
811412,65910
81142,92094
81143,27035
81149,184582
812,3341353
8121,2246605
81211,1909744
812111,117538
812112,1471435
812113,320771
81219,336861
812191,22071
812199,314790
8122,117569
81221,45063
81222,72506
8123,494311
81231,185405
81232,301753
81233,7153
812331,4408
812332,2745
8129,482868
81291,238507
81292,24622
812921,11415
812922,13207
81293,26836
81299,192903
813,3739306
8131,2258612
8132,101510
813211,56833
813212,20634
813219,24043
8133,163451
813311,27554
813312,58732
813319,77165
8134,346131
8139,869602
81391,195925
81392,60385
81393,257441
81394,36603
81399,319248
