31,153150
37  ,191901
16,1079659
45,2105537
23,163441
47,6397444
41,2302930
83,22495616
08,432348
24,2940913
09,62269
0912,252730
0919,171258
07,20777132
0724,38280
0721,485423
0722,70673
0723,118095
0761,81655
0762,85184
76,50477475
1311,1755392
2819,9204
12,0
1221,75236
1222,32270
1231,9493
10,2614
1041,29506
1044,1217
1031,0
1061,7103
1094,3703
1099,4051
14,0
1411,86272
1422,75549
1423,35447
1499,58612
32,705679
1442,335195
1446,20364
3295,61801
1474,0
1475,0
1381,300863
1389,1244206
1241,36649
1081,10001
1481,37981
49,1642287
4939,78361
87,53225259
8741,38276274
1531,6858617
65,48259275
17,71497140
73,68636066
20,660535
2047,31972
2048,429265
2041,5648
2099,298255
2083,0
2046,177
2079,843
2061,3575
2062,1066
2063,0
54,19262794
2037,7769
2038,40504
2035,65442
2032,19289
2026,31367
2021,0
2022,11714
5147,175164
2077,12135
2015,33658
2091,25609
2092,64381
5461,2241011
2052,437886
2053,19400
2045,21276
2096,14167
28,295865
2899,77232
2086,2400
5149,68232
2097,93070
21,0
2111,0
7389,5310489
22,127610
2299,60403
2282,4139
2397,16248
2259,85270
51,18286131
5131,88163
30,227356
57,17672350
5714,424621
3069,301246
2394,360278
2298,24917
2296,951
2252,38498
3151,1497687
2384,1445
5699,145759
2369,2363
2326,6989
2385,155266
2389,17411
2361,29097
2386,36629
2353,33674
2323,11222
39,1659658
3021,14582
3142,0
3143,7739
3144,10988
3149,17453
3161,40119
3171,19817
3172,24978
3199,68236
2429,624727
2491,55643
2435,36861
2436,8911
2439,151827
2493,5863
2431,615935
2426,148899
2451,25663
2452,136380
3999,3737538
26,2126
2621,4244
2679,213712
2657,17812
2652,9431
2655,14921
2656,0
2671,23366
2673,39886
2674,3767
3497,0
2675,4874
2677,10166
2678,13364
3842,7371
27,3067756
2771,2902700
3993,1044804
7334,1649424
2759,342062
2782,108438
2732,88213
2789,199242
2796,245471
29,40475
2951,38422
2952,1515
33,16633
2992,33325
3312,5822
2865,8796
2812,0
2895,0
2869,30076
2861,1968
2821,38700
2822,16365
2823,0
2824,6981
2873,0
2874,0
2875,37941
2833,43772
2835,95771
2836,13227
2844,129
2842,98844
2843,9600
3087,56086
3861,115157
3081,48643
3089,110979
3088,88431
3996,4007
75,2847030
3011,9608
7534,66903
3061,62478
3261,5699
5719,752714
3264,14350
3251,9990
3253,33516
3259,7501
3255,9768
3297,10279
3211,11355
3229,91086
3221,3855
3231,237913
3271,65998
3272,9785
3281,404857
3296,23866
3299,57320
3399,168801
3313,0
3315,26052
3334,11430
3353,5143
3354,5521
3357,49375
3331,0
3339,20741
3351,0
3322,45514
3324,5011
3325,19028
3363,24100
3364,20998
3365,73602
3366,47994
3369,17650
34,228255
3462,45208
3463,2362
3449,566232
3466,7505
3469,198334
3499,322965
3425,22132
3496,194740
3448,126003
3443,171283
35,4572446
3444,881269
3523,523948
3411,9736
3537,59201
3493,14037
3495,33234
3451,383566
3452,105077
3398,98583
3599,817235
3491,33692
3728,159868
3432,17989
3562,11995
3482,17626
3483,2502
3841,253505
3489,12211
3498,118121
3543,104645
3431,10117
3559,203210
3524,15304
3532,36568
3533,70303
36,314875
3554,31408
3552,58212
3555,57764
3556,69715
3639,219249
3581,9621
3582,3633
3579,10891
3827,77984
3564,52637
3634,44626
3585,88709
3544,980110
3541,87716
3542,45705
3545,291928
3547,4038
3549,53862
3511,15398
3566,21325
3568,13941
3699,204731
3743,42179
3563,33018
3586,6565
37,128416
3534,28473
3535,90350
3536,35404
3799,414532
3546,15682
3565,87254
3567,41995
3593,38875
3594,20093
3596,13295
3571,64736
3572,18965
3575,4427
3578,97036
3671,4044
3672,110571
3674,103216
3675,9828
3676,3453
3677,50395
3678,19963
3679,277124
38,0
3845,83202
3812,53506
3822,47023
3823,148605
3829,142724
3825,106044
3826,75168
3915,63341
7372,39596
7819,481415
3695,23496
3646,46206
3631,13997
3632,0
3633,0
3612,25192
7694,58392
3613,74811
3625,159378
3691,14200
3692,2433
3643,46344
3644,16383
3624,17417
3711,7330
3714,379216
3715,42245
3716,4178
3592,14660
3647,9419
3724,33736
3761,0
3764,0
3769,1701
3731,84139
3732,209857
3944,95207
3795,0
25,142867
5712,1067084
2514,63804
2519,42303
2517,59529
2521,98476
2541,273648
2522,46092
80,73175003
5999,6277504
3843,206709
5995,112363
8072,1371156
3911,335282
3914,26395
3961,94025
3942,17806
3951,8296
3952,23887
3953,82520
3955,9426
3053,59823
3931,103169
3965,25570
3991,28310
3995,27737
50,27641259
78,5772046
55,22945094
5571,849241
5551,850215
5599,455568
7699,8161003
7629,2102373
7622,3600438
59,35234210
52,10029871
5441,465607
5499,2966318
56,12061309
5942,1185458
5994,298346
53,0
5311,25285
5993,1301812
5961,3110756
5983,431578
5984,323004
5989,54020
4512,75642
79,21218764
4522,344550
7997,255933
44,1234949
4412,34840
4481,8633
4432,70800
4482,31810
4499,63932
4489,52052
42,19271042
4213,5739715
4111,101660
48,2163944
4119,617789
46,17212
9621,2553
4783,284146
4789,41922
2741,225562
7832,421409
7833,56670
7829,67558
89,13973889
4832,905664
4812,49707
4899,280628
7375,630204
8999,2939372
82,9461758
60,1573125
61,5788949
6141,966706
6162,1913431
6159,1302221
62,7314714
67,4193530
6733,362741
6289,162327
63,19200
6321,146210
6324,125669
6351,460388
6361,504438
6399,86529
64,28402126
6411,1799486
6531,8417968
7514,362994
7515,94900
7352,179302
7999,986234
7359,1301786
81,39643497
6541,2226312
8721,18834405
7291,2249704
7371,8855903
7379,9685715
7376,588724
8742,16519713
8748,1119122
7221,1782157
8099,1368838
6712,45731
6719,601200
0Aux,65563
7338,609285
86,56325293
8699,1423016
7381,2029021
7382,1259058
72,8009368
4212,1730199
4953,324371
7241,754735
8299,2971240
8249,264732
8031,54226199
8043,2455616
8093,2956756
8011,553242
8092,72608
8071,1424574
8059,480663
8361,2337250
8322,1354503
7941,120362
7948,123321
84,1271964
70,10291032
7011,895145
7033,972017
7032,579523
58,61694807
5812,41507133
7538,21521646
7533,786075
7537,1869022
7539,1406589
7532,8843118
7549,3394572
7542,2906300
7231,12053227
7299,2431180
7219,133805
7218,82522
7384,370543
6732,1655438
8399,1649656
8641,1233730
