52,200614
56,286017
53,1381
51,502392
22,976
45,116942
58,4379415
60,43819
61,599092
62,406086
63,70242
64,1501724
49,79747
67,328336
82,931132
83,1939643
80,3539742
81,1749420
86,3625218
87,6559867
84,95189
24,80536
25,444
26,67
27,150376
20,8940
07,1632161
48,181570
23,5566
46,0
47,313229
44,38735
42,1483584
28,1316
29,467
41,201887
50,622374
09,31776
96,0
08,29344
13,73877
76,2573359
75,1614632
38,1533
73,5968761
72,3211502
70,423365
15,187534
79,1525653
78,394495
10,1705
39,18578
12,2022
59,1961316
14,12352
0A,943
16,32891
33,3512
54,699854
31,13621
30,2755
37,2721
36,6577
35,114088
34,3549
55,502259
89,1278916
21,0
32,2353
17,3704297
57,377400
65,3974117
