52,1789523
56,1915573
53,4985
51,2946245
22,77309
45,830312
58,28406237
60,532063
61,3450048
62,2787501
63,456743
64,10102645
49,599794
67,3508944
82,4921421
83,12636832
80,51811439
81,13563822
86,15472459
87,42082323
84,427826
24,1011710
25,226221
26,82325
27,2361564
20,432769
07,6539226
48,1125423
23,232843
46,4214
47,2076874
44,445323
42,6323113
28,156794
29,22571
41,976656
50,5118239
09,72779
96,1057
08,126336
13,1098681
76,15678838
75,12019248
38,428460
73,33029726
72,9314853
70,2915744
15,1003400
79,7139651
78,1862054
10,56181
39,2135383
12,91826
59,8058862
14,231485
0A,442615
16,263030
33,150124
54,3371603
31,497385
30,256714
37,354291
36,500887
35,3189027
34,1021094
55,2826829
89,6597904
21,0
32,492261
17,20082281
57,3912880
65,15679805
