56,1878699
61,708898
62,2142037
81,2888915
21,91583
48,600439
49,61603
44,677156
45,439106
42,473879
72,1474757
71,646138
11,90993
22,82785
55,797659
32,179261
31,124088
23,2372097
51,362951
53,1863563
52,2057490
33,438279
54,5450123
