52,10686483
56,4672909
53,26089
51,17925065
22,653857
45,3623290
58,71147070
60,6191484
61,9225341
62,7717323
63,1236638
64,23300067
49,2947697
67,11411945
82,21260272
83,39315548
80,167749955
81,40071245
86,41268283
87,142931201
84,1505744
24,5698076
25,1541770
26,1315701
27,11499125
20,3462100
07,14813225
48,4478632
23,1014534
46,4873
47,6712019
44,1740331
42,23558775
28,2539886
29,230289
41,4020920
50,37682131
09,130094
96,1057
08,372129
13,4367618
76,51363151
75,23817565
38,3515023
73,123571805
72,16124876
70,10187128
15,4168193
79,24961840
78,5800505
10,101972
39,12875477
12,350021
59,25960257
14,1134368
0A,3605163
16,1535500
33,1820057
54,10585488
31,1363218
30,2363170
37,3722598
36,5561098
35,19102228
34,10418228
55,16413810
89,17728503
21,0
32,3992804
17,68032559
57,14152558
65,37878493
