52,22089985
56,23703290
53,10207381
51,120732794
22,6629184
45,54426410
58,130009293
60,121181884
61,53864672
62,115231803
63,100704200
64,50255144
49,59527884
67,81687046
82,91675631
83,75543090
80,598697810
81,85444682
86,64889348
87,435117459
84,3597219
24,18540246
25,5643043
26,22848242
27,54154179
20,49968267
07,20730475
48,92265808
23,2881514
46,1611790
47,21090156
44,9162304
42,92992029
28,47283023
29,8332200
41,10857535
50,189592932
09,335987
96,84100
08,654525
13,26961271
76,104673860
75,36136407
38,40277574
73,485835203
72,26029935
70,46160143
15,12181466
79,66249654
78,21128491
10,2554298
39,43992956
12,5334699
59,80577978
14,4317079
0A,273319612
16,5229613
33,25539829
54,79232591
31,2863060
30,18953482
37,82911766
36,58330613
35,70994106
34,47716871
55,86272159
89,36574047
21,848484
32,19855194
17,116811274
57,31023792
65,71002309
